PCBNEW-LibModule-V1  
# encoding utf-8
Units mm
$INDEX
AMPHENOL_54602-908LF
$EndINDEX
$MODULE AMPHENOL_54602-908LF
Po 0 0 0 15 00000000 00000000 ~~
Li AMPHENOL_54602-908LF
Cd 
Sc 00000000
At STD
Op 0 0 0
.SolderMask 0
.SolderPaste 0
T0 -4.96784 -11.6463 1.0016 1.0016 0 0.05 N V 21 "AMPHENOL_54602-908LF"
T1 -4.34065 8.77547 1.00194 1.00194 0 0.05 N V 21 "VAL**"
DS -7.65 7.62 -7.65 -10.12 0.127 21
DS -7.65 -10.12 7.65 -10.12 0.127 21
DS 7.65 -10.12 7.65 7.62 0.127 21
DS 7.65 7.62 -7.65 7.62 0.127 21
DS -7.65 -10.12 -7.65 7.62 0.127 27
DS -7.65 7.62 7.65 7.62 0.127 27
DS 7.65 7.62 7.65 -10.12 0.127 27
DS 7.65 -10.12 -7.65 -10.12 0.127 27
DS -7.9 -10.37 -7.9 7.87 0.05 26
DS -7.9 7.87 7.9 7.87 0.05 26
DS 7.9 7.87 7.9 -10.37 0.05 26
DS 7.9 -10.37 -7.9 -10.37 0.05 26
DC -8.89 -6.35 -8.69 -6.35 0.4 21
$PAD
Sh "1" R 1.268 1.268 0 0 1800
Dr 0.76 0 0
At STD N 00C0FFFF
.SolderMask 0
Ne 0 ""
Po -4.445 -6.35
$EndPAD
$PAD
Sh "2" C 1.268 1.268 0 0 1800
Dr 0.76 0 0
At STD N 00C0FFFF
.SolderMask 0
Ne 0 ""
Po -3.175 -8.89
$EndPAD
$PAD
Sh "3" C 1.268 1.268 0 0 1800
Dr 0.76 0 0
At STD N 00C0FFFF
.SolderMask 0
Ne 0 ""
Po -1.905 -6.35
$EndPAD
$PAD
Sh "4" C 1.268 1.268 0 0 1800
Dr 0.76 0 0
At STD N 00C0FFFF
.SolderMask 0
Ne 0 ""
Po -0.635 -8.89
$EndPAD
$PAD
Sh "5" C 1.268 1.268 0 0 1800
Dr 0.76 0 0
At STD N 00C0FFFF
.SolderMask 0
Ne 0 ""
Po 0.635 -6.35
$EndPAD
$PAD
Sh "6" C 1.268 1.268 0 0 1800
Dr 0.76 0 0
At STD N 00C0FFFF
.SolderMask 0
Ne 0 ""
Po 1.905 -8.89
$EndPAD
$PAD
Sh "7" C 1.268 1.268 0 0 1800
Dr 0.76 0 0
At STD N 00C0FFFF
.SolderMask 0
Ne 0 ""
Po 3.175 -6.35
$EndPAD
$PAD
Sh "8" C 1.268 1.268 0 0 1800
Dr 0.76 0 0
At STD N 00C0FFFF
.SolderMask 0
Ne 0 ""
Po 4.445 -8.89
$EndPAD
$PAD
Sh "Hole" C 3.2 3.2 0 0 0
Dr 3.2 0 0
At HOLE N 00E0FFFF
Po -5.715 0
$EndPAD
$PAD
Sh "Hole" C 3.2 3.2 0 0 0
Dr 3.2 0 0
At HOLE N 00E0FFFF
Po 5.715 0
$EndPAD
$EndMODULE AMPHENOL_54602-908LF
