PCBNEW-LibModule-V1  
# encoding utf-8
Units mm
$INDEX
ASSMANN_A-2004-1-4-LP-N-R
$EndINDEX
$MODULE ASSMANN_A-2004-1-4-LP-N-R
Po 0 0 0 15 00000000 00000000 ~~
Li ASSMANN_A-2004-1-4-LP-N-R
Cd 
Sc 00000000
At STD
Op 0 0 0
.SolderMask 0
.SolderPaste 0
T0 -3.81694 -11.4508 1.00182 1.00182 0 0.05 N V 21 "ASSMANN_A-2004-1-4-LP-N-R"
T1 -3.1766 9.52978 1.0005 1.0005 0 0.05 N V 21 "VAL**"
DS -6.6 -10.15 6.6 -10.15 0.127 27
DS 6.6 -10.15 6.6 7.85 0.127 27
DS 6.6 7.85 -6.6 7.85 0.127 27
DS -6.6 7.85 -6.6 -10.15 0.127 27
DS -6.6 -10.15 6.6 -10.15 0.127 21
DS 6.6 -10.15 6.6 -1.61 0.127 21
DS 6.6 1.49 6.6 7.85 0.127 21
DS 6.6 7.85 -6.6 7.85 0.127 21
DS -6.6 7.85 -6.6 1.49 0.127 21
DS -6.6 -1.61 -6.6 -10.15 0.127 21
DC -7.62 -8.89 -7.57 -8.89 0.4 21
DS -6.95 -10.4 6.95 -10.4 0.05 26
DS 6.95 -10.4 6.95 8.1 0.05 26
DS 6.95 8.1 -6.95 8.1 0.05 26
DS -6.95 8.1 -6.95 -10.4 0.05 26
$PAD
Sh "6" C 1.408 1.408 0 0 0
Dr 0.9 0 0
At STD N 00C0FFFF
.SolderMask 0
Ne 0 ""
Po 3.175 -6.35
$EndPAD
$PAD
Sh "Hole" C 3.2 3.2 0 0 0
Dr 3.2 0 0
At HOLE N 00E0FFFF
Po -5.08 0
$EndPAD
$PAD
Sh "Hole" C 3.2 3.2 0 0 0
Dr 3.2 0 0
At HOLE N 00E0FFFF
Po 5.08 0
$EndPAD
$PAD
Sh "4" C 1.408 1.408 0 0 0
Dr 0.9 0 0
At STD N 00C0FFFF
.SolderMask 0
Ne 0 ""
Po 0.635 -6.35
$EndPAD
$PAD
Sh "2" C 1.408 1.408 0 0 0
Dr 0.9 0 0
At STD N 00C0FFFF
.SolderMask 0
Ne 0 ""
Po -1.905 -6.35
$EndPAD
$PAD
Sh "5" C 1.408 1.408 0 0 0
Dr 0.9 0 0
At STD N 00C0FFFF
.SolderMask 0
Ne 0 ""
Po 1.905 -8.89
$EndPAD
$PAD
Sh "3" C 1.408 1.408 0 0 0
Dr 0.9 0 0
At STD N 00C0FFFF
.SolderMask 0
Ne 0 ""
Po -0.635 -8.89
$EndPAD
$PAD
Sh "1" R 1.408 1.408 0 0 0
Dr 0.9 0 0
At STD N 00C0FFFF
.SolderMask 0
Ne 0 ""
Po -3.175 -8.89
$EndPAD
$EndMODULE ASSMANN_A-2004-1-4-LP-N-R
