EESchema Schematic File Version 4
LIBS:ArnergyComDevice-cache
EELAYER 26 0
EELAYER END
$Descr A3 16535 11693
encoding utf-8
Sheet 1 1
Title ""
Date ""
Rev ""
Comp ""
Comment1 ""
Comment2 ""
Comment3 ""
Comment4 ""
$EndDescr
$Comp
L MCU_ST_STM32F4:STM32F446RCTx U6
U 1 1 5C7113DA
P 13450 3200
F 0 "U6" H 13450 1314 50  0000 C CNN
F 1 "STM32F446RCTx" H 13050 1200 50  0000 C CNN
F 2 "Arnergyfootprint:QFP50P1200X1200X160-64N" H 12850 1500 50  0001 R CNN
F 3 "http://www.st.com/st-web-ui/static/active/en/resource/technical/document/datasheet/DM00141306.pdf" H 13450 3200 50  0001 C CNN
	1    13450 3200
	1    0    0    -1  
$EndComp
$Comp
L Device:Crystal_Small Y1
U 1 1 5C7115C0
P 12550 2850
F 0 "Y1" H 12550 2700 50  0000 C CNN
F 1 "25MHz" H 12550 2984 50  0001 C CNN
F 2 "Crystals:Crystal_SMD_HC49-SD" H 12550 2850 50  0001 C CNN
F 3 "~" H 12550 2850 50  0001 C CNN
	1    12550 2850
	0    1    1    0   
$EndComp
$Comp
L Interface_UART:SP3485CN U3
U 1 1 5C711AC6
P 3100 8350
F 0 "U3" H 2850 8950 50  0000 C CNN
F 1 "SP3485CN" H 2800 8800 50  0000 C CNN
F 2 "SMD_Packages:SOIC-8-N" H 4150 8000 50  0001 C CIN
F 3 "http://www.icbase.com/pdf/SPX/SPX00480106.pdf" H 3100 8350 50  0001 C CNN
	1    3100 8350
	1    0    0    -1  
$EndComp
$Comp
L Transistor_BJT:BC847 Q6
U 1 1 5C711E20
P 10450 7150
F 0 "Q6" H 10641 7196 50  0000 L CNN
F 1 "BC846" H 10641 7105 50  0000 L CNN
F 2 "TO_SOT_Packages_SMD:SOT-23" H 10650 7075 50  0001 L CIN
F 3 "http://www.infineon.com/dgdl/Infineon-BC847SERIES_BC848SERIES_BC849SERIES_BC850SERIES-DS-v01_01-en.pdf?fileId=db3a304314dca389011541d4630a1657" H 10450 7150 50  0001 L CNN
	1    10450 7150
	1    0    0    -1  
$EndComp
$Comp
L Transistor_BJT:BC847 Q2
U 1 1 5C711E8A
P 10750 5150
F 0 "Q2" H 10941 5196 50  0000 L CNN
F 1 "BC846" H 10941 5105 50  0000 L CNN
F 2 "TO_SOT_Packages_SMD:SOT-23" H 10950 5075 50  0001 L CIN
F 3 "http://www.infineon.com/dgdl/Infineon-BC847SERIES_BC848SERIES_BC849SERIES_BC850SERIES-DS-v01_01-en.pdf?fileId=db3a304314dca389011541d4630a1657" H 10750 5150 50  0001 L CNN
	1    10750 5150
	1    0    0    -1  
$EndComp
$Comp
L Transistor_BJT:BC847 Q8
U 1 1 5C711ECA
P 10500 10200
F 0 "Q8" H 10691 10246 50  0000 L CNN
F 1 "BC846" H 10691 10155 50  0000 L CNN
F 2 "TO_SOT_Packages_SMD:SOT-23" H 10700 10125 50  0001 L CIN
F 3 "http://www.infineon.com/dgdl/Infineon-BC847SERIES_BC848SERIES_BC849SERIES_BC850SERIES-DS-v01_01-en.pdf?fileId=db3a304314dca389011541d4630a1657" H 10500 10200 50  0001 L CNN
	1    10500 10200
	1    0    0    -1  
$EndComp
$Comp
L Regulator_Linear:LD1117S33TR_SOT223 U1
U 1 1 5C711F3C
P 2950 4800
F 0 "U1" H 2950 5042 50  0000 C CNN
F 1 "LD1117S33TR_SOT223" H 2950 4951 50  0000 C CNN
F 2 "TO_SOT_Packages_SMD:SOT-223" H 2950 5000 50  0001 C CNN
F 3 "http://www.st.com/st-web-ui/static/active/en/resource/technical/document/datasheet/CD00000544.pdf" H 3050 4550 50  0001 C CNN
	1    2950 4800
	1    0    0    -1  
$EndComp
$Comp
L Connector:DB9_Male J13
U 1 1 5C71224B
P 14550 7050
F 0 "J13" H 14730 7096 50  0000 L CNN
F 1 "DB9_Male" H 14730 7005 50  0000 L CNN
F 2 "Arnergyfootprint:DB9_Inverter" H 14550 7050 50  0001 C CNN
F 3 " ~" H 14550 7050 50  0001 C CNN
	1    14550 7050
	1    0    0    -1  
$EndComp
$Comp
L Connector:RJ45 J12
U 1 1 5C7123F1
P 14350 8900
F 0 "J12" H 14405 9567 50  0000 C CNN
F 1 "RJ45" H 14405 9476 50  0000 C CNN
F 2 "Arnergyfootprint:RJ45_AMPHENOL_54602-908LF" V 14350 8925 50  0001 C CNN
F 3 "~" V 14350 8925 50  0001 C CNN
	1    14350 8900
	1    0    0    -1  
$EndComp
$Comp
L Connector:RJ12 J11
U 1 1 5C71254E
P 12000 8950
F 0 "J11" H 12055 9517 50  0000 C CNN
F 1 "RJ12" H 12055 9426 50  0000 C CNN
F 2 "Arnergyfootprint:RJ12_ASSMANN_A-2004-1-4-LP-N-R" V 12000 8975 50  0001 C CNN
F 3 "~" V 12000 8975 50  0001 C CNN
	1    12000 8950
	1    0    0    -1  
$EndComp
$Comp
L Connector:USB_B_Mini J6
U 1 1 5C7126C5
P 3000 9900
F 0 "J6" H 3055 10367 50  0000 C CNN
F 1 "USB_DEBUG" H 2700 10300 50  0000 C CNN
F 2 "Arnergyfootprint:USB-Mini" H 3150 9850 50  0001 C CNN
F 3 "~" H 3150 9850 50  0001 C CNN
	1    3000 9900
	1    0    0    -1  
$EndComp
$Comp
L Device:Antenna_Dipole P1
U 1 1 5C7172FF
P 4400 3400
F 0 "P1" H 4630 3316 50  0000 L CNN
F 1 "Antenna_Dipole" H 4630 3225 50  0001 L CNN
F 2 "Arnergyfootprint:Antenna_FP" H 4400 3400 50  0001 C CNN
F 3 "~" H 4400 3400 50  0001 C CNN
	1    4400 3400
	1    0    0    -1  
$EndComp
$Comp
L Device:R_Small R30
U 1 1 5C717E62
P 10600 10500
F 0 "R30" H 10659 10546 50  0000 L CNN
F 1 "330R" H 10659 10455 50  0000 L CNN
F 2 "Resistors_SMD:R_0603" H 10600 10500 50  0001 C CNN
F 3 "~" H 10600 10500 50  0001 C CNN
	1    10600 10500
	1    0    0    -1  
$EndComp
$Comp
L Device:CP1_Small C6
U 1 1 5C718132
P 4600 2600
F 0 "C6" H 4400 2600 50  0000 L CNN
F 1 "330uF" H 4350 2500 50  0000 L CNN
F 2 "Capacitors_THT:CP_Radial_D6.3mm_P2.50mm" H 4600 2600 50  0001 C CNN
F 3 "~" H 4600 2600 50  0001 C CNN
	1    4600 2600
	1    0    0    -1  
$EndComp
$Comp
L Memory_EEPROM:24LC256 U2
U 1 1 5C718303
P 3050 6650
F 0 "U2" H 2800 7150 50  0000 C CNN
F 1 "24LC256" H 2700 7000 50  0000 C CNN
F 2 "SMD_Packages:SOIC-8-N" H 3050 6650 50  0001 C CNN
F 3 "http://ww1.microchip.com/downloads/en/devicedoc/21203m.pdf" H 3050 6650 50  0001 C CNN
	1    3050 6650
	1    0    0    -1  
$EndComp
$Comp
L Arnergy:SIM868 U4
U 1 1 5C73E6E2
P 6850 3250
F 0 "U4" H 6850 3750 50  0000 L CNN
F 1 "SIM868" H 6800 3550 50  0000 L CNN
F 2 "Arnergyfootprint:SIM868" H 6700 4300 50  0001 C CNN
F 3 "" H 6700 4300 50  0001 C CNN
	1    6850 3250
	1    0    0    -1  
$EndComp
Wire Wire Line
	12750 1700 12500 1700
Text Label 12400 1600 0    50   ~ 0
NRST
Wire Wire Line
	12400 8650 12500 8650
Text Label 12500 8750 0    50   ~ 0
NRST
$Comp
L power:GND #PWR070
U 1 1 5C73F809
P 12500 8650
F 0 "#PWR070" H 12500 8400 50  0001 C CNN
F 1 "GND" V 12505 8522 50  0000 R CNN
F 2 "" H 12500 8650 50  0001 C CNN
F 3 "" H 12500 8650 50  0001 C CNN
	1    12500 8650
	-1   0    0    1   
$EndComp
$Comp
L Device:C_Small C17
U 1 1 5C73FC53
P 11450 1700
F 0 "C17" H 11542 1746 50  0000 L CNN
F 1 "100nF" H 11542 1655 50  0001 L CNN
F 2 "Capacitors_SMD:C_0603" H 11450 1700 50  0001 C CNN
F 3 "~" H 11450 1700 50  0001 C CNN
	1    11450 1700
	1    0    0    -1  
$EndComp
Wire Wire Line
	12500 1600 12500 1700
$Comp
L power:GND #PWR062
U 1 1 5C73FFA1
P 11450 1800
F 0 "#PWR062" H 11450 1550 50  0001 C CNN
F 1 "GND" H 11455 1627 50  0000 C CNN
F 2 "" H 11450 1800 50  0001 C CNN
F 3 "" H 11450 1800 50  0001 C CNN
	1    11450 1800
	1    0    0    -1  
$EndComp
Wire Wire Line
	13750 1500 13650 1500
Connection ~ 13450 1500
Wire Wire Line
	13450 1500 13350 1500
Connection ~ 13550 1500
Wire Wire Line
	13550 1500 13450 1500
Connection ~ 13650 1500
Wire Wire Line
	13650 1500 13550 1500
$Comp
L Device:C_Small C31
U 1 1 5C740197
P 13450 1200
F 0 "C31" H 13542 1246 50  0000 L CNN
F 1 "100nF" H 13542 1155 50  0001 L CNN
F 2 "Capacitors_SMD:C_0603" H 13450 1200 50  0001 C CNN
F 3 "~" H 13450 1200 50  0001 C CNN
	1    13450 1200
	1    0    0    -1  
$EndComp
$Comp
L Device:C_Small C30
U 1 1 5C740230
P 13300 1200
F 0 "C30" H 13392 1246 50  0000 L CNN
F 1 "100nF" H 13392 1155 50  0001 L CNN
F 2 "Capacitors_SMD:C_0603" H 13300 1200 50  0001 C CNN
F 3 "~" H 13300 1200 50  0001 C CNN
	1    13300 1200
	1    0    0    -1  
$EndComp
$Comp
L Device:C_Small C26
U 1 1 5C740288
P 13150 1200
F 0 "C26" H 13242 1246 50  0000 L CNN
F 1 "100nF" H 13242 1155 50  0001 L CNN
F 2 "Capacitors_SMD:C_0603" H 13150 1200 50  0001 C CNN
F 3 "~" H 13150 1200 50  0001 C CNN
	1    13150 1200
	1    0    0    -1  
$EndComp
$Comp
L Device:C_Small C32
U 1 1 5C7402D8
P 13600 1200
F 0 "C32" H 13692 1246 50  0000 L CNN
F 1 "100nF" H 13692 1155 50  0001 L CNN
F 2 "Capacitors_SMD:C_0603" H 13600 1200 50  0001 C CNN
F 3 "~" H 13600 1200 50  0001 C CNN
	1    13600 1200
	1    0    0    -1  
$EndComp
$Comp
L Device:C_Small C33
U 1 1 5C740330
P 13750 1200
F 0 "C33" H 13842 1246 50  0000 L CNN
F 1 "100nF" H 13842 1155 50  0001 L CNN
F 2 "Capacitors_SMD:C_0603" H 13750 1200 50  0001 C CNN
F 3 "~" H 13750 1200 50  0001 C CNN
	1    13750 1200
	1    0    0    -1  
$EndComp
$Comp
L Device:C_Small C25
U 1 1 5C7404D9
P 10900 2300
F 0 "C25" H 10992 2346 50  0000 L CNN
F 1 "100nF" H 10992 2255 50  0001 L CNN
F 2 "Capacitors_SMD:C_0603" H 10900 2300 50  0001 C CNN
F 3 "~" H 10900 2300 50  0001 C CNN
	1    10900 2300
	1    0    0    -1  
$EndComp
Wire Wire Line
	13150 1100 13300 1100
Connection ~ 13300 1100
Wire Wire Line
	13300 1100 13450 1100
Connection ~ 13450 1100
Wire Wire Line
	13450 1100 13600 1100
Connection ~ 13600 1100
Wire Wire Line
	13600 1100 13750 1100
Wire Wire Line
	13150 1300 13300 1300
Connection ~ 13300 1300
Wire Wire Line
	13300 1300 13450 1300
Connection ~ 13450 1300
Wire Wire Line
	13450 1300 13600 1300
Connection ~ 13600 1300
Wire Wire Line
	13600 1300 13750 1300
Connection ~ 13750 1300
Wire Wire Line
	13750 1300 13850 1300
$Comp
L power:GND #PWR077
U 1 1 5C740BDC
P 13850 1300
F 0 "#PWR077" H 13850 1050 50  0001 C CNN
F 1 "GND" H 13855 1127 50  0000 C CNN
F 2 "" H 13850 1300 50  0001 C CNN
F 3 "" H 13850 1300 50  0001 C CNN
	1    13850 1300
	1    0    0    -1  
$EndComp
$Comp
L power:+3.3V #PWR073
U 1 1 5C740CD4
P 13450 1100
F 0 "#PWR073" H 13450 950 50  0001 C CNN
F 1 "+3.3V" H 13465 1273 50  0000 C CNN
F 2 "" H 13450 1100 50  0001 C CNN
F 3 "" H 13450 1100 50  0001 C CNN
	1    13450 1100
	1    0    0    -1  
$EndComp
$Comp
L power:GND #PWR078
U 1 1 5C7410C1
P 13850 5100
F 0 "#PWR078" H 13850 4850 50  0001 C CNN
F 1 "GND" H 13855 4927 50  0000 C CNN
F 2 "" H 13850 5100 50  0001 C CNN
F 3 "" H 13850 5100 50  0001 C CNN
	1    13850 5100
	1    0    0    -1  
$EndComp
Wire Wire Line
	13250 5000 13350 5000
Wire Wire Line
	13850 5000 13850 5100
Connection ~ 13350 5000
Wire Wire Line
	13350 5000 13450 5000
Connection ~ 13450 5000
Wire Wire Line
	13450 5000 13550 5000
Connection ~ 13550 5000
Wire Wire Line
	13550 5000 13650 5000
Connection ~ 13650 5000
Wire Wire Line
	13650 5000 13850 5000
Wire Wire Line
	12750 2800 12750 2750
Wire Wire Line
	12750 2750 12550 2750
Wire Wire Line
	12750 2900 12750 2950
Wire Wire Line
	12750 2950 12550 2950
Wire Wire Line
	12750 4700 12750 4650
Wire Wire Line
	12750 4650 12550 4650
$Comp
L Device:C_Small C20
U 1 1 5C745501
P 12450 2700
F 0 "C20" H 12300 2800 50  0000 L CNN
F 1 "18pF" H 12542 2655 50  0001 L CNN
F 2 "Capacitors_SMD:C_0603" H 12450 2700 50  0001 C CNN
F 3 "~" H 12450 2700 50  0001 C CNN
	1    12450 2700
	0    1    1    0   
$EndComp
$Comp
L Device:C_Small C21
U 1 1 5C745651
P 12450 3000
F 0 "C21" H 12500 2900 50  0000 L CNN
F 1 "18pF" H 12542 2955 50  0001 L CNN
F 2 "Capacitors_SMD:C_0603" H 12450 3000 50  0001 C CNN
F 3 "~" H 12450 3000 50  0001 C CNN
	1    12450 3000
	0    1    1    0   
$EndComp
$Comp
L Device:C_Small C22
U 1 1 5C7458F1
P 12450 4600
F 0 "C22" V 12400 4300 50  0000 L CNN
F 1 "6pF" H 12542 4555 50  0001 L CNN
F 2 "Capacitors_SMD:C_0402" H 12450 4600 50  0001 C CNN
F 3 "~" H 12450 4600 50  0001 C CNN
	1    12450 4600
	0    1    1    0   
$EndComp
$Comp
L Device:C_Small C23
U 1 1 5C745991
P 12400 5050
F 0 "C23" H 12450 5100 50  0000 L CNN
F 1 "6pF" H 12492 5005 50  0001 L CNN
F 2 "Capacitors_SMD:C_0402" H 12400 5050 50  0001 C CNN
F 3 "~" H 12400 5050 50  0001 C CNN
	1    12400 5050
	0    1    1    0   
$EndComp
Wire Wire Line
	12550 4650 12550 4600
$Comp
L power:GND #PWR067
U 1 1 5C74723E
P 12050 5100
F 0 "#PWR067" H 12050 4850 50  0001 C CNN
F 1 "GND" H 12055 4927 50  0000 C CNN
F 2 "" H 12050 5100 50  0001 C CNN
F 3 "" H 12050 5100 50  0001 C CNN
	1    12050 5100
	1    0    0    -1  
$EndComp
Wire Wire Line
	12550 2750 12550 2700
Connection ~ 12550 2750
Wire Wire Line
	12550 3000 12550 2950
Connection ~ 12550 2950
$Comp
L power:GND #PWR066
U 1 1 5C74ABEB
P 12250 2850
F 0 "#PWR066" H 12250 2600 50  0001 C CNN
F 1 "GND" H 12255 2677 50  0000 C CNN
F 2 "" H 12250 2850 50  0001 C CNN
F 3 "" H 12250 2850 50  0001 C CNN
	1    12250 2850
	1    0    0    -1  
$EndComp
Wire Wire Line
	12350 2700 12350 2850
Wire Wire Line
	12250 2850 12350 2850
Connection ~ 12350 2850
Wire Wire Line
	12350 2850 12350 3000
Wire Wire Line
	14150 4000 14300 4000
Wire Wire Line
	14150 4100 14300 4100
Text Label 14300 4000 0    50   ~ 0
EEPROM_SCL
Text Label 14300 4100 0    50   ~ 0
EEPROM_SDA
Wire Wire Line
	12750 3100 12650 3100
Wire Wire Line
	12750 4300 12600 4300
Wire Wire Line
	12750 4400 12600 4400
Wire Wire Line
	12750 4500 12600 4500
Text Label 12600 4300 2    50   ~ 0
INV_TX
Text Label 12600 4400 2    50   ~ 0
INV_RX
Text Label 12650 3100 2    50   ~ 0
MOD_TX
Wire Wire Line
	14150 3000 14300 3000
Wire Wire Line
	14150 3100 14300 3100
Text Label 14300 3000 0    50   ~ 0
SWDIO
Text Label 14300 3100 0    50   ~ 0
SWCLK
Wire Wire Line
	14150 2700 14300 2700
Wire Wire Line
	14150 2800 14300 2800
Wire Wire Line
	14150 2900 14300 2900
Wire Wire Line
	14150 2600 14300 2600
Text Label 14300 2600 0    50   ~ 0
DEBUG_TX
Text Label 14300 2700 0    50   ~ 0
DEBUG_RX
Text Label 14300 2800 0    50   ~ 0
USB_DM
Text Label 14300 2900 0    50   ~ 0
USB_DP
Wire Wire Line
	12750 4100 12600 4100
Wire Wire Line
	12750 4200 12600 4200
Text Label 12600 4100 2    50   ~ 0
MOD_RTS
Text Label 12600 4200 2    50   ~ 0
MOD_CTS
Wire Wire Line
	14150 2000 14300 2000
Wire Wire Line
	14150 1900 14300 1900
Text Label 14300 1900 0    50   ~ 0
BMS_TX
Text Label 14300 2000 0    50   ~ 0
BMS_RX
$Comp
L power:GND #PWR020
U 1 1 5C76CDF9
P 3100 8750
F 0 "#PWR020" H 3100 8500 50  0001 C CNN
F 1 "GND" H 3105 8577 50  0000 C CNN
F 2 "" H 3100 8750 50  0001 C CNN
F 3 "" H 3100 8750 50  0001 C CNN
	1    3100 8750
	1    0    0    -1  
$EndComp
$Comp
L power:+3.3V #PWR019
U 1 1 5C76CE94
P 3100 7950
F 0 "#PWR019" H 3100 7800 50  0001 C CNN
F 1 "+3.3V" H 3115 8123 50  0000 C CNN
F 2 "" H 3100 7950 50  0001 C CNN
F 3 "" H 3100 7950 50  0001 C CNN
	1    3100 7950
	1    0    0    -1  
$EndComp
Wire Wire Line
	3500 8250 3550 8250
Wire Wire Line
	3500 8450 3550 8450
Wire Wire Line
	2700 8150 2550 8150
Wire Wire Line
	2700 8250 2650 8250
Wire Wire Line
	2700 8550 2550 8550
Text Label 2550 8150 2    50   ~ 0
BMS_RX
Text Label 2550 8250 2    50   ~ 0
BMS_RTS
Text Label 2550 8550 2    50   ~ 0
BMS_TX
Text Label 3600 8450 0    50   ~ 0
BMS_B
$Comp
L Device:C_Small C2
U 1 1 5C77B543
P 2000 8350
F 0 "C2" H 2092 8396 50  0000 L CNN
F 1 "100nF" H 2092 8305 50  0001 L CNN
F 2 "Capacitors_SMD:C_0603" H 2000 8350 50  0001 C CNN
F 3 "~" H 2000 8350 50  0001 C CNN
	1    2000 8350
	1    0    0    -1  
$EndComp
$Comp
L power:GND #PWR011
U 1 1 5C77BA26
P 2000 8450
F 0 "#PWR011" H 2000 8200 50  0001 C CNN
F 1 "GND" H 2005 8277 50  0000 C CNN
F 2 "" H 2000 8450 50  0001 C CNN
F 3 "" H 2000 8450 50  0001 C CNN
	1    2000 8450
	1    0    0    -1  
$EndComp
$Comp
L power:+3.3V #PWR010
U 1 1 5C77BA7F
P 2000 8250
F 0 "#PWR010" H 2000 8100 50  0001 C CNN
F 1 "+3.3V" H 2015 8423 50  0000 C CNN
F 2 "" H 2000 8250 50  0001 C CNN
F 3 "" H 2000 8250 50  0001 C CNN
	1    2000 8250
	1    0    0    -1  
$EndComp
$Comp
L Device:R_Small R2
U 1 1 5C77BAFF
P 3550 8350
F 0 "R2" H 3609 8396 50  0000 L CNN
F 1 "120R" H 3500 8150 50  0000 L CNN
F 2 "Resistors_SMD:R_0603" H 3550 8350 50  0001 C CNN
F 3 "~" H 3550 8350 50  0001 C CNN
	1    3550 8350
	1    0    0    -1  
$EndComp
Connection ~ 3550 8250
Wire Wire Line
	3550 8250 3600 8250
Connection ~ 3550 8450
Wire Wire Line
	3550 8450 3600 8450
Wire Wire Line
	2700 8450 2650 8450
Wire Wire Line
	2650 8450 2650 8250
Connection ~ 2650 8250
Wire Wire Line
	2650 8250 2550 8250
Wire Wire Line
	14150 2100 14300 2100
Text Label 14300 2100 0    50   ~ 0
BMS_RTS
Wire Wire Line
	14750 8900 14900 8900
Wire Wire Line
	14750 8800 14900 8800
Text Label 14900 8900 0    50   ~ 0
BMS_B
$Comp
L power:+5V #PWR012
U 1 1 5C78756D
P 2450 4800
F 0 "#PWR012" H 2450 4650 50  0001 C CNN
F 1 "+5V" H 2465 4973 50  0000 C CNN
F 2 "" H 2450 4800 50  0001 C CNN
F 3 "" H 2450 4800 50  0001 C CNN
	1    2450 4800
	1    0    0    -1  
$EndComp
$Comp
L power:GND #PWR016
U 1 1 5C78778F
P 3000 10300
F 0 "#PWR016" H 3000 10050 50  0001 C CNN
F 1 "GND" H 3005 10127 50  0000 C CNN
F 2 "" H 3000 10300 50  0001 C CNN
F 3 "" H 3000 10300 50  0001 C CNN
	1    3000 10300
	1    0    0    -1  
$EndComp
$Comp
L Device:C_Small C5
U 1 1 5C787987
P 3450 9350
F 0 "C5" H 3542 9396 50  0000 L CNN
F 1 "100nF" H 3542 9305 50  0001 L CNN
F 2 "Capacitors_SMD:C_0603" H 3450 9350 50  0001 C CNN
F 3 "~" H 3450 9350 50  0001 C CNN
	1    3450 9350
	1    0    0    -1  
$EndComp
Wire Wire Line
	3300 9700 3300 9450
Wire Wire Line
	3450 9450 3300 9450
$Comp
L power:GND #PWR026
U 1 1 5C78D291
P 3450 9250
F 0 "#PWR026" H 3450 9000 50  0001 C CNN
F 1 "GND" V 3455 9122 50  0000 R CNN
F 2 "" H 3450 9250 50  0001 C CNN
F 3 "" H 3450 9250 50  0001 C CNN
	1    3450 9250
	0    1    1    0   
$EndComp
Text Label 3950 9900 0    50   ~ 0
USB_DP
Text Label 3950 10000 0    50   ~ 0
USB_DM
$Comp
L power:GND #PWR018
U 1 1 5C79DEF9
P 3050 6950
F 0 "#PWR018" H 3050 6700 50  0001 C CNN
F 1 "GND" H 3055 6777 50  0000 C CNN
F 2 "" H 3050 6950 50  0001 C CNN
F 3 "" H 3050 6950 50  0001 C CNN
	1    3050 6950
	1    0    0    -1  
$EndComp
$Comp
L power:+3.3V #PWR017
U 1 1 5C79DF9A
P 3050 6350
F 0 "#PWR017" H 3050 6200 50  0001 C CNN
F 1 "+3.3V" H 3065 6523 50  0000 C CNN
F 2 "" H 3050 6350 50  0001 C CNN
F 3 "" H 3050 6350 50  0001 C CNN
	1    3050 6350
	1    0    0    -1  
$EndComp
$Comp
L Device:C_Small C1
U 1 1 5C79E243
P 1950 6650
F 0 "C1" H 2042 6696 50  0000 L CNN
F 1 "100nF" H 2042 6605 50  0001 L CNN
F 2 "Capacitors_SMD:C_0603" H 1950 6650 50  0001 C CNN
F 3 "~" H 1950 6650 50  0001 C CNN
	1    1950 6650
	1    0    0    -1  
$EndComp
$Comp
L power:GND #PWR09
U 1 1 5C79E24A
P 1950 6750
F 0 "#PWR09" H 1950 6500 50  0001 C CNN
F 1 "GND" H 1955 6577 50  0000 C CNN
F 2 "" H 1950 6750 50  0001 C CNN
F 3 "" H 1950 6750 50  0001 C CNN
	1    1950 6750
	1    0    0    -1  
$EndComp
$Comp
L power:+3.3V #PWR08
U 1 1 5C79E250
P 1950 6550
F 0 "#PWR08" H 1950 6400 50  0001 C CNN
F 1 "+3.3V" H 1965 6723 50  0000 C CNN
F 2 "" H 1950 6550 50  0001 C CNN
F 3 "" H 1950 6550 50  0001 C CNN
	1    1950 6550
	1    0    0    -1  
$EndComp
$Comp
L power:GND #PWR025
U 1 1 5C7A42EF
P 3450 6750
F 0 "#PWR025" H 3450 6500 50  0001 C CNN
F 1 "GND" H 3455 6577 50  0000 C CNN
F 2 "" H 3450 6750 50  0001 C CNN
F 3 "" H 3450 6750 50  0001 C CNN
	1    3450 6750
	1    0    0    -1  
$EndComp
$Comp
L power:GND #PWR014
U 1 1 5C7A434C
P 2650 6850
F 0 "#PWR014" H 2650 6600 50  0001 C CNN
F 1 "GND" H 2655 6677 50  0000 C CNN
F 2 "" H 2650 6850 50  0001 C CNN
F 3 "" H 2650 6850 50  0001 C CNN
	1    2650 6850
	1    0    0    -1  
$EndComp
Wire Wire Line
	2650 6550 2650 6650
Connection ~ 2650 6650
Wire Wire Line
	2650 6650 2650 6750
Connection ~ 2650 6750
Wire Wire Line
	2650 6750 2650 6850
Wire Wire Line
	3450 6550 3500 6550
Wire Wire Line
	3450 6650 3600 6650
Text Label 3700 6550 0    50   ~ 0
EEPROM_SDA
Text Label 3700 6650 0    50   ~ 0
EEPROM_SCL
$Comp
L Device:R_Small R1
U 1 1 5C7AEC42
P 3500 6150
F 0 "R1" H 3400 6350 50  0000 L CNN
F 1 "1.5K" V 3400 6100 50  0000 L CNN
F 2 "Resistors_SMD:R_0603" H 3500 6150 50  0001 C CNN
F 3 "~" H 3500 6150 50  0001 C CNN
	1    3500 6150
	1    0    0    -1  
$EndComp
$Comp
L Device:R_Small R3
U 1 1 5C7AF319
P 3600 6150
F 0 "R3" H 3700 6350 50  0000 L CNN
F 1 "1.5K" V 3700 6100 50  0000 L CNN
F 2 "Resistors_SMD:R_0603" H 3600 6150 50  0001 C CNN
F 3 "~" H 3600 6150 50  0001 C CNN
	1    3600 6150
	1    0    0    -1  
$EndComp
$Comp
L power:+3.3V #PWR028
U 1 1 5C7AF4C8
P 3550 5950
F 0 "#PWR028" H 3550 5800 50  0001 C CNN
F 1 "+3.3V" H 3565 6123 50  0000 C CNN
F 2 "" H 3550 5950 50  0001 C CNN
F 3 "" H 3550 5950 50  0001 C CNN
	1    3550 5950
	1    0    0    -1  
$EndComp
Wire Wire Line
	3500 6050 3550 6050
Wire Wire Line
	3550 5950 3550 6050
Connection ~ 3550 6050
Wire Wire Line
	3550 6050 3600 6050
Wire Wire Line
	3500 6250 3500 6550
Connection ~ 3500 6550
Wire Wire Line
	3500 6550 3700 6550
Wire Wire Line
	3600 6250 3600 6650
Connection ~ 3600 6650
Wire Wire Line
	3600 6650 3700 6650
$Comp
L power:GND #PWR015
U 1 1 5C7C1355
P 2950 5100
F 0 "#PWR015" H 2950 4850 50  0001 C CNN
F 1 "GND" H 2955 4927 50  0000 C CNN
F 2 "" H 2950 5100 50  0001 C CNN
F 3 "" H 2950 5100 50  0001 C CNN
	1    2950 5100
	1    0    0    -1  
$EndComp
$Comp
L Device:C_Small C3
U 1 1 5C7C1561
P 2450 4900
F 0 "C3" H 2542 4946 50  0000 L CNN
F 1 "100nF" H 2542 4855 50  0001 L CNN
F 2 "Capacitors_SMD:C_0603" H 2450 4900 50  0001 C CNN
F 3 "~" H 2450 4900 50  0001 C CNN
	1    2450 4900
	1    0    0    -1  
$EndComp
$Comp
L power:+3.3V #PWR023
U 1 1 5C7C1883
P 3400 4800
F 0 "#PWR023" H 3400 4650 50  0001 C CNN
F 1 "+3.3V" H 3415 4973 50  0000 C CNN
F 2 "" H 3400 4800 50  0001 C CNN
F 3 "" H 3400 4800 50  0001 C CNN
	1    3400 4800
	1    0    0    -1  
$EndComp
Connection ~ 2450 4800
Wire Wire Line
	2450 4800 2650 4800
Wire Wire Line
	3250 4800 3400 4800
$Comp
L power:GND #PWR013
U 1 1 5C7C9D96
P 2450 5000
F 0 "#PWR013" H 2450 4750 50  0001 C CNN
F 1 "GND" H 2455 4827 50  0000 C CNN
F 2 "" H 2450 5000 50  0001 C CNN
F 3 "" H 2450 5000 50  0001 C CNN
	1    2450 5000
	1    0    0    -1  
$EndComp
$Comp
L power:GND #PWR024
U 1 1 5C7C9DFD
P 3400 5000
F 0 "#PWR024" H 3400 4750 50  0001 C CNN
F 1 "GND" H 3405 4827 50  0000 C CNN
F 2 "" H 3400 5000 50  0001 C CNN
F 3 "" H 3400 5000 50  0001 C CNN
	1    3400 5000
	1    0    0    -1  
$EndComp
$Comp
L Interface_UART:MAX3221 U5
U 1 1 5C7CA48C
P 12350 6750
F 0 "U5" H 12000 7700 50  0000 C CNN
F 1 "MAX3221" H 12050 7600 50  0000 C CNN
F 2 "Arnergyfootprint:SOP65P640X120-16N" H 12400 6750 50  0001 C CIN
F 3 "http://www.ti.com/lit/ds/symlink/max3221.pdf" H 12350 7700 50  0001 C CNN
	1    12350 6750
	1    0    0    -1  
$EndComp
Wire Wire Line
	12950 7250 14250 7250
Wire Wire Line
	12950 7150 14000 7150
Wire Wire Line
	14000 7150 14000 7050
Wire Wire Line
	14000 7050 14250 7050
$Comp
L power:GND #PWR069
U 1 1 5C7DC93A
P 12350 7650
F 0 "#PWR069" H 12350 7400 50  0001 C CNN
F 1 "GND" H 12355 7477 50  0000 C CNN
F 2 "" H 12350 7650 50  0001 C CNN
F 3 "" H 12350 7650 50  0001 C CNN
	1    12350 7650
	1    0    0    -1  
$EndComp
$Comp
L power:GND #PWR079
U 1 1 5C7DCCC2
P 14250 6650
F 0 "#PWR079" H 14250 6400 50  0001 C CNN
F 1 "GND" V 14255 6522 50  0000 R CNN
F 2 "" H 14250 6650 50  0001 C CNN
F 3 "" H 14250 6650 50  0001 C CNN
	1    14250 6650
	0    1    1    0   
$EndComp
$Comp
L Device:C_Small C28
U 1 1 5C7DCF30
P 13150 6450
F 0 "C28" V 13100 6500 50  0000 L CNN
F 1 "100nF" H 13242 6405 50  0001 L CNN
F 2 "Capacitors_SMD:C_0603" H 13150 6450 50  0001 C CNN
F 3 "~" H 13150 6450 50  0001 C CNN
	1    13150 6450
	0    1    1    0   
$EndComp
$Comp
L Device:C_Small C29
U 1 1 5C7DD3F4
P 13150 6950
F 0 "C29" V 13200 7000 50  0000 L CNN
F 1 "100nF" H 13242 6905 50  0001 L CNN
F 2 "Capacitors_SMD:C_0603" H 13150 6950 50  0001 C CNN
F 3 "~" H 13150 6950 50  0001 C CNN
	1    13150 6950
	0    1    1    0   
$EndComp
$Comp
L power:GND #PWR076
U 1 1 5C7DD4AF
P 13400 6700
F 0 "#PWR076" H 13400 6450 50  0001 C CNN
F 1 "GND" H 13405 6527 50  0000 C CNN
F 2 "" H 13400 6700 50  0001 C CNN
F 3 "" H 13400 6700 50  0001 C CNN
	1    13400 6700
	1    0    0    -1  
$EndComp
Wire Wire Line
	12950 6450 13050 6450
Wire Wire Line
	12950 6950 13050 6950
Wire Wire Line
	13250 6450 13400 6450
Wire Wire Line
	13400 6450 13400 6650
Wire Wire Line
	13250 6950 13250 6650
Wire Wire Line
	13250 6650 13400 6650
Connection ~ 13400 6650
Wire Wire Line
	13400 6650 13400 6700
$Comp
L power:+3.3V #PWR068
U 1 1 5C7F007C
P 12350 5850
F 0 "#PWR068" H 12350 5700 50  0001 C CNN
F 1 "+3.3V" H 12365 6023 50  0000 C CNN
F 2 "" H 12350 5850 50  0001 C CNN
F 3 "" H 12350 5850 50  0001 C CNN
	1    12350 5850
	1    0    0    -1  
$EndComp
$Comp
L power:+3.3V #PWR072
U 1 1 5C7F00F0
P 12950 7450
F 0 "#PWR072" H 12950 7300 50  0001 C CNN
F 1 "+3.3V" V 12965 7578 50  0000 L CNN
F 2 "" H 12950 7450 50  0001 C CNN
F 3 "" H 12950 7450 50  0001 C CNN
	1    12950 7450
	0    1    1    0   
$EndComp
$Comp
L power:+3.3V #PWR064
U 1 1 5C7F018E
P 11750 7450
F 0 "#PWR064" H 11750 7300 50  0001 C CNN
F 1 "+3.3V" V 11765 7578 50  0000 L CNN
F 2 "" H 11750 7450 50  0001 C CNN
F 3 "" H 11750 7450 50  0001 C CNN
	1    11750 7450
	0    -1   -1   0   
$EndComp
$Comp
L power:GND #PWR063
U 1 1 5C7F0416
P 11750 7350
F 0 "#PWR063" H 11750 7100 50  0001 C CNN
F 1 "GND" V 11755 7222 50  0000 R CNN
F 2 "" H 11750 7350 50  0001 C CNN
F 3 "" H 11750 7350 50  0001 C CNN
	1    11750 7350
	0    1    1    0   
$EndComp
$Comp
L Device:C_Small C18
U 1 1 5C7F0672
P 11650 6250
F 0 "C18" H 11742 6296 50  0000 L CNN
F 1 "100nF" H 11742 6205 50  0001 L CNN
F 2 "Capacitors_SMD:C_0603" H 11650 6250 50  0001 C CNN
F 3 "~" H 11650 6250 50  0001 C CNN
	1    11650 6250
	-1   0    0    1   
$EndComp
$Comp
L Device:C_Small C19
U 1 1 5C7F0786
P 11650 6750
F 0 "C19" H 11742 6796 50  0000 L CNN
F 1 "100nF" H 11742 6705 50  0001 L CNN
F 2 "Capacitors_SMD:C_0603" H 11650 6750 50  0001 C CNN
F 3 "~" H 11650 6750 50  0001 C CNN
	1    11650 6750
	-1   0    0    1   
$EndComp
Wire Wire Line
	11750 6050 11650 6050
Wire Wire Line
	11650 6050 11650 6150
Wire Wire Line
	11750 6450 11650 6450
Wire Wire Line
	11650 6450 11650 6350
Wire Wire Line
	11750 6550 11650 6550
Wire Wire Line
	11650 6550 11650 6650
Wire Wire Line
	11750 6950 11650 6950
Wire Wire Line
	11650 6950 11650 6850
Wire Wire Line
	11750 7150 11600 7150
Wire Wire Line
	11750 7250 11600 7250
Text Label 11600 7150 2    50   ~ 0
INV_TX
Text Label 11600 7250 2    50   ~ 0
INV_RX
$Comp
L Device:C_Small C27
U 1 1 5C72EE27
P 13150 5900
F 0 "C27" H 13242 5946 50  0000 L CNN
F 1 "100nF" H 13242 5855 50  0001 L CNN
F 2 "Capacitors_SMD:C_0603" H 13150 5900 50  0001 C CNN
F 3 "~" H 13150 5900 50  0001 C CNN
	1    13150 5900
	1    0    0    -1  
$EndComp
$Comp
L power:GND #PWR075
U 1 1 5C72EE2E
P 13150 6000
F 0 "#PWR075" H 13150 5750 50  0001 C CNN
F 1 "GND" H 13155 5827 50  0000 C CNN
F 2 "" H 13150 6000 50  0001 C CNN
F 3 "" H 13150 6000 50  0001 C CNN
	1    13150 6000
	1    0    0    -1  
$EndComp
$Comp
L power:+3.3V #PWR074
U 1 1 5C72EE34
P 13150 5800
F 0 "#PWR074" H 13150 5650 50  0001 C CNN
F 1 "+3.3V" H 13165 5973 50  0000 C CNN
F 2 "" H 13150 5800 50  0001 C CNN
F 3 "" H 13150 5800 50  0001 C CNN
	1    13150 5800
	1    0    0    -1  
$EndComp
Text Label 12500 9150 0    50   ~ 0
POWER_LED
Text Label 12500 9050 0    50   ~ 0
SUB_LED
Text Label 12500 8950 0    50   ~ 0
MODEM_LED
Text Label 12500 8850 0    50   ~ 0
STATUS_LED
$Comp
L Device:R_Small R26
U 1 1 5C73B8DF
P 10200 10200
F 0 "R26" H 10259 10246 50  0000 L CNN
F 1 "1k" H 10259 10155 50  0000 L CNN
F 2 "Resistors_SMD:R_0603" H 10200 10200 50  0001 C CNN
F 3 "~" H 10200 10200 50  0001 C CNN
	1    10200 10200
	0    1    1    0   
$EndComp
$Comp
L power:+3.3V #PWR059
U 1 1 5C7418F1
P 10600 10000
F 0 "#PWR059" H 10600 9850 50  0001 C CNN
F 1 "+3.3V" H 10615 10173 50  0000 C CNN
F 2 "" H 10600 10000 50  0001 C CNN
F 3 "" H 10600 10000 50  0001 C CNN
	1    10600 10000
	1    0    0    -1  
$EndComp
Wire Wire Line
	10100 10200 9950 10200
Wire Wire Line
	10600 10600 10600 10800
$Comp
L Transistor_BJT:BC847 Q7
U 1 1 5C752CA6
P 10500 8800
F 0 "Q7" H 10691 8846 50  0000 L CNN
F 1 "BC846" H 10691 8755 50  0000 L CNN
F 2 "TO_SOT_Packages_SMD:SOT-23" H 10700 8725 50  0001 L CIN
F 3 "http://www.infineon.com/dgdl/Infineon-BC847SERIES_BC848SERIES_BC849SERIES_BC850SERIES-DS-v01_01-en.pdf?fileId=db3a304314dca389011541d4630a1657" H 10500 8800 50  0001 L CNN
	1    10500 8800
	1    0    0    -1  
$EndComp
$Comp
L Device:R_Small R29
U 1 1 5C752CAD
P 10600 9100
F 0 "R29" H 10659 9146 50  0000 L CNN
F 1 "330R" H 10659 9055 50  0000 L CNN
F 2 "Resistors_SMD:R_0603" H 10600 9100 50  0001 C CNN
F 3 "~" H 10600 9100 50  0001 C CNN
	1    10600 9100
	1    0    0    -1  
$EndComp
$Comp
L Device:R_Small R25
U 1 1 5C752CB4
P 10200 8800
F 0 "R25" H 10259 8846 50  0000 L CNN
F 1 "1k" H 10259 8755 50  0000 L CNN
F 2 "Resistors_SMD:R_0603" H 10200 8800 50  0001 C CNN
F 3 "~" H 10200 8800 50  0001 C CNN
	1    10200 8800
	0    1    1    0   
$EndComp
$Comp
L power:+3.3V #PWR058
U 1 1 5C752CBB
P 10600 8600
F 0 "#PWR058" H 10600 8450 50  0001 C CNN
F 1 "+3.3V" H 10615 8773 50  0000 C CNN
F 2 "" H 10600 8600 50  0001 C CNN
F 3 "" H 10600 8600 50  0001 C CNN
	1    10600 8600
	1    0    0    -1  
$EndComp
Wire Wire Line
	10100 8800 9950 8800
Wire Wire Line
	10600 9200 10600 9400
Text Label 10600 10800 0    50   ~ 0
STATUS_LED
Text Label 10600 9400 0    50   ~ 0
MODEM_LED
$Comp
L Device:R_Small R28
U 1 1 5C758D78
P 10550 7450
F 0 "R28" H 10609 7496 50  0000 L CNN
F 1 "330R" H 10609 7405 50  0000 L CNN
F 2 "Resistors_SMD:R_0603" H 10550 7450 50  0001 C CNN
F 3 "~" H 10550 7450 50  0001 C CNN
	1    10550 7450
	1    0    0    -1  
$EndComp
$Comp
L Device:R_Small R27
U 1 1 5C758E38
P 10250 6950
F 0 "R27" H 10309 6996 50  0000 L CNN
F 1 "10K" H 10309 6905 50  0000 L CNN
F 2 "Resistors_SMD:R_0603" H 10250 6950 50  0001 C CNN
F 3 "~" H 10250 6950 50  0001 C CNN
	1    10250 6950
	-1   0    0    1   
$EndComp
$Comp
L power:+3.3V #PWR057
U 1 1 5C758FBB
P 10550 6700
F 0 "#PWR057" H 10550 6550 50  0001 C CNN
F 1 "+3.3V" H 10565 6873 50  0000 C CNN
F 2 "" H 10550 6700 50  0001 C CNN
F 3 "" H 10550 6700 50  0001 C CNN
	1    10550 6700
	1    0    0    -1  
$EndComp
Wire Wire Line
	10550 7550 10550 7700
Text Label 10550 7700 0    50   ~ 0
POWER_LED
Wire Wire Line
	10250 7050 10250 7150
$Comp
L Transistor_BJT:BC847 Q5
U 1 1 5C77D9B5
P 9950 7350
F 0 "Q5" H 10141 7396 50  0000 L CNN
F 1 "BC846" H 10141 7305 50  0000 L CNN
F 2 "TO_SOT_Packages_SMD:SOT-23" H 10150 7275 50  0001 L CIN
F 3 "http://www.infineon.com/dgdl/Infineon-BC847SERIES_BC848SERIES_BC849SERIES_BC850SERIES-DS-v01_01-en.pdf?fileId=db3a304314dca389011541d4630a1657" H 9950 7350 50  0001 L CNN
	1    9950 7350
	1    0    0    -1  
$EndComp
Wire Wire Line
	10050 7150 10250 7150
Connection ~ 10250 7150
$Comp
L power:GND #PWR056
U 1 1 5C784396
P 10050 7550
F 0 "#PWR056" H 10050 7300 50  0001 C CNN
F 1 "GND" H 10055 7377 50  0000 C CNN
F 2 "" H 10050 7550 50  0001 C CNN
F 3 "" H 10050 7550 50  0001 C CNN
	1    10050 7550
	1    0    0    -1  
$EndComp
$Comp
L Transistor_BJT:BC847 Q3
U 1 1 5C7844BF
P 9750 6550
F 0 "Q3" H 9941 6596 50  0000 L CNN
F 1 "BC846" H 9941 6505 50  0000 L CNN
F 2 "TO_SOT_Packages_SMD:SOT-23" H 9950 6475 50  0001 L CIN
F 3 "http://www.infineon.com/dgdl/Infineon-BC847SERIES_BC848SERIES_BC849SERIES_BC850SERIES-DS-v01_01-en.pdf?fileId=db3a304314dca389011541d4630a1657" H 9750 6550 50  0001 L CNN
	1    9750 6550
	1    0    0    -1  
$EndComp
$Comp
L Device:R_Small R24
U 1 1 5C784657
P 9850 6850
F 0 "R24" H 9909 6896 50  0000 L CNN
F 1 "330R" H 9600 6850 50  0000 L CNN
F 2 "Resistors_SMD:R_0603" H 9850 6850 50  0001 C CNN
F 3 "~" H 9850 6850 50  0001 C CNN
	1    9850 6850
	1    0    0    -1  
$EndComp
Wire Wire Line
	9850 6950 9850 7050
Text Label 9850 7050 2    50   ~ 0
SUB_LED
$Comp
L power:+3.3V #PWR053
U 1 1 5C78BA34
P 9850 6350
F 0 "#PWR053" H 9850 6200 50  0001 C CNN
F 1 "+3.3V" H 9865 6523 50  0000 C CNN
F 2 "" H 9850 6350 50  0001 C CNN
F 3 "" H 9850 6350 50  0001 C CNN
	1    9850 6350
	1    0    0    -1  
$EndComp
$Comp
L Device:R_Small R22
U 1 1 5C78BAB9
P 9400 6550
F 0 "R22" H 9459 6596 50  0000 L CNN
F 1 "1K" V 9300 6500 50  0000 L CNN
F 2 "Resistors_SMD:R_0603" H 9400 6550 50  0001 C CNN
F 3 "~" H 9400 6550 50  0001 C CNN
	1    9400 6550
	0    1    1    0   
$EndComp
Wire Wire Line
	9750 7350 9550 7350
Wire Wire Line
	9500 6550 9550 6550
Connection ~ 9550 6550
Wire Wire Line
	9550 6550 9550 7350
Wire Wire Line
	9300 6550 9150 6550
Text Label 9950 8800 2    50   ~ 0
MOD_LED
Text Label 9950 10200 0    50   ~ 0
STATUS
Text Label 9150 6550 0    50   ~ 0
SUB
Wire Wire Line
	14150 3600 14300 3600
Text Label 14300 3600 0    50   ~ 0
SUB
Text Label 14300 3500 0    50   ~ 0
STATUS
$Comp
L power:GND #PWR040
U 1 1 5C7CBF73
P 5500 4500
F 0 "#PWR040" H 5500 4250 50  0001 C CNN
F 1 "GND" H 5505 4327 50  0000 C CNN
F 2 "" H 5500 4500 50  0001 C CNN
F 3 "" H 5500 4500 50  0001 C CNN
	1    5500 4500
	1    0    0    -1  
$EndComp
Wire Wire Line
	5600 3650 5500 3650
Wire Wire Line
	5500 3650 5500 3750
Wire Wire Line
	5600 3750 5500 3750
Connection ~ 5500 3750
Wire Wire Line
	5500 3750 5500 3850
Wire Wire Line
	5600 3850 5500 3850
Connection ~ 5500 3850
Wire Wire Line
	5500 3850 5500 3950
Wire Wire Line
	5600 3950 5500 3950
Connection ~ 5500 3950
Wire Wire Line
	5500 3950 5500 4050
Wire Wire Line
	5600 4050 5500 4050
Connection ~ 5500 4050
Wire Wire Line
	5500 4050 5500 4150
Wire Wire Line
	5600 4150 5500 4150
Connection ~ 5500 4150
Wire Wire Line
	5500 4150 5500 4250
Wire Wire Line
	5600 4250 5500 4250
Connection ~ 5500 4250
Wire Wire Line
	5500 4250 5500 4350
Wire Wire Line
	5600 4350 5500 4350
Connection ~ 5500 4350
Wire Wire Line
	5500 4350 5500 4450
Wire Wire Line
	5600 4450 5500 4450
Connection ~ 5500 4450
Wire Wire Line
	5500 4450 5500 4500
$Comp
L power:GND #PWR042
U 1 1 5C812CED
P 5900 4950
F 0 "#PWR042" H 5900 4700 50  0001 C CNN
F 1 "GND" H 5905 4777 50  0000 C CNN
F 2 "" H 5900 4950 50  0001 C CNN
F 3 "" H 5900 4950 50  0001 C CNN
	1    5900 4950
	1    0    0    -1  
$EndComp
$Comp
L power:GND #PWR043
U 1 1 5C812D74
P 6400 4950
F 0 "#PWR043" H 6400 4700 50  0001 C CNN
F 1 "GND" H 6405 4777 50  0000 C CNN
F 2 "" H 6400 4950 50  0001 C CNN
F 3 "" H 6400 4950 50  0001 C CNN
	1    6400 4950
	1    0    0    -1  
$EndComp
$Comp
L power:GND #PWR045
U 1 1 5C812DFB
P 6700 4950
F 0 "#PWR045" H 6700 4700 50  0001 C CNN
F 1 "GND" H 6705 4777 50  0000 C CNN
F 2 "" H 6700 4950 50  0001 C CNN
F 3 "" H 6700 4950 50  0001 C CNN
	1    6700 4950
	1    0    0    -1  
$EndComp
$Comp
L power:GND #PWR051
U 1 1 5C81300A
P 8300 3650
F 0 "#PWR051" H 8300 3400 50  0001 C CNN
F 1 "GND" H 8305 3477 50  0000 C CNN
F 2 "" H 8300 3650 50  0001 C CNN
F 3 "" H 8300 3650 50  0001 C CNN
	1    8300 3650
	0    -1   -1   0   
$EndComp
$Comp
L power:GND #PWR050
U 1 1 5C81333B
P 7850 1550
F 0 "#PWR050" H 7850 1300 50  0001 C CNN
F 1 "GND" H 7855 1377 50  0000 C CNN
F 2 "" H 7850 1550 50  0001 C CNN
F 3 "" H 7850 1550 50  0001 C CNN
	1    7850 1550
	-1   0    0    1   
$EndComp
$Comp
L power:GND #PWR049
U 1 1 5C813536
P 7650 1550
F 0 "#PWR049" H 7650 1300 50  0001 C CNN
F 1 "GND" H 7655 1377 50  0000 C CNN
F 2 "" H 7650 1550 50  0001 C CNN
F 3 "" H 7650 1550 50  0001 C CNN
	1    7650 1550
	-1   0    0    1   
$EndComp
$Comp
L power:GND #PWR048
U 1 1 5C8135BD
P 7400 1550
F 0 "#PWR048" H 7400 1300 50  0001 C CNN
F 1 "GND" H 7500 1450 50  0000 C CNN
F 2 "" H 7400 1550 50  0001 C CNN
F 3 "" H 7400 1550 50  0001 C CNN
	1    7400 1550
	-1   0    0    1   
$EndComp
$Comp
L power:GND #PWR047
U 1 1 5C813644
P 6900 1550
F 0 "#PWR047" H 6900 1300 50  0001 C CNN
F 1 "GND" H 6905 1377 50  0000 C CNN
F 2 "" H 6900 1550 50  0001 C CNN
F 3 "" H 6900 1550 50  0001 C CNN
	1    6900 1550
	-1   0    0    1   
$EndComp
Wire Wire Line
	6900 1750 6900 1700
Wire Wire Line
	7000 1750 7000 1700
Wire Wire Line
	7000 1700 6900 1700
Connection ~ 6900 1700
Wire Wire Line
	6900 1700 6900 1550
Wire Wire Line
	7400 1750 7400 1700
Wire Wire Line
	7200 1750 7200 1700
Wire Wire Line
	7200 1700 7300 1700
Connection ~ 7400 1700
Wire Wire Line
	7400 1700 7400 1550
Wire Wire Line
	7300 1750 7300 1700
Connection ~ 7300 1700
Wire Wire Line
	7300 1700 7400 1700
Wire Wire Line
	7650 1550 7650 1750
Wire Wire Line
	7850 1550 7850 1750
Wire Wire Line
	8100 3650 8300 3650
$Comp
L power:GND #PWR031
U 1 1 5C85E0A4
P 4500 3700
F 0 "#PWR031" H 4500 3450 50  0001 C CNN
F 1 "GND" H 4505 3527 50  0000 C CNN
F 2 "" H 4500 3700 50  0001 C CNN
F 3 "" H 4500 3700 50  0001 C CNN
	1    4500 3700
	1    0    0    -1  
$EndComp
$Comp
L power:GND #PWR038
U 1 1 5C85E413
P 5400 3150
F 0 "#PWR038" H 5400 2900 50  0001 C CNN
F 1 "GND" H 5405 2977 50  0000 C CNN
F 2 "" H 5400 3150 50  0001 C CNN
F 3 "" H 5400 3150 50  0001 C CNN
	1    5400 3150
	0    1    1    0   
$EndComp
Wire Wire Line
	5600 2650 5550 2650
Wire Wire Line
	5600 2750 5550 2750
Wire Wire Line
	5550 2750 5550 2650
Connection ~ 5550 2650
Wire Wire Line
	5550 2650 5400 2650
Wire Wire Line
	5600 3150 5400 3150
Wire Wire Line
	6700 4950 6700 4800
Wire Wire Line
	6400 4950 6400 4800
Wire Wire Line
	5900 4950 5900 4800
Wire Wire Line
	5600 2450 5450 2450
Wire Wire Line
	5600 2550 5450 2550
Wire Wire Line
	7100 1750 7100 1600
$Comp
L Device:C_Small C8
U 1 1 5C956048
P 4900 2600
F 0 "C8" H 4950 2500 50  0000 L CNN
F 1 "100nF" H 4992 2555 50  0001 L CNN
F 2 "Capacitors_SMD:C_0603" H 4900 2600 50  0001 C CNN
F 3 "~" H 4900 2600 50  0001 C CNN
	1    4900 2600
	1    0    0    -1  
$EndComp
$Comp
L Device:C_Small C7
U 1 1 5C956140
P 4750 2600
F 0 "C7" H 4650 2500 50  0000 L CNN
F 1 "100nF" H 4842 2555 50  0001 L CNN
F 2 "Capacitors_SMD:C_0603" H 4750 2600 50  0001 C CNN
F 3 "~" H 4750 2600 50  0001 C CNN
	1    4750 2600
	1    0    0    -1  
$EndComp
Wire Wire Line
	5450 2550 5450 2450
$Comp
L power:+4V #PWR039
U 1 1 5C9629D7
P 5450 2450
F 0 "#PWR039" H 5450 2300 50  0001 C CNN
F 1 "+4V" H 5465 2623 50  0000 C CNN
F 2 "" H 5450 2450 50  0001 C CNN
F 3 "" H 5450 2450 50  0001 C CNN
	1    5450 2450
	1    0    0    -1  
$EndComp
Connection ~ 5450 2450
$Comp
L power:+4V #PWR033
U 1 1 5C962A6B
P 4750 2400
F 0 "#PWR033" H 4750 2250 50  0001 C CNN
F 1 "+4V" H 4765 2573 50  0000 C CNN
F 2 "" H 4750 2400 50  0001 C CNN
F 3 "" H 4750 2400 50  0001 C CNN
	1    4750 2400
	1    0    0    -1  
$EndComp
Wire Wire Line
	4600 2400 4750 2400
Wire Wire Line
	4600 2400 4600 2500
Wire Wire Line
	4900 2500 4900 2400
Wire Wire Line
	4900 2400 4750 2400
Connection ~ 4750 2400
Wire Wire Line
	4750 2500 4750 2400
$Comp
L power:GND #PWR034
U 1 1 5C989338
P 4750 2850
F 0 "#PWR034" H 4750 2600 50  0001 C CNN
F 1 "GND" H 4755 2677 50  0000 C CNN
F 2 "" H 4750 2850 50  0001 C CNN
F 3 "" H 4750 2850 50  0001 C CNN
	1    4750 2850
	1    0    0    -1  
$EndComp
Wire Wire Line
	4600 2700 4600 2850
Wire Wire Line
	4600 2850 4750 2850
Wire Wire Line
	4900 2700 4900 2850
Wire Wire Line
	4900 2850 4750 2850
Connection ~ 4750 2850
Wire Wire Line
	4750 2700 4750 2850
Text Label 6950 4900 3    50   ~ 0
SIM1_DATA
Text Label 7050 4900 3    50   ~ 0
SIM1_CLK
Text Label 7150 4900 3    50   ~ 0
SIM1_RST
Text Label 7250 4900 3    50   ~ 0
SIM1_VDD
Text Label 7450 4900 3    50   ~ 0
SIM2_DATA
Text Label 7550 4900 3    50   ~ 0
SIM2_CLK
Text Label 7650 4900 3    50   ~ 0
SIM2_RST
Text Label 7750 4900 3    50   ~ 0
SIM2_VDD
Wire Wire Line
	6950 4800 6950 4900
Wire Wire Line
	7050 4800 7050 4900
Wire Wire Line
	7150 4800 7150 4900
Wire Wire Line
	7250 4800 7250 4900
Wire Wire Line
	7450 4800 7450 4900
Wire Wire Line
	7550 4800 7550 4900
Wire Wire Line
	7650 4800 7650 4900
Wire Wire Line
	7750 4800 7750 4900
Text Label 5900 1000 1    50   ~ 0
MOD_TX
Text Label 6000 1000 1    50   ~ 0
MOD_RX
Text Label 6100 1000 1    50   ~ 0
MOD_RTS
Text Label 6200 1000 1    50   ~ 0
MOD_CTS
Text Label 6300 1000 1    50   ~ 0
MOD_DCD
Text Label 6400 1000 1    50   ~ 0
MOD_DTR
Text Label 7100 1600 1    50   ~ 0
GSM_ANT
Wire Wire Line
	4400 3600 4400 3700
Wire Wire Line
	4500 3600 4500 3700
Text Label 4400 3700 3    50   ~ 0
GSM_ANT
$Comp
L power:GND #PWR037
U 1 1 5CACC1F4
P 5400 2650
F 0 "#PWR037" H 5400 2400 50  0001 C CNN
F 1 "GND" H 5405 2477 50  0000 C CNN
F 2 "" H 5400 2650 50  0001 C CNN
F 3 "" H 5400 2650 50  0001 C CNN
	1    5400 2650
	1    0    0    -1  
$EndComp
Text Label 5850 6650 2    50   ~ 0
SIM1_VDD
Text Label 5850 5900 2    50   ~ 0
SIM1_RST
Text Label 5850 6000 2    50   ~ 0
SIM1_CLK
$Comp
L power:GND #PWR035
U 1 1 5CACD193
P 7850 6850
F 0 "#PWR035" H 7850 6600 50  0001 C CNN
F 1 "GND" H 7855 6677 50  0000 C CNN
F 2 "" H 7850 6850 50  0001 C CNN
F 3 "" H 7850 6850 50  0001 C CNN
	1    7850 6850
	1    0    0    -1  
$EndComp
Text Label 5850 6400 2    50   ~ 0
SIM1_DATA
Text Label 6900 8350 2    50   ~ 0
SIM2_DATA
Text Label 6900 7950 2    50   ~ 0
SIM2_CLK
Text Label 6900 7850 2    50   ~ 0
SIM2_RST
Text Label 6900 8600 2    50   ~ 0
SIM2_VDD
$Comp
L Device:R_Small R20
U 1 1 5C7D5B9F
P 10250 5150
F 0 "R20" H 10309 5196 50  0000 L CNN
F 1 "4.7K" V 10150 5100 50  0000 L CNN
F 2 "Resistors_SMD:R_0603" H 10250 5150 50  0001 C CNN
F 3 "~" H 10250 5150 50  0001 C CNN
	1    10250 5150
	0    1    1    0   
$EndComp
$Comp
L Device:R_Small R21
U 1 1 5C7D5D71
P 10600 5450
F 0 "R21" H 10659 5496 50  0000 L CNN
F 1 "47K" V 10500 5400 50  0000 L CNN
F 2 "Resistors_SMD:R_0603" H 10600 5450 50  0001 C CNN
F 3 "~" H 10600 5450 50  0001 C CNN
	1    10600 5450
	0    1    1    0   
$EndComp
$Comp
L power:GND #PWR052
U 1 1 5C7D5E21
P 10850 5550
F 0 "#PWR052" H 10850 5300 50  0001 C CNN
F 1 "GND" H 10855 5377 50  0000 C CNN
F 2 "" H 10850 5550 50  0001 C CNN
F 3 "" H 10850 5550 50  0001 C CNN
	1    10850 5550
	1    0    0    -1  
$EndComp
Wire Wire Line
	8100 4050 8300 4050
Text Label 8300 4050 0    50   ~ 0
PWRKEY
Text Label 10850 4950 0    50   ~ 0
PWRKEY
Wire Wire Line
	10850 5550 10850 5450
Wire Wire Line
	10700 5450 10850 5450
Connection ~ 10850 5450
Wire Wire Line
	10850 5450 10850 5350
Wire Wire Line
	10350 5150 10450 5150
Wire Wire Line
	10500 5450 10450 5450
Wire Wire Line
	10450 5450 10450 5150
Connection ~ 10450 5150
Wire Wire Line
	10450 5150 10550 5150
Wire Wire Line
	10150 5150 9950 5150
Text Label 9950 5150 2    50   ~ 0
MODEM_PWR
Text Label 8100 2450 0    50   ~ 0
MOD_LED
$Comp
L Device:R_Small R8
U 1 1 5C81305F
P 6750 5900
F 0 "R8" V 6700 5200 50  0000 L CNN
F 1 "22R" V 6700 5300 50  0000 L CNN
F 2 "Resistors_SMD:R_0603" H 6750 5900 50  0001 C CNN
F 3 "~" H 6750 5900 50  0001 C CNN
	1    6750 5900
	0    1    1    0   
$EndComp
$Comp
L Device:R_Small R9
U 1 1 5C813183
P 6750 6000
F 0 "R9" V 6700 5300 50  0000 L CNN
F 1 "22R" V 6700 5400 50  0000 L CNN
F 2 "Resistors_SMD:R_0603" H 6750 6000 50  0001 C CNN
F 3 "~" H 6750 6000 50  0001 C CNN
	1    6750 6000
	0    1    1    0   
$EndComp
$Comp
L Device:R_Small R10
U 1 1 5C81326D
P 6750 6400
F 0 "R10" V 6700 5650 50  0000 L CNN
F 1 "22R" V 6700 5800 50  0000 L CNN
F 2 "Resistors_SMD:R_0603" H 6750 6400 50  0001 C CNN
F 3 "~" H 6750 6400 50  0001 C CNN
	1    6750 6400
	0    1    1    0   
$EndComp
$Comp
L Device:C_Small C11
U 1 1 5C8135B5
P 6400 6850
F 0 "C11" H 6300 6900 50  0000 L CNN
F 1 "22pF" H 6492 6805 50  0001 L CNN
F 2 "Capacitors_SMD:C_0402" H 6400 6850 50  0001 C CNN
F 3 "~" H 6400 6850 50  0001 C CNN
	1    6400 6850
	1    0    0    -1  
$EndComp
$Comp
L Device:C_Small C12
U 1 1 5C8136DF
P 6550 6850
F 0 "C12" H 6500 6900 50  0000 L CNN
F 1 "22pF" H 6642 6805 50  0001 L CNN
F 2 "Capacitors_SMD:C_0402" H 6550 6850 50  0001 C CNN
F 3 "~" H 6550 6850 50  0001 C CNN
	1    6550 6850
	1    0    0    -1  
$EndComp
$Comp
L Device:C_Small C10
U 1 1 5C81378B
P 6250 6850
F 0 "C10" H 6100 6900 50  0000 L CNN
F 1 "22pF" H 6342 6805 50  0001 L CNN
F 2 "Capacitors_SMD:C_0402" H 6250 6850 50  0001 C CNN
F 3 "~" H 6250 6850 50  0001 C CNN
	1    6250 6850
	1    0    0    -1  
$EndComp
$Comp
L Device:C_Small C9
U 1 1 5C813DF1
P 6100 6850
F 0 "C9" H 6150 6950 50  0000 L CNN
F 1 "100nF" H 6192 6805 50  0001 L CNN
F 2 "Capacitors_SMD:C_0603" H 6100 6850 50  0001 C CNN
F 3 "~" H 6100 6850 50  0001 C CNN
	1    6100 6850
	-1   0    0    1   
$EndComp
$Comp
L power:GND #PWR041
U 1 1 5C8FCACB
P 6300 7100
F 0 "#PWR041" H 6300 6850 50  0001 C CNN
F 1 "GND" H 6305 6927 50  0000 C CNN
F 2 "" H 6300 7100 50  0001 C CNN
F 3 "" H 6300 7100 50  0001 C CNN
	1    6300 7100
	1    0    0    -1  
$EndComp
$Comp
L Device:R_Small R11
U 1 1 5CB307B4
P 5900 1100
F 0 "R11" H 4850 1200 50  0000 L CNN
F 1 "1K" H 5250 1100 50  0000 L CNN
F 2 "Resistors_SMD:R_0603" H 5900 1100 50  0001 C CNN
F 3 "~" H 5900 1100 50  0001 C CNN
	1    5900 1100
	1    0    0    -1  
$EndComp
$Comp
L Device:R_Small R12
U 1 1 5CB31D73
P 6000 1100
F 0 "R12" H 5000 1200 50  0000 L CNN
F 1 "1K" H 5350 1100 50  0000 L CNN
F 2 "Resistors_SMD:R_0603" H 6000 1100 50  0001 C CNN
F 3 "~" H 6000 1100 50  0001 C CNN
	1    6000 1100
	1    0    0    -1  
$EndComp
$Comp
L Device:R_Small R13
U 1 1 5CB31F30
P 6100 1100
F 0 "R13" H 5150 1200 50  0000 L CNN
F 1 "1K" H 5450 1100 50  0000 L CNN
F 2 "Resistors_SMD:R_0603" H 6100 1100 50  0001 C CNN
F 3 "~" H 6100 1100 50  0001 C CNN
	1    6100 1100
	1    0    0    -1  
$EndComp
$Comp
L Device:R_Small R14
U 1 1 5CB31FE8
P 6200 1100
F 0 "R14" H 5300 1200 50  0000 L CNN
F 1 "1K" H 5550 1100 50  0000 L CNN
F 2 "Resistors_SMD:R_0603" H 6200 1100 50  0001 C CNN
F 3 "~" H 6200 1100 50  0001 C CNN
	1    6200 1100
	1    0    0    -1  
$EndComp
$Comp
L Device:R_Small R15
U 1 1 5CB320A2
P 6300 1100
F 0 "R15" H 5450 1200 50  0000 L CNN
F 1 "1K" H 5650 1100 50  0000 L CNN
F 2 "Resistors_SMD:R_0603" H 6300 1100 50  0001 C CNN
F 3 "~" H 6300 1100 50  0001 C CNN
	1    6300 1100
	1    0    0    -1  
$EndComp
$Comp
L Device:R_Small R16
U 1 1 5CB3215E
P 6400 1100
F 0 "R16" H 5600 1200 50  0000 L CNN
F 1 "1K" H 5750 1100 50  0000 L CNN
F 2 "Resistors_SMD:R_0603" H 6400 1100 50  0001 C CNN
F 3 "~" H 6400 1100 50  0001 C CNN
	1    6400 1100
	1    0    0    -1  
$EndComp
Wire Wire Line
	5900 1200 5900 1750
Wire Wire Line
	6000 1200 6000 1700
Wire Wire Line
	6100 1200 6100 1500
Wire Wire Line
	6200 1200 6200 1750
Wire Wire Line
	6300 1200 6300 1750
Wire Wire Line
	6400 1200 6400 1300
$Comp
L Device:R_Small R5
U 1 1 5CBB6897
P 5600 1300
F 0 "R5" V 5500 1400 50  0000 L CNN
F 1 "5.6K" V 5500 1200 50  0000 L CNN
F 2 "Resistors_SMD:R_0603" H 5600 1300 50  0001 C CNN
F 3 "~" H 5600 1300 50  0001 C CNN
	1    5600 1300
	0    1    1    0   
$EndComp
$Comp
L Device:R_Small R6
U 1 1 5CBB6E84
P 5600 1500
F 0 "R6" V 5500 1600 50  0000 L CNN
F 1 "5.6K" V 5500 1400 50  0000 L CNN
F 2 "Resistors_SMD:R_0603" H 5600 1500 50  0001 C CNN
F 3 "~" H 5600 1500 50  0001 C CNN
	1    5600 1500
	0    1    1    0   
$EndComp
$Comp
L Device:R_Small R7
U 1 1 5CBB6F52
P 5600 1700
F 0 "R7" V 5500 1800 50  0000 L CNN
F 1 "5.6K" V 5500 1600 50  0000 L CNN
F 2 "Resistors_SMD:R_0603" H 5600 1700 50  0001 C CNN
F 3 "~" H 5600 1700 50  0001 C CNN
	1    5600 1700
	0    1    1    0   
$EndComp
Wire Wire Line
	5700 1700 6000 1700
Connection ~ 6000 1700
Wire Wire Line
	6000 1700 6000 1750
Wire Wire Line
	5700 1500 6100 1500
Connection ~ 6100 1500
Wire Wire Line
	6100 1500 6100 1750
Wire Wire Line
	5700 1300 6400 1300
Connection ~ 6400 1300
Wire Wire Line
	6400 1300 6400 1750
$Comp
L power:GND #PWR036
U 1 1 5CBFBB66
P 5250 1800
F 0 "#PWR036" H 5250 1550 50  0001 C CNN
F 1 "GND" H 5255 1627 50  0000 C CNN
F 2 "" H 5250 1800 50  0001 C CNN
F 3 "" H 5250 1800 50  0001 C CNN
	1    5250 1800
	1    0    0    -1  
$EndComp
Wire Wire Line
	5500 1700 5250 1700
Wire Wire Line
	5250 1700 5250 1800
Wire Wire Line
	5500 1500 5250 1500
Wire Wire Line
	5250 1500 5250 1700
Connection ~ 5250 1700
Wire Wire Line
	5500 1300 5250 1300
Wire Wire Line
	5250 1300 5250 1500
Connection ~ 5250 1500
Text Label 12600 4500 2    50   ~ 0
MOD_RX
Text Label 14300 3700 0    50   ~ 0
MOD_DCD
Text Label 14300 3800 0    50   ~ 0
MOD_DTR
Wire Wire Line
	14150 3700 14300 3700
Wire Wire Line
	14150 3800 14300 3800
$Comp
L Connector:Conn_01x01_Female TP1
U 1 1 5C885B2B
P 9250 950
F 0 "TP1" H 9277 976 50  0000 L CNN
F 1 "5V" H 9277 885 50  0000 L CNN
F 2 "Pin_Headers:Pin_Header_Straight_1x01_Pitch1.00mm" H 9250 950 50  0001 C CNN
F 3 "~" H 9250 950 50  0001 C CNN
	1    9250 950 
	1    0    0    -1  
$EndComp
$Comp
L Connector:Conn_01x02_Female J1
U 1 1 5C885CCF
P 10100 1000
F 0 "J1" H 10127 976 50  0000 L CNN
F 1 "5V" H 10127 885 50  0000 L CNN
F 2 "Pin_Headers:Pin_Header_Straight_1x02_Pitch2.54mm" H 10100 1000 50  0001 C CNN
F 3 "~" H 10100 1000 50  0001 C CNN
	1    10100 1000
	1    0    0    -1  
$EndComp
$Comp
L Connector:Conn_01x02_Female J2
U 1 1 5C8860DF
P 10100 1600
F 0 "J2" H 10127 1576 50  0000 L CNN
F 1 "4.1V" H 10127 1485 50  0000 L CNN
F 2 "Pin_Headers:Pin_Header_Straight_1x02_Pitch2.54mm" H 10100 1600 50  0001 C CNN
F 3 "~" H 10100 1600 50  0001 C CNN
	1    10100 1600
	1    0    0    -1  
$EndComp
$Comp
L power:+5V #PWR01
U 1 1 5C886E4D
P 9900 1000
F 0 "#PWR01" H 9900 850 50  0001 C CNN
F 1 "+5V" H 9915 1173 50  0000 C CNN
F 2 "" H 9900 1000 50  0001 C CNN
F 3 "" H 9900 1000 50  0001 C CNN
	1    9900 1000
	1    0    0    -1  
$EndComp
$Comp
L power:GND #PWR02
U 1 1 5C886F12
P 9900 1100
F 0 "#PWR02" H 9900 850 50  0001 C CNN
F 1 "GND" H 9905 927 50  0000 C CNN
F 2 "" H 9900 1100 50  0001 C CNN
F 3 "" H 9900 1100 50  0001 C CNN
	1    9900 1100
	1    0    0    -1  
$EndComp
$Comp
L power:+4V #PWR03
U 1 1 5C886FD7
P 9900 1600
F 0 "#PWR03" H 9900 1450 50  0001 C CNN
F 1 "+4V" H 9915 1773 50  0000 C CNN
F 2 "" H 9900 1600 50  0001 C CNN
F 3 "" H 9900 1600 50  0001 C CNN
	1    9900 1600
	1    0    0    -1  
$EndComp
$Comp
L power:GND #PWR04
U 1 1 5C887176
P 9900 1700
F 0 "#PWR04" H 9900 1450 50  0001 C CNN
F 1 "GND" H 9905 1527 50  0000 C CNN
F 2 "" H 9900 1700 50  0001 C CNN
F 3 "" H 9900 1700 50  0001 C CNN
	1    9900 1700
	1    0    0    -1  
$EndComp
$Comp
L Connector:Conn_01x01_Female TP2
U 1 1 5C8877E5
P 9250 1350
F 0 "TP2" H 9277 1376 50  0000 L CNN
F 1 "4V" H 9277 1285 50  0000 L CNN
F 2 "Pin_Headers:Pin_Header_Straight_1x01_Pitch1.00mm" H 9250 1350 50  0001 C CNN
F 3 "~" H 9250 1350 50  0001 C CNN
	1    9250 1350
	1    0    0    -1  
$EndComp
$Comp
L Connector:Conn_01x01_Female TP3
U 1 1 5C8878BF
P 9250 1750
F 0 "TP3" H 9277 1776 50  0000 L CNN
F 1 "3V3" H 9277 1685 50  0000 L CNN
F 2 "Pin_Headers:Pin_Header_Straight_1x01_Pitch1.00mm" H 9250 1750 50  0001 C CNN
F 3 "~" H 9250 1750 50  0001 C CNN
	1    9250 1750
	1    0    0    -1  
$EndComp
$Comp
L power:+5V #PWR05
U 1 1 5C888F96
P 9050 950
F 0 "#PWR05" H 9050 800 50  0001 C CNN
F 1 "+5V" H 9065 1123 50  0000 C CNN
F 2 "" H 9050 950 50  0001 C CNN
F 3 "" H 9050 950 50  0001 C CNN
	1    9050 950 
	1    0    0    -1  
$EndComp
$Comp
L power:+4V #PWR06
U 1 1 5C88905F
P 9050 1350
F 0 "#PWR06" H 9050 1200 50  0001 C CNN
F 1 "+4V" H 9065 1523 50  0000 C CNN
F 2 "" H 9050 1350 50  0001 C CNN
F 3 "" H 9050 1350 50  0001 C CNN
	1    9050 1350
	1    0    0    -1  
$EndComp
$Comp
L power:+3.3V #PWR07
U 1 1 5C889682
P 9050 1750
F 0 "#PWR07" H 9050 1600 50  0001 C CNN
F 1 "+3.3V" H 9065 1923 50  0000 C CNN
F 2 "" H 9050 1750 50  0001 C CNN
F 3 "" H 9050 1750 50  0001 C CNN
	1    9050 1750
	1    0    0    -1  
$EndComp
$Comp
L power:+4V #PWR021
U 1 1 5C8EE551
P 10900 1350
F 0 "#PWR021" H 10900 1200 50  0001 C CNN
F 1 "+4V" H 10915 1523 50  0000 C CNN
F 2 "" H 10900 1350 50  0001 C CNN
F 3 "" H 10900 1350 50  0001 C CNN
	1    10900 1350
	0    1    1    0   
$EndComp
$Comp
L power:GND #PWR027
U 1 1 5C8EE917
P 11100 1200
F 0 "#PWR027" H 11100 950 50  0001 C CNN
F 1 "GND" H 11105 1027 50  0000 C CNN
F 2 "" H 11100 1200 50  0001 C CNN
F 3 "" H 11100 1200 50  0001 C CNN
	1    11100 1200
	0    -1   -1   0   
$EndComp
$Comp
L power:+5V #PWR022
U 1 1 5C8EEAFD
P 10900 1050
F 0 "#PWR022" H 10900 900 50  0001 C CNN
F 1 "+5V" H 10915 1223 50  0000 C CNN
F 2 "" H 10900 1050 50  0001 C CNN
F 3 "" H 10900 1050 50  0001 C CNN
	1    10900 1050
	0    1    1    0   
$EndComp
Wire Wire Line
	10900 1250 11000 1250
Wire Wire Line
	11000 1250 11000 1200
Wire Wire Line
	11000 1150 10900 1150
Wire Wire Line
	11100 1200 11000 1200
Connection ~ 11000 1200
Wire Wire Line
	11000 1200 11000 1150
$Comp
L Arnergy:RELAY K1
U 1 1 5C7EBA09
P 10400 3700
F 0 "K1" H 10600 3850 50  0000 L CNN
F 1 "RELAY" H 10600 3500 50  0000 L CNN
F 2 "Arnergyfootprint:EC2-5TNU RELAY" H 10350 3850 50  0001 C CNN
F 3 "" H 10350 3850 50  0001 C CNN
	1    10400 3700
	1    0    0    -1  
$EndComp
$Comp
L Transistor_BJT:BC847 Q4
U 1 1 5C7EC0EC
P 9900 4250
F 0 "Q4" H 10091 4296 50  0000 L CNN
F 1 "BC846" H 10091 4205 50  0000 L CNN
F 2 "TO_SOT_Packages_SMD:SOT-23" H 10100 4175 50  0001 L CIN
F 3 "http://www.infineon.com/dgdl/Infineon-BC847SERIES_BC848SERIES_BC849SERIES_BC850SERIES-DS-v01_01-en.pdf?fileId=db3a304314dca389011541d4630a1657" H 9900 4250 50  0001 L CNN
	1    9900 4250
	1    0    0    -1  
$EndComp
$Comp
L Transistor_BJT:BC847 Q9
U 1 1 5C7EC200
P 11150 4250
F 0 "Q9" H 11341 4296 50  0000 L CNN
F 1 "BC846" H 11341 4205 50  0000 L CNN
F 2 "TO_SOT_Packages_SMD:SOT-23" H 11350 4175 50  0001 L CIN
F 3 "http://www.infineon.com/dgdl/Infineon-BC847SERIES_BC848SERIES_BC849SERIES_BC850SERIES-DS-v01_01-en.pdf?fileId=db3a304314dca389011541d4630a1657" H 11150 4250 50  0001 L CNN
	1    11150 4250
	1    0    0    -1  
$EndComp
$Comp
L power:+5V #PWR054
U 1 1 5C7EC7C3
P 10000 3650
F 0 "#PWR054" H 10000 3500 50  0001 C CNN
F 1 "+5V" H 10015 3823 50  0000 C CNN
F 2 "" H 10000 3650 50  0001 C CNN
F 3 "" H 10000 3650 50  0001 C CNN
	1    10000 3650
	1    0    0    -1  
$EndComp
$Comp
L power:+5V #PWR060
U 1 1 5C7ECAE5
P 10800 3650
F 0 "#PWR060" H 10800 3500 50  0001 C CNN
F 1 "+5V" H 10815 3823 50  0000 C CNN
F 2 "" H 10800 3650 50  0001 C CNN
F 3 "" H 10800 3650 50  0001 C CNN
	1    10800 3650
	1    0    0    -1  
$EndComp
Wire Wire Line
	10000 3750 10000 3850
$Comp
L power:GND #PWR055
U 1 1 5C806EFD
P 10000 4450
F 0 "#PWR055" H 10000 4200 50  0001 C CNN
F 1 "GND" H 10005 4277 50  0000 C CNN
F 2 "" H 10000 4450 50  0001 C CNN
F 3 "" H 10000 4450 50  0001 C CNN
	1    10000 4450
	1    0    0    -1  
$EndComp
Wire Wire Line
	11250 4050 11250 3750
Wire Wire Line
	11250 3750 11200 3750
$Comp
L power:GND #PWR061
U 1 1 5C82143E
P 11250 4450
F 0 "#PWR061" H 11250 4200 50  0001 C CNN
F 1 "GND" H 11255 4277 50  0000 C CNN
F 2 "" H 11250 4450 50  0001 C CNN
F 3 "" H 11250 4450 50  0001 C CNN
	1    11250 4450
	1    0    0    -1  
$EndComp
$Comp
L Device:R_Small R23
U 1 1 5C821B30
P 9600 4250
F 0 "R23" H 9659 4296 50  0000 L CNN
F 1 "1K" V 9500 4200 50  0000 L CNN
F 2 "Resistors_SMD:R_0603" H 9600 4250 50  0001 C CNN
F 3 "~" H 9600 4250 50  0001 C CNN
	1    9600 4250
	0    1    1    0   
$EndComp
$Comp
L Device:R_Small R31
U 1 1 5C821C58
P 10850 4250
F 0 "R31" H 10909 4296 50  0000 L CNN
F 1 "1K" V 10750 4200 50  0000 L CNN
F 2 "Resistors_SMD:R_0603" H 10850 4250 50  0001 C CNN
F 3 "~" H 10850 4250 50  0001 C CNN
	1    10850 4250
	0    1    1    0   
$EndComp
Wire Wire Line
	9500 4250 9350 4250
Wire Wire Line
	10750 4250 10600 4250
Text Label 9350 4250 2    50   ~ 0
RELAY_ON
Text Label 10600 4250 2    50   ~ 0
RELAY_OFF
$Comp
L Connector:Conn_01x02_Female J10
U 1 1 5C857953
P 10400 2950
F 0 "J10" H 10427 2926 50  0000 L CNN
F 1 "SWITCH" V 10450 2550 50  0000 L CNN
F 2 "Pin_Headers:Pin_Header_Angled_1x02_Pitch2.54mm" H 10400 2950 50  0001 C CNN
F 3 "~" H 10400 2950 50  0001 C CNN
	1    10400 2950
	0    -1   -1   0   
$EndComp
Wire Wire Line
	10400 3400 10400 3150
Wire Wire Line
	10550 3400 10550 3300
Wire Wire Line
	10550 3300 10500 3300
Wire Wire Line
	10500 3300 10500 3150
Wire Wire Line
	12750 3700 12600 3700
Wire Wire Line
	12750 3800 12600 3800
Text Label 12600 3700 2    50   ~ 0
RELAY_ON
Text Label 12600 3800 2    50   ~ 0
RELAY_OFF
Wire Wire Line
	10550 6700 10550 6950
Wire Wire Line
	10250 6300 10250 6850
Text Label 10250 6300 0    50   ~ 0
PWR
Wire Wire Line
	14150 4800 14300 4800
Text Label 14300 4800 0    50   ~ 0
PWR
Text Label 11900 1900 2    50   ~ 0
BOOT0
Wire Wire Line
	11450 1600 12500 1600
Wire Wire Line
	11900 1900 12000 1900
$Comp
L Device:R_Small R32
U 1 1 5C827478
P 12000 2050
F 0 "R32" H 12150 2050 50  0000 L CNN
F 1 "100K" H 12050 2150 50  0000 L CNN
F 2 "Resistors_SMD:R_0603" H 12000 2050 50  0001 C CNN
F 3 "~" H 12000 2050 50  0001 C CNN
	1    12000 2050
	-1   0    0    1   
$EndComp
$Comp
L power:GND #PWR065
U 1 1 5C827623
P 12000 2150
F 0 "#PWR065" H 12000 1900 50  0001 C CNN
F 1 "GND" H 12005 1977 50  0000 C CNN
F 2 "" H 12000 2150 50  0001 C CNN
F 3 "" H 12000 2150 50  0001 C CNN
	1    12000 2150
	1    0    0    -1  
$EndComp
Wire Wire Line
	12000 1950 12000 1900
$Comp
L Transistor_BJT:BC847 Q1
U 1 1 5C84377B
P 4350 9450
F 0 "Q1" H 4541 9496 50  0000 L CNN
F 1 "BC846" H 4541 9405 50  0000 L CNN
F 2 "TO_SOT_Packages_SMD:SOT-23" H 4550 9375 50  0001 L CIN
F 3 "http://www.infineon.com/dgdl/Infineon-BC847SERIES_BC848SERIES_BC849SERIES_BC850SERIES-DS-v01_01-en.pdf?fileId=db3a304314dca389011541d4630a1657" H 4350 9450 50  0001 L CNN
	1    4350 9450
	1    0    0    -1  
$EndComp
Wire Wire Line
	4450 9650 4450 9800
Text Label 4450 9800 2    50   ~ 0
BOOT0
$Comp
L power:+3.3V #PWR030
U 1 1 5C85F5AE
P 4450 9250
F 0 "#PWR030" H 4450 9100 50  0001 C CNN
F 1 "+3.3V" H 4465 9423 50  0000 C CNN
F 2 "" H 4450 9250 50  0001 C CNN
F 3 "" H 4450 9250 50  0001 C CNN
	1    4450 9250
	1    0    0    -1  
$EndComp
$Comp
L Device:R_Small R4
U 1 1 5C85FAB3
P 4050 9450
F 0 "R4" H 4109 9496 50  0000 L CNN
F 1 "1.5K" V 3950 9400 50  0000 L CNN
F 2 "Resistors_SMD:R_0603" H 4050 9450 50  0001 C CNN
F 3 "~" H 4050 9450 50  0001 C CNN
	1    4050 9450
	0    1    1    0   
$EndComp
Wire Wire Line
	3950 9450 3450 9450
Connection ~ 3450 9450
$Comp
L Device:D_Small D2
U 1 1 5C923FEE
P 9850 3750
F 0 "D2" V 9804 3818 50  0000 L CNN
F 1 "D" V 9895 3818 50  0000 L CNN
F 2 "Diodes_SMD:D_SOT-23_ANK" V 9850 3750 50  0001 C CNN
F 3 "~" V 9850 3750 50  0001 C CNN
	1    9850 3750
	0    1    1    0   
$EndComp
$Comp
L Device:D_Small D3
U 1 1 5C93FF99
P 11100 3650
F 0 "D3" H 11100 3855 50  0000 C CNN
F 1 "D" H 11100 3764 50  0000 C CNN
F 2 "Diodes_SMD:D_SOT-23_ANK" V 11100 3650 50  0001 C CNN
F 3 "~" V 11100 3650 50  0001 C CNN
	1    11100 3650
	1    0    0    -1  
$EndComp
Wire Wire Line
	11200 3650 11200 3750
Connection ~ 11200 3750
Wire Wire Line
	11200 3750 10800 3750
Wire Wire Line
	11000 3650 10800 3650
Connection ~ 10800 3650
Wire Wire Line
	9850 3650 10000 3650
Connection ~ 10000 3650
Wire Wire Line
	9850 3850 10000 3850
Connection ~ 10000 3850
Wire Wire Line
	10000 3850 10000 4050
$Comp
L Device:D_Small D1
U 1 1 5C9B24D0
P 3600 9700
F 0 "D1" H 3600 9495 50  0000 C CNN
F 1 "MBR0540T3G" H 3650 9600 50  0000 C CNN
F 2 "Diodes_SMD:D_SOD-123" V 3600 9700 50  0001 C CNN
F 3 "~" V 3600 9700 50  0001 C CNN
	1    3600 9700
	-1   0    0    1   
$EndComp
Wire Wire Line
	3300 9700 3500 9700
Connection ~ 3300 9700
Wire Wire Line
	3700 9700 3850 9700
$Comp
L power:+5V #PWR029
U 1 1 5CA270EE
P 3850 9700
F 0 "#PWR029" H 3850 9550 50  0001 C CNN
F 1 "+5V" H 3865 9873 50  0000 C CNN
F 2 "" H 3850 9700 50  0001 C CNN
F 3 "" H 3850 9700 50  0001 C CNN
	1    3850 9700
	1    0    0    -1  
$EndComp
Wire Wire Line
	14050 1100 13750 1100
Connection ~ 13750 1100
Wire Wire Line
	14050 1300 13850 1300
Connection ~ 13850 1300
$Comp
L Device:C_Small C24
U 1 1 5CA6B829
P 12550 2250
F 0 "C24" H 12642 2296 50  0000 L CNN
F 1 "100nF" H 12642 2205 50  0001 L CNN
F 2 "Capacitors_SMD:C_0603" H 12550 2250 50  0001 C CNN
F 3 "~" H 12550 2250 50  0001 C CNN
	1    12550 2250
	1    0    0    -1  
$EndComp
$Comp
L power:GND #PWR071
U 1 1 5CA6B94D
P 12550 2350
F 0 "#PWR071" H 12550 2100 50  0001 C CNN
F 1 "GND" H 12555 2177 50  0000 C CNN
F 2 "" H 12550 2350 50  0001 C CNN
F 3 "" H 12550 2350 50  0001 C CNN
	1    12550 2350
	1    0    0    -1  
$EndComp
Wire Wire Line
	12750 2100 12550 2100
Wire Wire Line
	12550 2100 12550 2150
$Comp
L Device:CP1_Small C4
U 1 1 5C8228EF
P 3400 4900
F 0 "C4" H 3200 4900 50  0000 L CNN
F 1 "10uF" H 3150 4800 50  0000 L CNN
F 2 "Capacitors_THT:CP_Radial_D4.0mm_P1.50mm" H 3400 4900 50  0001 C CNN
F 3 "~" H 3400 4900 50  0001 C CNN
	1    3400 4900
	1    0    0    -1  
$EndComp
Connection ~ 3400 4800
$Comp
L Device:CP1_Small C34
U 1 1 5C823E3A
P 14050 1200
F 0 "C34" H 14150 1200 50  0000 L CNN
F 1 "10uF" H 14150 1100 50  0000 L CNN
F 2 "Capacitors_THT:CP_Radial_D4.0mm_P1.50mm" H 14050 1200 50  0001 C CNN
F 3 "~" H 14050 1200 50  0001 C CNN
	1    14050 1200
	1    0    0    -1  
$EndComp
$Comp
L Arnergy:2174803-2 J8
U 1 1 5C8299EB
P 7350 6200
F 0 "J8" H 7350 6967 50  0000 C CNN
F 1 "2174803-2" H 7350 6876 50  0000 C CNN
F 2 "Arnergyfootprint:TE_2174803-2" H 8100 6300 50  0001 L BNN
F 3 "10 VAC" H 8100 6150 50  0001 L BNN
	1    7350 6200
	1    0    0    -1  
$EndComp
Wire Wire Line
	7850 5700 7850 5800
Connection ~ 7850 5800
Wire Wire Line
	7850 5800 7850 5900
Connection ~ 7850 5900
Wire Wire Line
	7850 5900 7850 6000
Connection ~ 7850 6000
Wire Wire Line
	7850 6000 7850 6100
Connection ~ 7850 6100
Wire Wire Line
	7850 6100 7850 6200
Connection ~ 7850 6200
Wire Wire Line
	7850 6200 7850 6300
Connection ~ 7850 6300
Wire Wire Line
	7850 6300 7850 6400
Connection ~ 7850 6400
Wire Wire Line
	7850 6400 7850 6500
Connection ~ 7850 6500
Wire Wire Line
	7850 6500 7850 6600
Connection ~ 7850 6600
Wire Wire Line
	7850 6600 7850 6700
Connection ~ 7850 6700
Wire Wire Line
	7850 6700 7850 6850
Wire Wire Line
	6100 6950 6100 7100
Wire Wire Line
	6100 7100 6250 7100
Wire Wire Line
	6550 6950 6550 7100
Wire Wire Line
	6550 7100 6400 7100
Connection ~ 6300 7100
Wire Wire Line
	6400 6950 6400 7100
Connection ~ 6400 7100
Wire Wire Line
	6400 7100 6300 7100
Wire Wire Line
	6250 6950 6250 7100
Connection ~ 6250 7100
Wire Wire Line
	6250 7100 6300 7100
Wire Wire Line
	6650 6400 6250 6400
Wire Wire Line
	6650 6000 6400 6000
Wire Wire Line
	6650 5900 6550 5900
Wire Wire Line
	6850 6650 6100 6650
Wire Wire Line
	6100 6750 6100 6650
Connection ~ 6100 6650
Wire Wire Line
	6100 6650 5850 6650
Wire Wire Line
	6250 6750 6250 6400
Connection ~ 6250 6400
Wire Wire Line
	6250 6400 5850 6400
Wire Wire Line
	6400 6750 6400 6000
Connection ~ 6400 6000
Wire Wire Line
	6400 6000 5850 6000
Wire Wire Line
	6550 6750 6550 5900
Connection ~ 6550 5900
Wire Wire Line
	6550 5900 5850 5900
$Comp
L power:GND #PWR0101
U 1 1 5CB48B27
P 8900 8800
F 0 "#PWR0101" H 8900 8550 50  0001 C CNN
F 1 "GND" H 8905 8627 50  0000 C CNN
F 2 "" H 8900 8800 50  0001 C CNN
F 3 "" H 8900 8800 50  0001 C CNN
	1    8900 8800
	1    0    0    -1  
$EndComp
$Comp
L Device:R_Small R17
U 1 1 5CB48B2E
P 7800 7850
F 0 "R17" V 7750 7100 50  0000 L CNN
F 1 "22R" V 7750 7300 50  0000 L CNN
F 2 "Resistors_SMD:R_0603" H 7800 7850 50  0001 C CNN
F 3 "~" H 7800 7850 50  0001 C CNN
	1    7800 7850
	0    1    1    0   
$EndComp
$Comp
L Device:R_Small R18
U 1 1 5CB48B35
P 7800 7950
F 0 "R18" V 7750 7200 50  0000 L CNN
F 1 "22R" V 7750 7400 50  0000 L CNN
F 2 "Resistors_SMD:R_0603" H 7800 7950 50  0001 C CNN
F 3 "~" H 7800 7950 50  0001 C CNN
	1    7800 7950
	0    1    1    0   
$EndComp
$Comp
L Device:R_Small R19
U 1 1 5CB48B3C
P 7800 8350
F 0 "R19" V 7750 7600 50  0000 L CNN
F 1 "22R" V 7750 7750 50  0000 L CNN
F 2 "Resistors_SMD:R_0603" H 7800 8350 50  0001 C CNN
F 3 "~" H 7800 8350 50  0001 C CNN
	1    7800 8350
	0    1    1    0   
$EndComp
$Comp
L Device:C_Small C15
U 1 1 5CB48B43
P 7450 8800
F 0 "C15" H 7350 8850 50  0000 L CNN
F 1 "22pF" H 7542 8755 50  0001 L CNN
F 2 "Capacitors_SMD:C_0402" H 7450 8800 50  0001 C CNN
F 3 "~" H 7450 8800 50  0001 C CNN
	1    7450 8800
	1    0    0    -1  
$EndComp
$Comp
L Device:C_Small C16
U 1 1 5CB48B4A
P 7600 8800
F 0 "C16" H 7550 8850 50  0000 L CNN
F 1 "22pF" H 7692 8755 50  0001 L CNN
F 2 "Capacitors_SMD:C_0402" H 7600 8800 50  0001 C CNN
F 3 "~" H 7600 8800 50  0001 C CNN
	1    7600 8800
	1    0    0    -1  
$EndComp
$Comp
L Device:C_Small C14
U 1 1 5CB48B51
P 7300 8800
F 0 "C14" H 7150 8850 50  0000 L CNN
F 1 "22pF" H 7392 8755 50  0001 L CNN
F 2 "Capacitors_SMD:C_0402" H 7300 8800 50  0001 C CNN
F 3 "~" H 7300 8800 50  0001 C CNN
	1    7300 8800
	1    0    0    -1  
$EndComp
$Comp
L Device:C_Small C13
U 1 1 5CB48B58
P 7150 8800
F 0 "C13" H 7200 8900 50  0000 L CNN
F 1 "100nF" H 7242 8755 50  0001 L CNN
F 2 "Capacitors_SMD:C_0603" H 7150 8800 50  0001 C CNN
F 3 "~" H 7150 8800 50  0001 C CNN
	1    7150 8800
	-1   0    0    1   
$EndComp
$Comp
L power:GND #PWR0102
U 1 1 5CB48B5F
P 7350 9050
F 0 "#PWR0102" H 7350 8800 50  0001 C CNN
F 1 "GND" H 7355 8877 50  0000 C CNN
F 2 "" H 7350 9050 50  0001 C CNN
F 3 "" H 7350 9050 50  0001 C CNN
	1    7350 9050
	1    0    0    -1  
$EndComp
$Comp
L Arnergy:2174803-2 J9
U 1 1 5CB48B65
P 8400 8150
F 0 "J9" H 8400 8917 50  0000 C CNN
F 1 "2174803-2" H 8400 8826 50  0000 C CNN
F 2 "Arnergyfootprint:TE_2174803-2" H 9150 8250 50  0001 L BNN
F 3 "10 VAC" H 9150 8100 50  0001 L BNN
	1    8400 8150
	1    0    0    -1  
$EndComp
Wire Wire Line
	8900 7650 8900 7750
Connection ~ 8900 7750
Wire Wire Line
	8900 7750 8900 7850
Connection ~ 8900 7850
Wire Wire Line
	8900 7850 8900 7950
Connection ~ 8900 7950
Wire Wire Line
	8900 7950 8900 8050
Connection ~ 8900 8050
Wire Wire Line
	8900 8050 8900 8150
Connection ~ 8900 8150
Wire Wire Line
	8900 8150 8900 8250
Connection ~ 8900 8250
Wire Wire Line
	8900 8250 8900 8350
Connection ~ 8900 8350
Wire Wire Line
	8900 8350 8900 8450
Connection ~ 8900 8450
Wire Wire Line
	8900 8450 8900 8550
Connection ~ 8900 8550
Wire Wire Line
	8900 8550 8900 8650
Connection ~ 8900 8650
Wire Wire Line
	8900 8650 8900 8800
Wire Wire Line
	7150 8900 7150 9050
Wire Wire Line
	7150 9050 7300 9050
Wire Wire Line
	7600 8900 7600 9050
Wire Wire Line
	7600 9050 7450 9050
Connection ~ 7350 9050
Wire Wire Line
	7450 8900 7450 9050
Connection ~ 7450 9050
Wire Wire Line
	7450 9050 7350 9050
Wire Wire Line
	7300 8900 7300 9050
Connection ~ 7300 9050
Wire Wire Line
	7300 9050 7350 9050
Wire Wire Line
	7700 8350 7300 8350
Wire Wire Line
	7700 7950 7450 7950
Wire Wire Line
	7700 7850 7600 7850
Wire Wire Line
	7900 8600 7150 8600
Wire Wire Line
	7150 8700 7150 8600
Connection ~ 7150 8600
Wire Wire Line
	7150 8600 6900 8600
Wire Wire Line
	7300 8700 7300 8350
Connection ~ 7300 8350
Wire Wire Line
	7300 8350 6900 8350
Wire Wire Line
	7450 8700 7450 7950
Connection ~ 7450 7950
Wire Wire Line
	7450 7950 6900 7950
Wire Wire Line
	7600 8700 7600 7850
Connection ~ 7600 7850
Wire Wire Line
	7600 7850 6900 7850
$Comp
L Device:Crystal_GND23 Y2
U 1 1 5C87D7EA
P 12500 4850
F 0 "Y2" V 12550 4600 50  0000 L CNN
F 1 "Crystal_GND23" V 12545 5091 50  0001 L CNN
F 2 "Arnergyfootprint:RTC_FP" H 12500 4850 50  0001 C CNN
F 3 "~" H 12500 4850 50  0001 C CNN
	1    12500 4850
	0    1    1    0   
$EndComp
Wire Wire Line
	12750 5050 12500 5050
Wire Wire Line
	12500 5050 12500 5000
Wire Wire Line
	12750 4800 12750 5050
Wire Wire Line
	12550 4650 12500 4650
Wire Wire Line
	12500 4650 12500 4700
Connection ~ 12550 4650
Connection ~ 12500 5050
Wire Wire Line
	12350 4600 12050 4600
Wire Wire Line
	12050 4600 12050 5050
Wire Wire Line
	12300 5050 12050 5050
Connection ~ 12050 5050
Wire Wire Line
	12050 5050 12050 5100
$Comp
L Connector:Conn_01x06_Male J3
U 1 1 5C8DCFEF
P 13300 8950
F 0 "J3" H 13273 8830 50  0000 R CNN
F 1 "LED" H 13273 8921 50  0000 R CNN
F 2 "Pin_Headers:Pin_Header_Straight_1x06_Pitch2.54mm" H 13300 8950 50  0001 C CNN
F 3 "~" H 13300 8950 50  0001 C CNN
	1    13300 8950
	-1   0    0    1   
$EndComp
Wire Wire Line
	13100 8650 12500 8650
Connection ~ 12500 8650
Wire Wire Line
	12400 8750 13100 8750
Wire Wire Line
	12400 8850 13100 8850
Wire Wire Line
	12400 8950 13100 8950
Wire Wire Line
	12400 9050 13100 9050
Wire Wire Line
	12400 9150 13100 9150
$Comp
L Device:LED D5
U 1 1 5CA03D20
P 2150 1650
F 0 "D5" V 2188 1533 50  0000 R CNN
F 1 "LED" V 2097 1533 50  0000 R CNN
F 2 "LEDs:LED_D3.0mm" H 2150 1650 50  0001 C CNN
F 3 "~" H 2150 1650 50  0001 C CNN
	1    2150 1650
	0    -1   -1   0   
$EndComp
$Comp
L Connector:RJ12 J4
U 1 1 5CA05717
P 2100 3250
F 0 "J4" H 2155 3817 50  0000 C CNN
F 1 "RJ12" H 2155 3726 50  0000 C CNN
F 2 "Arnergyfootprint:RJ12_ASSMANN_A-2004-1-4-LP-N-R" V 2100 3275 50  0001 C CNN
F 3 "~" V 2100 3275 50  0001 C CNN
	1    2100 3250
	1    0    0    -1  
$EndComp
Text Label 2600 3050 0    50   ~ 0
NRST_EX
Text Label 2600 3450 0    50   ~ 0
POWER_LED_EX
Text Label 2600 3350 0    50   ~ 0
SUB_LED_EX
Text Label 2600 3250 0    50   ~ 0
MODEM_LED_EX
Text Label 2600 3150 0    50   ~ 0
STATUS_LED_EX
$Comp
L Connector:Conn_01x06_Male J5
U 1 1 5CA0572A
P 3400 3250
F 0 "J5" H 3373 3130 50  0000 R CNN
F 1 "LED" H 3373 3221 50  0000 R CNN
F 2 "Pin_Headers:Pin_Header_Straight_1x06_Pitch2.54mm" H 3400 3250 50  0001 C CNN
F 3 "~" H 3400 3250 50  0001 C CNN
	1    3400 3250
	-1   0    0    1   
$EndComp
Wire Wire Line
	2500 3050 3200 3050
Wire Wire Line
	2500 3150 3200 3150
Wire Wire Line
	2500 3250 3200 3250
Wire Wire Line
	2500 3350 3200 3350
Wire Wire Line
	2500 3450 3200 3450
$Comp
L Device:LED D6
U 1 1 5CA285A2
P 2550 1650
F 0 "D6" V 2588 1533 50  0000 R CNN
F 1 "LED" V 2497 1533 50  0000 R CNN
F 2 "LEDs:LED_D3.0mm" H 2550 1650 50  0001 C CNN
F 3 "~" H 2550 1650 50  0001 C CNN
	1    2550 1650
	0    -1   -1   0   
$EndComp
$Comp
L Device:LED_Dual_ACA D4
U 1 1 5CA6D01E
P 1700 1650
F 0 "D4" V 1700 1440 50  0000 R CNN
F 1 "LED_Dual_ACA" V 1655 1440 50  0001 R CNN
F 2 "LEDs:LED_D3.0mm-3" H 1700 1650 50  0001 C CNN
F 3 "~" H 1700 1650 50  0001 C CNN
	1    1700 1650
	0    -1   -1   0   
$EndComp
Wire Wire Line
	2500 2950 3200 2950
Text Label 2600 2950 0    50   ~ 0
GND_EX
Wire Wire Line
	1700 1950 1700 2150
Wire Wire Line
	1700 2150 2150 2150
Wire Wire Line
	2150 1800 2150 2150
Connection ~ 2150 2150
Wire Wire Line
	2150 2150 2550 2150
Wire Wire Line
	2550 1800 2550 2150
Text Label 1800 2150 0    50   ~ 0
GND_EX
Text Label 1600 1350 1    50   ~ 0
POWER_LED_EX
Text Label 1800 1350 1    50   ~ 0
SUB_LED_EX
Text Label 2150 1500 1    50   ~ 0
MODEM_LED_EX
Text Label 2550 1500 1    50   ~ 0
STATUS_LED_EX
$Comp
L Arnergy:SW_MEC_5G SW1
U 1 1 5C8E9588
P 3150 1700
F 0 "SW1" H 3150 1985 50  0000 C CNN
F 1 "SW_MEC_5G" H 3150 1894 50  0000 C CNN
F 2 "Arnergyfootprint:SW_Tactile_Straight" H 3150 1900 50  0001 C CNN
F 3 "http://www.apem.com/int/index.php?controller=attachment&id_attachment=488" H 3150 1900 50  0001 C CNN
	1    3150 1700
	1    0    0    -1  
$EndComp
Wire Wire Line
	2550 2150 2950 2150
Wire Wire Line
	2950 2150 2950 1700
Connection ~ 2550 2150
Text Label 3350 1700 0    50   ~ 0
NRST_EX
$Comp
L Device:R_Small R33
U 1 1 5C9183FE
P 3500 9900
F 0 "R33" V 3400 9750 50  0000 L CNN
F 1 "22R" V 3400 9950 50  0000 L CNN
F 2 "Resistors_SMD:R_0603" H 3500 9900 50  0001 C CNN
F 3 "~" H 3500 9900 50  0001 C CNN
	1    3500 9900
	0    1    1    0   
$EndComp
$Comp
L Device:R_Small R34
U 1 1 5C918828
P 3500 10000
F 0 "R34" V 3600 9850 50  0000 L CNN
F 1 "22R" V 3600 10050 50  0000 L CNN
F 2 "Resistors_SMD:R_0603" H 3500 10000 50  0001 C CNN
F 3 "~" H 3500 10000 50  0001 C CNN
	1    3500 10000
	0    1    1    0   
$EndComp
$Comp
L Device:R_Small R35
U 1 1 5C96125C
P 3750 10250
F 0 "R35" H 3809 10296 50  0000 L CNN
F 1 "10k" H 3550 10300 50  0000 L CNN
F 2 "Resistors_SMD:R_0603" H 3750 10250 50  0001 C CNN
F 3 "~" H 3750 10250 50  0001 C CNN
	1    3750 10250
	-1   0    0    1   
$EndComp
Wire Wire Line
	3600 9900 3750 9900
Wire Wire Line
	3600 10000 3950 10000
Wire Wire Line
	3750 10150 3750 9900
Connection ~ 3750 9900
Wire Wire Line
	3750 9900 3950 9900
$Comp
L power:+3.3V #PWR032
U 1 1 5C9CEEF2
P 4100 10350
F 0 "#PWR032" H 4100 10200 50  0001 C CNN
F 1 "+3.3V" H 4115 10523 50  0000 C CNN
F 2 "" H 4100 10350 50  0001 C CNN
F 3 "" H 4100 10350 50  0001 C CNN
	1    4100 10350
	1    0    0    -1  
$EndComp
Wire Wire Line
	3750 10350 3750 10450
Wire Wire Line
	3750 10450 4100 10450
Wire Wire Line
	4100 10450 4100 10350
$Comp
L power:GND #PWR046
U 1 1 5CA8FE0E
P 15150 5750
F 0 "#PWR046" H 15150 5500 50  0001 C CNN
F 1 "GND" H 15155 5577 50  0000 C CNN
F 2 "" H 15150 5750 50  0001 C CNN
F 3 "" H 15150 5750 50  0001 C CNN
	1    15150 5750
	1    0    0    -1  
$EndComp
Text Label 14800 5600 0    50   ~ 0
SWDIO
Text Label 14800 5800 0    50   ~ 0
SWCLK
$Comp
L Connector:Conn_01x04_Male J7
U 1 1 5CA923E6
P 10700 1150
F 0 "J7" H 10806 1428 50  0000 C CNN
F 1 "POWER" H 10806 1337 50  0000 C CNN
F 2 "Pin_Headers:Pin_Header_Angled_1x04_Pitch2.54mm" H 10700 1150 50  0001 C CNN
F 3 "~" H 10700 1150 50  0001 C CNN
	1    10700 1150
	1    0    0    -1  
$EndComp
Wire Wire Line
	2900 10300 3000 10300
Connection ~ 3000 10300
Wire Wire Line
	3300 9900 3400 9900
Wire Wire Line
	3300 10000 3400 10000
$Comp
L Connector:Conn_01x03_Male J14
U 1 1 5C9101A4
P 14500 5700
F 0 "J14" H 14606 5978 50  0000 C CNN
F 1 "SWD" H 14606 5887 50  0000 C CNN
F 2 "Pin_Headers:Pin_Header_Straight_1x03_Pitch2.54mm" H 14500 5700 50  0001 C CNN
F 3 "~" H 14500 5700 50  0001 C CNN
	1    14500 5700
	1    0    0    -1  
$EndComp
Wire Wire Line
	14700 5600 14800 5600
Wire Wire Line
	14700 5800 14800 5800
Wire Wire Line
	15150 5700 15150 5750
Wire Wire Line
	14700 5700 15150 5700
Wire Wire Line
	12750 3900 12600 3900
Wire Wire Line
	12750 4000 12600 4000
Text Label 12600 3900 2    50   ~ 0
INV2_TX
Text Label 12600 4000 2    50   ~ 0
INV2_RX
$Comp
L Interface_UART:SP3485CN U7
U 1 1 5CA967B4
P 7400 10250
F 0 "U7" H 7150 10850 50  0000 C CNN
F 1 "SP3485CN" H 7100 10700 50  0000 C CNN
F 2 "SMD_Packages:SOIC-8-N" H 8450 9900 50  0001 C CIN
F 3 "http://www.icbase.com/pdf/SPX/SPX00480106.pdf" H 7400 10250 50  0001 C CNN
	1    7400 10250
	1    0    0    -1  
$EndComp
$Comp
L power:GND #PWR082
U 1 1 5CA967BB
P 7400 10650
F 0 "#PWR082" H 7400 10400 50  0001 C CNN
F 1 "GND" H 7405 10477 50  0000 C CNN
F 2 "" H 7400 10650 50  0001 C CNN
F 3 "" H 7400 10650 50  0001 C CNN
	1    7400 10650
	1    0    0    -1  
$EndComp
$Comp
L power:+3.3V #PWR081
U 1 1 5CA967C1
P 7400 9850
F 0 "#PWR081" H 7400 9700 50  0001 C CNN
F 1 "+3.3V" H 7415 10023 50  0000 C CNN
F 2 "" H 7400 9850 50  0001 C CNN
F 3 "" H 7400 9850 50  0001 C CNN
	1    7400 9850
	1    0    0    -1  
$EndComp
Wire Wire Line
	7800 10150 7850 10150
Wire Wire Line
	7800 10350 7850 10350
Wire Wire Line
	7000 10050 6850 10050
Wire Wire Line
	7000 10150 6950 10150
Wire Wire Line
	7000 10450 6850 10450
Text Label 6850 10050 2    50   ~ 0
INV2_RX
Text Label 6850 10150 2    50   ~ 0
INV2_RTS
Text Label 6850 10450 2    50   ~ 0
INV2_TX
Text Label 7900 10150 0    50   ~ 0
INV2_A
Text Label 7900 10350 0    50   ~ 0
INV2_B
$Comp
L Device:C_Small C35
U 1 1 5CA967D1
P 6300 10250
F 0 "C35" H 6392 10296 50  0000 L CNN
F 1 "100nF" H 6392 10205 50  0001 L CNN
F 2 "Capacitors_SMD:C_0603" H 6300 10250 50  0001 C CNN
F 3 "~" H 6300 10250 50  0001 C CNN
	1    6300 10250
	1    0    0    -1  
$EndComp
$Comp
L power:GND #PWR080
U 1 1 5CA967D8
P 6300 10350
F 0 "#PWR080" H 6300 10100 50  0001 C CNN
F 1 "GND" H 6305 10177 50  0000 C CNN
F 2 "" H 6300 10350 50  0001 C CNN
F 3 "" H 6300 10350 50  0001 C CNN
	1    6300 10350
	1    0    0    -1  
$EndComp
$Comp
L power:+3.3V #PWR044
U 1 1 5CA967DE
P 6300 10150
F 0 "#PWR044" H 6300 10000 50  0001 C CNN
F 1 "+3.3V" H 6315 10323 50  0000 C CNN
F 2 "" H 6300 10150 50  0001 C CNN
F 3 "" H 6300 10150 50  0001 C CNN
	1    6300 10150
	1    0    0    -1  
$EndComp
$Comp
L Device:R_Small R36
U 1 1 5CA967E4
P 7850 10250
F 0 "R36" H 7909 10296 50  0000 L CNN
F 1 "120R" H 7800 10050 50  0000 L CNN
F 2 "Resistors_SMD:R_0603" H 7850 10250 50  0001 C CNN
F 3 "~" H 7850 10250 50  0001 C CNN
	1    7850 10250
	1    0    0    -1  
$EndComp
Connection ~ 7850 10150
Wire Wire Line
	7850 10150 7900 10150
Connection ~ 7850 10350
Wire Wire Line
	7850 10350 7900 10350
Wire Wire Line
	7000 10350 6950 10350
Wire Wire Line
	6950 10350 6950 10150
Connection ~ 6950 10150
Wire Wire Line
	6950 10150 6850 10150
Wire Wire Line
	14150 3500 14300 3500
Text Label 14300 3200 0    50   ~ 0
INV2_RTS
Text Label 14300 4700 0    50   ~ 0
TAMPER
$Comp
L power:GND #PWR085
U 1 1 5CB3E137
P 9700 3000
F 0 "#PWR085" H 9700 2750 50  0001 C CNN
F 1 "GND" H 9705 2827 50  0000 C CNN
F 2 "" H 9700 3000 50  0001 C CNN
F 3 "" H 9700 3000 50  0001 C CNN
	1    9700 3000
	1    0    0    -1  
$EndComp
$Comp
L Device:R_Small R37
U 1 1 5CB3E22A
P 9650 2700
F 0 "R37" H 9500 2600 50  0000 L CNN
F 1 "10K" H 9450 2700 50  0000 L CNN
F 2 "Resistors_SMD:R_0603" H 9650 2700 50  0001 C CNN
F 3 "~" H 9650 2700 50  0001 C CNN
	1    9650 2700
	-1   0    0    1   
$EndComp
$Comp
L power:+3.3V #PWR084
U 1 1 5CB6801B
P 9650 2600
F 0 "#PWR084" H 9650 2450 50  0001 C CNN
F 1 "+3.3V" H 9665 2773 50  0000 C CNN
F 2 "" H 9650 2600 50  0001 C CNN
F 3 "" H 9650 2600 50  0001 C CNN
	1    9650 2600
	1    0    0    -1  
$EndComp
Text Label 9650 2850 0    50   ~ 0
TAMPER
$Comp
L Connector:4P4C J15
U 1 1 5CB6914D
P 9100 2950
F 0 "J15" H 9155 3417 50  0000 C CNN
F 1 "4P4C" H 9155 3326 50  0000 C CNN
F 2 "Arnergyfootprint:4p4c" V 9100 3000 50  0001 C CNN
F 3 "~" V 9100 3000 50  0001 C CNN
	1    9100 2950
	1    0    0    -1  
$EndComp
Wire Wire Line
	9500 2950 9700 2950
Wire Wire Line
	9700 2950 9700 3000
Wire Wire Line
	9500 2850 9650 2850
Wire Wire Line
	9650 2850 9650 2800
$Comp
L Connector:Conn_01x03_Male J16
U 1 1 5CC6930F
P 9100 10200
F 0 "J16" H 9200 9900 50  0000 R CNN
F 1 "INV2" H 9250 10000 50  0000 R CNN
F 2 "Arnergyfootprint:3PINHEADER" H 9100 10200 50  0001 C CNN
F 3 "~" H 9100 10200 50  0001 C CNN
	1    9100 10200
	-1   0    0    1   
$EndComp
Wire Wire Line
	8700 10100 8900 10100
Wire Wire Line
	8700 10200 8900 10200
Wire Wire Line
	8700 10300 8900 10300
$Comp
L power:GND #PWR083
U 1 1 5CD3F20B
P 8700 10100
F 0 "#PWR083" H 8700 9850 50  0001 C CNN
F 1 "GND" H 8705 9927 50  0000 C CNN
F 2 "" H 8700 10100 50  0001 C CNN
F 3 "" H 8700 10100 50  0001 C CNN
	1    8700 10100
	-1   0    0    1   
$EndComp
Text Label 8700 10200 2    50   ~ 0
INV2_A
Text Label 8700 10300 2    50   ~ 0
INV2_B
Text Label 14300 3900 0    50   ~ 0
MODEM_PWR
Wire Wire Line
	14150 4300 14300 4300
Wire Wire Line
	14150 4700 14300 4700
Wire Wire Line
	14150 3200 14300 3200
$Comp
L Connector:Conn_01x03_Male J17
U 1 1 5CE56538
P 14500 6200
F 0 "J17" H 14606 6478 50  0000 C CNN
F 1 "DBG" H 14606 6387 50  0000 C CNN
F 2 "Pin_Headers:Pin_Header_Straight_1x03_Pitch2.54mm" H 14500 6200 50  0001 C CNN
F 3 "~" H 14500 6200 50  0001 C CNN
	1    14500 6200
	1    0    0    -1  
$EndComp
$Comp
L power:GND #PWR086
U 1 1 5CE567C5
P 15300 6300
F 0 "#PWR086" H 15300 6050 50  0001 C CNN
F 1 "GND" H 15305 6127 50  0000 C CNN
F 2 "" H 15300 6300 50  0001 C CNN
F 3 "" H 15300 6300 50  0001 C CNN
	1    15300 6300
	1    0    0    -1  
$EndComp
Text Label 14700 6100 0    50   ~ 0
DEBUG_TX
Text Label 14700 6300 0    50   ~ 0
DEBUG_RX
Wire Wire Line
	15300 6300 15300 6200
Wire Wire Line
	15300 6200 14700 6200
$Comp
L Device:CP1_Small C37
U 1 1 5CB2B49C
P 10400 2300
F 0 "C37" H 10500 2300 50  0000 L CNN
F 1 "330mF" H 10500 2200 50  0000 L CNN
F 2 "Arnergyfootprint:SuperCap" H 10400 2300 50  0001 C CNN
F 3 "~" H 10400 2300 50  0001 C CNN
	1    10400 2300
	1    0    0    -1  
$EndComp
Wire Wire Line
	13350 1500 13350 1400
Connection ~ 13350 1500
Wire Wire Line
	13250 1500 13050 1500
Text Label 13050 1500 0    50   ~ 0
VBAT
Wire Wire Line
	13350 1400 13000 1400
Wire Wire Line
	13000 1400 13000 1100
Wire Wire Line
	13000 1100 13150 1100
Connection ~ 13150 1100
$Comp
L Device:R_Small R40
U 1 1 5CBA7721
P 10650 2100
F 0 "R40" V 10750 2100 50  0000 L CNN
F 1 "1K" V 10700 2200 50  0000 L CNN
F 2 "Resistors_SMD:R_1206" H 10650 2100 50  0001 C CNN
F 3 "~" H 10650 2100 50  0001 C CNN
	1    10650 2100
	0    -1   -1   0   
$EndComp
$Comp
L Device:R_Small R41
U 1 1 5CBA8E9A
P 12350 1900
F 0 "R41" V 12500 1800 50  0000 L CNN
F 1 "10K" V 12450 1950 50  0000 L CNN
F 2 "Resistors_SMD:R_0603" H 12350 1900 50  0001 C CNN
F 3 "~" H 12350 1900 50  0001 C CNN
	1    12350 1900
	0    1    1    0   
$EndComp
Wire Wire Line
	12000 1900 12250 1900
Connection ~ 12000 1900
Wire Wire Line
	12450 1900 12750 1900
$Comp
L power:GND #PWR092
U 1 1 5CBFB8E3
P 10400 2400
F 0 "#PWR092" H 10400 2150 50  0001 C CNN
F 1 "GND" H 10405 2227 50  0000 C CNN
F 2 "" H 10400 2400 50  0001 C CNN
F 3 "" H 10400 2400 50  0001 C CNN
	1    10400 2400
	1    0    0    -1  
$EndComp
$Comp
L power:GND #PWR094
U 1 1 5CBFB9E2
P 10900 2400
F 0 "#PWR094" H 10900 2150 50  0001 C CNN
F 1 "GND" H 10905 2227 50  0000 C CNN
F 2 "" H 10900 2400 50  0001 C CNN
F 3 "" H 10900 2400 50  0001 C CNN
	1    10900 2400
	1    0    0    -1  
$EndComp
Wire Wire Line
	10900 2200 10900 2100
Wire Wire Line
	10900 2100 11050 2100
Wire Wire Line
	10750 2100 10900 2100
Connection ~ 10900 2100
Wire Wire Line
	10550 2100 10400 2100
Wire Wire Line
	10400 2100 10400 2200
Text Label 11050 2100 0    50   ~ 0
VBAT
$Comp
L Diode:1N5819 D7
U 1 1 5CCA3772
P 10900 1950
F 0 "D7" V 10946 1871 50  0000 R CNN
F 1 "1N5819" V 10855 1871 50  0000 R CNN
F 2 "Diodes_SMD:D_SOD-123" H 10900 1775 50  0001 C CNN
F 3 "http://www.vishay.com/docs/88525/1n5817.pdf" H 10900 1950 50  0001 C CNN
	1    10900 1950
	0    -1   -1   0   
$EndComp
$Comp
L power:+3.3V #PWR093
U 1 1 5CCA3A82
P 10900 1800
F 0 "#PWR093" H 10900 1650 50  0001 C CNN
F 1 "+3.3V" H 10915 1973 50  0000 C CNN
F 2 "" H 10900 1800 50  0001 C CNN
F 3 "" H 10900 1800 50  0001 C CNN
	1    10900 1800
	1    0    0    -1  
$EndComp
$Comp
L Interface_CAN_LIN:TCAN330 U8
U 1 1 5CCA6072
P 5300 8250
F 0 "U8" H 5450 7850 50  0000 C CNN
F 1 "SN65HVD230" H 4950 7850 50  0000 C CNN
F 2 "SMD_Packages:SOIC-8-N" H 5300 7750 50  0001 C CIN
F 3 "http://www.ti.com/lit/ds/symlink/tcan337.pdf" H 5300 8250 50  0001 C CNN
	1    5300 8250
	1    0    0    -1  
$EndComp
$Comp
L Device:C_Small C36
U 1 1 5CCA6E20
P 5800 7650
F 0 "C36" H 5892 7696 50  0000 L CNN
F 1 "100nF" H 5892 7605 50  0001 L CNN
F 2 "Capacitors_SMD:C_0603" H 5800 7650 50  0001 C CNN
F 3 "~" H 5800 7650 50  0001 C CNN
	1    5800 7650
	1    0    0    -1  
$EndComp
$Comp
L power:+3.3V #PWR088
U 1 1 5CCA7541
P 5300 7850
F 0 "#PWR088" H 5300 7700 50  0001 C CNN
F 1 "+3.3V" H 5315 8023 50  0000 C CNN
F 2 "" H 5300 7850 50  0001 C CNN
F 3 "" H 5300 7850 50  0001 C CNN
	1    5300 7850
	1    0    0    -1  
$EndComp
$Comp
L power:+3.3V #PWR090
U 1 1 5CCA77F9
P 5800 7550
F 0 "#PWR090" H 5800 7400 50  0001 C CNN
F 1 "+3.3V" H 5815 7723 50  0000 C CNN
F 2 "" H 5800 7550 50  0001 C CNN
F 3 "" H 5800 7550 50  0001 C CNN
	1    5800 7550
	1    0    0    -1  
$EndComp
$Comp
L power:GND #PWR091
U 1 1 5CCA78FE
P 5800 7750
F 0 "#PWR091" H 5800 7500 50  0001 C CNN
F 1 "GND" H 5805 7577 50  0000 C CNN
F 2 "" H 5800 7750 50  0001 C CNN
F 3 "" H 5800 7750 50  0001 C CNN
	1    5800 7750
	1    0    0    -1  
$EndComp
$Comp
L power:GND #PWR089
U 1 1 5CCA7A03
P 5300 8650
F 0 "#PWR089" H 5300 8400 50  0001 C CNN
F 1 "GND" H 5305 8477 50  0000 C CNN
F 2 "" H 5300 8650 50  0001 C CNN
F 3 "" H 5300 8650 50  0001 C CNN
	1    5300 8650
	1    0    0    -1  
$EndComp
$Comp
L Device:R_Small R39
U 1 1 5CCA85CF
P 5950 8250
F 0 "R39" H 6009 8296 50  0000 L CNN
F 1 "120R" H 5900 8050 50  0000 L CNN
F 2 "Resistors_SMD:R_0603" H 5950 8250 50  0001 C CNN
F 3 "~" H 5950 8250 50  0001 C CNN
	1    5950 8250
	1    0    0    -1  
$EndComp
Wire Wire Line
	5800 8150 5950 8150
Connection ~ 5950 8150
Wire Wire Line
	5950 8150 6050 8150
Wire Wire Line
	5800 8350 5950 8350
Connection ~ 5950 8350
Wire Wire Line
	5950 8350 6050 8350
Text Label 6050 8350 0    50   ~ 0
CANL
Wire Wire Line
	4800 8050 4500 8050
Wire Wire Line
	4800 8150 4500 8150
$Comp
L Device:R_Small R38
U 1 1 5CD54F9C
P 4600 8450
F 0 "R38" V 4700 8450 50  0000 L CNN
F 1 "10K" V 4500 8400 50  0000 L CNN
F 2 "Resistors_SMD:R_0603" H 4600 8450 50  0001 C CNN
F 3 "~" H 4600 8450 50  0001 C CNN
	1    4600 8450
	0    1    1    0   
$EndComp
Wire Wire Line
	4700 8450 4800 8450
Text Label 4500 8050 0    50   ~ 0
CANTX
Text Label 4500 8150 0    50   ~ 0
CANRX
Wire Wire Line
	4350 8450 4500 8450
Wire Wire Line
	14150 4200 14300 4200
Text Label 14300 4300 0    50   ~ 0
CANTX
Text Label 14300 4200 0    50   ~ 0
CANRX
Wire Wire Line
	14750 8500 14900 8500
Wire Wire Line
	14750 8600 14900 8600
Wire Wire Line
	14750 9100 14900 9100
Wire Wire Line
	14750 9200 14900 9200
Text Label 14900 9100 0    50   ~ 0
CANL
Text Label 14900 8500 0    50   ~ 0
BMS_B
Text Label 14900 8600 0    50   ~ 0
BMS_A-CANH
Text Label 14900 9200 0    50   ~ 0
BMS_A-CANH
Text Label 14900 8800 0    50   ~ 0
BMS_A-CANH
Text Label 6050 8150 0    50   ~ 0
BMS_A-CANH
Text Label 3600 8250 0    50   ~ 0
BMS_A-CANH
$Comp
L power:GND #PWR0103
U 1 1 5CECB1EA
P 4350 8450
F 0 "#PWR0103" H 4350 8200 50  0001 C CNN
F 1 "GND" H 4355 8277 50  0000 C CNN
F 2 "" H 4350 8450 50  0001 C CNN
F 3 "" H 4350 8450 50  0001 C CNN
	1    4350 8450
	1    0    0    -1  
$EndComp
Wire Wire Line
	14150 3900 14300 3900
$Comp
L Device:R_Small R42
U 1 1 5CB625DC
P 6650 1100
F 0 "R42" H 5850 1200 50  0000 L CNN
F 1 "1K" H 6000 1100 50  0000 L CNN
F 2 "Resistors_SMD:R_0603" H 6650 1100 50  0001 C CNN
F 3 "~" H 6650 1100 50  0001 C CNN
	1    6650 1100
	1    0    0    -1  
$EndComp
$Comp
L Device:R_Small R43
U 1 1 5CB626F2
P 6750 1100
F 0 "R43" H 5950 1200 50  0000 L CNN
F 1 "1K" H 6100 1100 50  0000 L CNN
F 2 "Resistors_SMD:R_0603" H 6750 1100 50  0001 C CNN
F 3 "~" H 6750 1100 50  0001 C CNN
	1    6750 1100
	1    0    0    -1  
$EndComp
Wire Wire Line
	6650 1200 6650 1250
Wire Wire Line
	6750 1750 6750 1300
Text Label 6650 1000 1    50   ~ 0
UART2_RX
Text Label 6750 1000 1    50   ~ 0
UART2_TX
$Comp
L Device:R_Small R44
U 1 1 5CBBDCB5
P 7150 900
F 0 "R44" V 7050 1000 50  0000 L CNN
F 1 "5.6K" V 7050 800 50  0000 L CNN
F 2 "Resistors_SMD:R_0603" H 7150 900 50  0001 C CNN
F 3 "~" H 7150 900 50  0001 C CNN
	1    7150 900 
	0    1    1    0   
$EndComp
$Comp
L Device:R_Small R45
U 1 1 5CBBDE23
P 7150 1100
F 0 "R45" V 7050 1200 50  0000 L CNN
F 1 "5.6K" V 7050 1000 50  0000 L CNN
F 2 "Resistors_SMD:R_0603" H 7150 1100 50  0001 C CNN
F 3 "~" H 7150 1100 50  0001 C CNN
	1    7150 1100
	0    1    1    0   
$EndComp
$Comp
L power:GND #PWR087
U 1 1 5CBBDF3D
P 7450 1150
F 0 "#PWR087" H 7450 900 50  0001 C CNN
F 1 "GND" H 7550 1050 50  0000 C CNN
F 2 "" H 7450 1150 50  0001 C CNN
F 3 "" H 7450 1150 50  0001 C CNN
	1    7450 1150
	1    0    0    -1  
$EndComp
Wire Wire Line
	7250 1100 7450 1100
Wire Wire Line
	7450 1100 7450 1150
Wire Wire Line
	7250 900  7450 900 
Wire Wire Line
	7450 900  7450 1100
Connection ~ 7450 1100
Wire Wire Line
	7050 900  6850 900 
Wire Wire Line
	6850 900  6850 1250
Wire Wire Line
	6850 1250 6650 1250
Connection ~ 6650 1250
Wire Wire Line
	6650 1250 6650 1750
Wire Wire Line
	7050 1100 6900 1100
Wire Wire Line
	6900 1100 6900 1300
Wire Wire Line
	6900 1300 6750 1300
Connection ~ 6750 1300
Wire Wire Line
	6750 1300 6750 1200
Wire Wire Line
	14150 1700 14300 1700
Wire Wire Line
	14150 1800 14300 1800
Text Label 14300 1700 0    50   ~ 0
UART2_RX
Text Label 14300 1800 0    50   ~ 0
UART2_TX
$EndSCHEMATC
