PCBNEW-LibModule-V1  
# encoding utf-8
Units mm
$INDEX
SOP65P640X120-16N
$EndINDEX
$MODULE SOP65P640X120-16N
Po 0 0 0 15 00000000 00000000 ~~
Li SOP65P640X120-16N
Cd 
Sc 00000000
At SMD
Op 0 0 0
.SolderMask 0
.SolderPaste 0
T0 -0.66128 -4.52733 1.64223 1.64223 0 0.05 N V 21 "SOP65P640X120-16N"
T1 -0.483765 4.25209 1.64398 1.64398 0 0.05 N V 21 "VAL**"
DS -2.2606 -2.1336 -2.2606 -2.413 0.1524 27
DS -2.2606 -2.413 -3.302 -2.413 0.1524 27
DS -3.302 -2.413 -3.302 -2.1336 0.1524 27
DS -3.302 -2.1336 -2.2606 -2.1336 0.1524 27
DS -2.2606 -1.4732 -2.2606 -1.778 0.1524 27
DS -2.2606 -1.778 -3.302 -1.778 0.1524 27
DS -3.302 -1.778 -3.302 -1.4732 0.1524 27
DS -3.302 -1.4732 -2.2606 -1.4732 0.1524 27
DS -2.2606 -0.8128 -2.2606 -1.1176 0.1524 27
DS -2.2606 -1.1176 -3.302 -1.1176 0.1524 27
DS -3.302 -1.1176 -3.302 -0.8128 0.1524 27
DS -3.302 -0.8128 -2.2606 -0.8128 0.1524 27
DS -2.2606 -0.1778 -2.2606 -0.4826 0.1524 27
DS -2.2606 -0.4826 -3.302 -0.4826 0.1524 27
DS -3.302 -0.4826 -3.302 -0.1778 0.1524 27
DS -3.302 -0.1778 -2.2606 -0.1778 0.1524 27
DS -2.2606 0.4826 -2.2606 0.1778 0.1524 27
DS -2.2606 0.1778 -3.302 0.1778 0.1524 27
DS -3.302 0.1778 -3.302 0.4826 0.1524 27
DS -3.302 0.4826 -2.2606 0.4826 0.1524 27
DS -2.2606 1.1176 -2.2606 0.8128 0.1524 27
DS -2.2606 0.8128 -3.302 0.8128 0.1524 27
DS -3.302 0.8128 -3.302 1.1176 0.1524 27
DS -3.302 1.1176 -2.2606 1.1176 0.1524 27
DS -2.2606 1.778 -2.2606 1.4732 0.1524 27
DS -2.2606 1.4732 -3.302 1.4732 0.1524 27
DS -3.302 1.4732 -3.302 1.778 0.1524 27
DS -3.302 1.778 -2.2606 1.778 0.1524 27
DS -2.2606 2.413 -2.2606 2.1336 0.1524 27
DS -2.2606 2.1336 -3.302 2.1336 0.1524 27
DS -3.302 2.1336 -3.302 2.413 0.1524 27
DS -3.302 2.413 -2.2606 2.413 0.1524 27
DS 2.2606 2.1336 2.2606 2.413 0.1524 27
DS 2.2606 2.413 3.302 2.413 0.1524 27
DS 3.302 2.413 3.302 2.1336 0.1524 27
DS 3.302 2.1336 2.2606 2.1336 0.1524 27
DS 2.2606 1.4732 2.2606 1.778 0.1524 27
DS 2.2606 1.778 3.302 1.778 0.1524 27
DS 3.302 1.778 3.302 1.4732 0.1524 27
DS 3.302 1.4732 2.2606 1.4732 0.1524 27
DS 2.2606 0.8128 2.2606 1.1176 0.1524 27
DS 2.2606 1.1176 3.302 1.1176 0.1524 27
DS 3.302 1.1176 3.302 0.8128 0.1524 27
DS 3.302 0.8128 2.2606 0.8128 0.1524 27
DS 2.2606 0.1778 2.2606 0.4826 0.1524 27
DS 2.2606 0.4826 3.302 0.4826 0.1524 27
DS 3.302 0.4826 3.302 0.1778 0.1524 27
DS 3.302 0.1778 2.2606 0.1778 0.1524 27
DS 2.2606 -0.4826 2.2606 -0.1778 0.1524 27
DS 2.2606 -0.1778 3.302 -0.1778 0.1524 27
DS 3.302 -0.1778 3.302 -0.4826 0.1524 27
DS 3.302 -0.4826 2.2606 -0.4826 0.1524 27
DS 2.2606 -1.1176 2.2606 -0.8128 0.1524 27
DS 2.2606 -0.8128 3.302 -0.8128 0.1524 27
DS 3.302 -0.8128 3.302 -1.1176 0.1524 27
DS 3.302 -1.1176 2.2606 -1.1176 0.1524 27
DS 2.2606 -1.778 2.2606 -1.4732 0.1524 27
DS 2.2606 -1.4732 3.302 -1.4732 0.1524 27
DS 3.302 -1.4732 3.302 -1.778 0.1524 27
DS 3.302 -1.778 2.2606 -1.778 0.1524 27
DS 2.2606 -2.413 2.2606 -2.1336 0.1524 27
DS 2.2606 -2.1336 3.302 -2.1336 0.1524 27
DS 3.302 -2.1336 3.302 -2.413 0.1524 27
DS 3.302 -2.413 2.2606 -2.413 0.1524 27
DS -2.2606 2.54 2.2606 2.54 0.1524 27
DS 2.2606 2.54 2.2606 -2.54 0.1524 27
DS 2.2606 -2.54 0.3048 -2.54 0.1524 27
DS 0.3048 -2.54 -0.3048 -2.54 0.1524 27
DS -0.3048 -2.54 -2.2606 -2.54 0.1524 27
DS -2.2606 -2.54 -2.2606 2.54 0.1524 27
DA 0 -2.54 -0.3048 -2.54 -1800 0 27
DS -1.8796 2.54 1.8796 2.54 0.1524 21
DS 1.8796 -2.54 0.3048 -2.54 0.1524 21
DS 0.3048 -2.54 -0.3048 -2.54 0.1524 21
DS -0.3048 -2.54 -1.8796 -2.54 0.1524 21
DA 0 -2.54 -0.3048 -2.54 -1800 0 21
$PAD
Sh "1" R 1.4732 0.3556 0 0 0
At SMD N 00888000
.SolderMask 0
.SolderPaste 0
Ne 0 ""
Po -2.921 -2.286
$EndPAD
$PAD
Sh "2" R 1.4732 0.3556 0 0 0
At SMD N 00888000
.SolderMask 0
.SolderPaste 0
Ne 0 ""
Po -2.921 -1.6256
$EndPAD
$PAD
Sh "3" R 1.4732 0.3556 0 0 0
At SMD N 00888000
.SolderMask 0
.SolderPaste 0
Ne 0 ""
Po -2.921 -0.9652
$EndPAD
$PAD
Sh "4" R 1.4732 0.3556 0 0 0
At SMD N 00888000
.SolderMask 0
.SolderPaste 0
Ne 0 ""
Po -2.921 -0.3302
$EndPAD
$PAD
Sh "5" R 1.4732 0.3556 0 0 0
At SMD N 00888000
.SolderMask 0
.SolderPaste 0
Ne 0 ""
Po -2.921 0.3302
$EndPAD
$PAD
Sh "6" R 1.4732 0.3556 0 0 0
At SMD N 00888000
.SolderMask 0
.SolderPaste 0
Ne 0 ""
Po -2.921 0.9652
$EndPAD
$PAD
Sh "7" R 1.4732 0.3556 0 0 0
At SMD N 00888000
.SolderMask 0
.SolderPaste 0
Ne 0 ""
Po -2.921 1.6256
$EndPAD
$PAD
Sh "8" R 1.4732 0.3556 0 0 0
At SMD N 00888000
.SolderMask 0
.SolderPaste 0
Ne 0 ""
Po -2.921 2.286
$EndPAD
$PAD
Sh "9" R 1.4732 0.3556 0 0 0
At SMD N 00888000
.SolderMask 0
.SolderPaste 0
Ne 0 ""
Po 2.921 2.286
$EndPAD
$PAD
Sh "10" R 1.4732 0.3556 0 0 0
At SMD N 00888000
.SolderMask 0
.SolderPaste 0
Ne 0 ""
Po 2.921 1.6256
$EndPAD
$PAD
Sh "11" R 1.4732 0.3556 0 0 0
At SMD N 00888000
.SolderMask 0
.SolderPaste 0
Ne 0 ""
Po 2.921 0.9652
$EndPAD
$PAD
Sh "12" R 1.4732 0.3556 0 0 0
At SMD N 00888000
.SolderMask 0
.SolderPaste 0
Ne 0 ""
Po 2.921 0.3302
$EndPAD
$PAD
Sh "13" R 1.4732 0.3556 0 0 0
At SMD N 00888000
.SolderMask 0
.SolderPaste 0
Ne 0 ""
Po 2.921 -0.3302
$EndPAD
$PAD
Sh "14" R 1.4732 0.3556 0 0 0
At SMD N 00888000
.SolderMask 0
.SolderPaste 0
Ne 0 ""
Po 2.921 -0.9652
$EndPAD
$PAD
Sh "15" R 1.4732 0.3556 0 0 0
At SMD N 00888000
.SolderMask 0
.SolderPaste 0
Ne 0 ""
Po 2.921 -1.6256
$EndPAD
$PAD
Sh "16" R 1.4732 0.3556 0 0 0
At SMD N 00888000
.SolderMask 0
.SolderPaste 0
Ne 0 ""
Po 2.921 -2.286
$EndPAD
$EndMODULE SOP65P640X120-16N
