PCBNEW-LibModule-V1  
# encoding utf-8
Units mm
$INDEX
XCVR_SIM868
$EndINDEX
$MODULE XCVR_SIM868
Po 0 0 0 15 00000000 00000000 ~~
Li XCVR_SIM868
Cd 
Sc 00000000
At SMD
Op 0 0 0
.SolderMask 0
.SolderPaste 0
T0 -6.66141 -10.7372 1.00021 1.00021 0 0.05 N V 21 "XCVR_SIM868"
T1 -6.0265 10.7676 1.00024 1.00024 0 0.05 N V 21 "VAL**"
DP 0 0 0 0 4 0 24
Dl 4.50177 -7.4
Dl 6.65 -7.4
Dl 6.65 -2.10082
Dl 4.50177 -2.10082
DP 0 0 0 0 4 0 24
Dl 4.50351 -7.4
Dl 6.65 -7.4
Dl 6.65 -2.10164
Dl 4.50351 -2.10164
DP 0 0 0 0 4 0 24
Dl 4.50769 -7.4
Dl 6.65 -7.4
Dl 6.65 -2.10359
Dl 4.50769 -2.10359
DP 0 0 0 0 4 0 19
Dl 0.0500309 5.82
Dl 0.35 5.82
Dl 0.35 6.25387
Dl 0.0500309 6.25387
DP 0 0 0 0 4 0 19
Dl -0.35005 5.82
Dl -0.05 5.82
Dl -0.05 6.2509
Dl -0.35005 6.2509
DP 0 0 0 0 4 0 19
Dl 0.0500838 6.35
Dl 0.35 6.35
Dl 0.35 6.79137
Dl 0.0500838 6.79137
DP 0 0 0 0 4 0 19
Dl -0.350044 6.35
Dl -0.05 6.35
Dl -0.05 6.78086
Dl -0.350044 6.78086
DP 0 0 0 0 4 0 19
Dl 1.45165 5.82
Dl 1.75 5.82
Dl 1.75 6.2571
Dl 1.45165 6.2571
DP 0 0 0 0 4 0 19
Dl 1.0504 5.82
Dl 1.35 5.82
Dl 1.35 6.25239
Dl 1.0504 6.25239
DP 0 0 0 0 4 0 19
Dl 1.45113 6.35
Dl 1.75 6.35
Dl 1.75 6.7853
Dl 1.45113 6.7853
DP 0 0 0 0 4 0 19
Dl 1.05115 6.35
Dl 1.35 6.35
Dl 1.35 6.78746
Dl 1.05115 6.78746
DP 0 0 0 0 4 0 19
Dl 2.85027 5.82
Dl 3.15 5.82
Dl 3.15 6.25058
Dl 2.85027 6.25058
DP 0 0 0 0 4 0 19
Dl 2.45165 5.82
Dl 2.75 5.82
Dl 2.75 6.2542
Dl 2.45165 6.2542
DP 0 0 0 0 4 0 19
Dl 2.8505 6.35
Dl 3.15 6.35
Dl 3.15 6.78119
Dl 2.8505 6.78119
DP 0 0 0 0 4 0 19
Dl 2.45417 6.35
Dl 2.75 6.35
Dl 2.75 6.79155
Dl 2.45417 6.79155
DP 0 0 0 0 4 0 19
Dl 4.25757 5.82
Dl 4.55 5.82
Dl 4.55 6.26114
Dl 4.25757 6.26114
DP 0 0 0 0 4 0 19
Dl 3.85142 5.82
Dl 4.15 5.82
Dl 4.15 6.25231
Dl 3.85142 6.25231
DP 0 0 0 0 4 0 19
Dl 4.25128 6.35
Dl 4.55 6.35
Dl 4.55 6.78205
Dl 4.25128 6.78205
DP 0 0 0 0 4 0 19
Dl 3.85058 6.35
Dl 4.15 6.35
Dl 4.15 6.78101
Dl 3.85058 6.78101
DP 0 0 0 0 4 0 19
Dl -1.35202 5.82
Dl -1.05 5.82
Dl -1.05 6.25934
Dl -1.35202 6.25934
DP 0 0 0 0 4 0 19
Dl -1.7527 5.82
Dl -1.45 5.82
Dl -1.45 6.25964
Dl -1.7527 6.25964
DP 0 0 0 0 4 0 19
Dl -1.3515 6.35
Dl -1.05 6.35
Dl -1.05 6.78753
Dl -1.3515 6.78753
DP 0 0 0 0 4 0 19
Dl -1.75049 6.35
Dl -1.45 6.35
Dl -1.45 6.78188
Dl -1.75049 6.78188
DP 0 0 0 0 4 0 19
Dl -2.75418 5.82
Dl -2.45 5.82
Dl -2.45 6.2595
Dl -2.75418 6.2595
DP 0 0 0 0 4 0 19
Dl -3.15125 5.82
Dl -2.85 5.82
Dl -2.85 6.25248
Dl -3.15125 6.25248
DP 0 0 0 0 4 0 19
Dl -2.75367 6.35
Dl -2.45 6.35
Dl -2.45 6.78905
Dl -2.75367 6.78905
DP 0 0 0 0 4 0 19
Dl -3.15365 6.35
Dl -2.85 6.35
Dl -2.85 6.78785
Dl -3.15365 6.78785
DP 0 0 0 0 4 0 19
Dl -4.15644 5.82
Dl -3.85 5.82
Dl -3.85 6.2597
Dl -4.15644 6.2597
DP 0 0 0 0 4 0 19
Dl -4.55437 5.82
Dl -4.25 5.82
Dl -4.25 6.25601
Dl -4.55437 6.25601
DP 0 0 0 0 4 0 19
Dl -4.1511 6.35
Dl -3.85 6.35
Dl -3.85 6.7818
Dl -4.1511 6.7818
DP 0 0 0 0 4 0 19
Dl -4.55427 6.35
Dl -4.25 6.35
Dl -4.25 6.78637
Dl -4.55427 6.78637
DP 0 0 0 0 4 0 19
Dl -5.83039 -0.749608
Dl -5.83039 -1.0505
Dl -5.4005 -1.0505
Dl -5.4005 -0.749608
DP 0 0 0 0 4 0 19
Dl -5.83422 -0.345785
Dl -5.83422 -0.654654
Dl -5.40465 -0.654654
Dl -5.40465 -0.345785
DP 0 0 0 0 4 0 19
Dl -5.30241 -0.747592
Dl -5.30241 -1.05313
Dl -4.87313 -1.05313
Dl -4.87313 -0.747592
DP 0 0 0 0 4 0 19
Dl -5.30109 -0.348908
Dl -5.30109 -0.651218
Dl -4.87122 -0.651218
Dl -4.87122 -0.348908
DP 0 0 0 0 4 0 19
Dl -5.83331 -2.14668
Dl -5.83331 -2.45707
Dl -5.40707 -2.45707
Dl -5.40707 -2.14668
DP 0 0 0 0 4 0 19
Dl -5.83066 -1.74935
Dl -5.83066 -2.05119
Dl -5.40119 -2.05119
Dl -5.40119 -1.74935
DP 0 0 0 0 4 0 19
Dl -5.30096 -2.14904
Dl -5.30096 -2.45222
Dl -4.87221 -2.45222
Dl -4.87221 -2.14904
DP 0 0 0 0 4 0 19
Dl -5.30127 -1.74873
Dl -5.30127 -2.05247
Dl -4.87247 -2.05247
Dl -4.87247 -1.74873
DP 0 0 0 0 4 0 19
Dl -5.832 -3.548
Dl -5.832 -3.85812
Dl -5.40812 -3.85812
Dl -5.40812 -3.548
DP 0 0 0 0 4 0 19
Dl -5.83255 -3.14745
Dl -5.83255 -3.45843
Dl -5.40843 -3.45843
Dl -5.40843 -3.14745
DP 0 0 0 0 4 0 19
Dl -5.30148 -3.54852
Dl -5.30148 -3.85738
Dl -4.87738 -3.85738
Dl -4.87738 -3.54852
DP 0 0 0 0 4 0 19
Dl -5.30128 -3.14872
Dl -5.30128 -3.45493
Dl -4.87492 -3.45493
Dl -4.87492 -3.14872
DP 0 0 0 0 4 0 19
Dl -5.83079 -4.94922
Dl -5.83079 -5.25947
Dl -5.40946 -5.25947
Dl -5.40946 -4.94922
DP 0 0 0 0 4 0 19
Dl -5.83104 -4.54896
Dl -5.83104 -4.85831
Dl -5.40831 -4.85831
Dl -5.40831 -4.54896
DP 0 0 0 0 4 0 19
Dl -5.30014 -4.94985
Dl -5.30014 -5.25427
Dl -4.87427 -5.25427
Dl -4.87427 -4.94985
DP 0 0 0 0 4 0 19
Dl -5.30068 -4.54932
Dl -5.30068 -4.8588
Dl -4.8788 -4.8588
Dl -4.8788 -4.54932
DP 0 0 0 0 4 0 19
Dl -5.83062 0.650624
Dl -5.83062 0.349514
Dl -5.40049 0.349514
Dl -5.40049 0.650624
DP 0 0 0 0 4 0 19
Dl -5.83191 1.05192
Dl -5.83191 0.748705
Dl -5.4013 0.748705
Dl -5.4013 1.05192
DP 0 0 0 0 4 0 19
Dl -5.30519 0.655188
Dl -5.30519 0.346059
Dl -4.87394 0.346059
Dl -4.87394 0.655188
DP 0 0 0 0 4 0 19
Dl -5.30485 1.05485
Dl -5.30485 0.74685
Dl -4.87315 0.74685
Dl -4.87315 1.05485
DP 0 0 0 0 4 0 19
Dl -5.83078 2.05078
Dl -5.83078 1.74964
Dl -5.40036 1.74964
Dl -5.40036 2.05078
DP 0 0 0 0 4 0 19
Dl -5.83244 2.45244
Dl -5.83244 2.14905
Dl -5.40095 2.14905
Dl -5.40095 2.45244
DP 0 0 0 0 4 0 19
Dl -5.3061 2.0561
Dl -5.3061 1.74741
Dl -4.87259 1.74741
Dl -4.87259 2.0561
DP 0 0 0 0 4 0 19
Dl -5.30416 2.45416
Dl -5.30416 2.14854
Dl -4.87146 2.14854
Dl -4.87146 2.45416
DP 0 0 0 0 4 0 19
Dl -5.83288 3.45288
Dl -5.83288 3.1493
Dl -5.4007 3.1493
Dl -5.4007 3.45288
DP 0 0 0 0 4 0 19
Dl -5.83218 3.85217
Dl -5.83218 3.54958
Dl -5.40041 3.54958
Dl -5.40041 3.85217
DP 0 0 0 0 4 0 19
Dl -5.30445 3.45446
Dl -5.30445 3.14912
Dl -4.87087 3.14912
Dl -4.87087 3.45446
DP 0 0 0 0 4 0 19
Dl -5.30185 3.85185
Dl -5.30185 3.54973
Dl -4.87026 3.54973
Dl -4.87026 3.85185
DP 0 0 0 0 4 0 19
Dl -5.83427 4.85427
Dl -5.83427 4.54966
Dl -5.40034 4.54966
Dl -5.40034 4.85427
DP 0 0 0 0 4 0 19
Dl -5.83782 5.25782
Dl -5.83782 4.94968
Dl -5.40032 4.94968
Dl -5.40032 5.25782
DP 0 0 0 0 4 0 19
Dl -5.30544 4.85545
Dl -5.30544 4.54983
Dl -4.87017 4.54983
Dl -4.87017 4.85545
DP 0 0 0 0 4 0 19
Dl -5.30904 5.25904
Dl -5.30904 4.95007
Dl -4.86993 4.95007
Dl -4.86993 5.25904
DP 0 0 0 0 4 0 19
Dl 4.8714 -0.751395
Dl 4.8714 -1.04895
Dl 5.30106 -1.04895
Dl 5.30106 -0.751395
DP 0 0 0 0 4 0 19
Dl 4.87126 -0.351264
Dl 4.87126 -0.648874
Dl 5.30113 -0.648874
Dl 5.30113 -0.351264
DP 0 0 0 0 4 0 19
Dl 5.40137 -0.751367
Dl 5.40137 -1.04894
Dl 5.83106 -1.04894
Dl 5.83106 -0.751367
DP 0 0 0 0 4 0 19
Dl 5.40558 -0.355581
Dl 5.40558 -0.644972
Dl 5.83503 -0.644972
Dl 5.83503 -0.355581
DP 0 0 0 0 4 0 19
Dl 4.87197 0.648033
Dl 4.87197 0.352633
Dl 5.30263 0.352633
Dl 5.30263 0.648033
DP 0 0 0 0 4 0 19
Dl 4.87303 1.04698
Dl 4.87303 0.754795
Dl 5.3048 0.754795
Dl 5.3048 1.04698
DP 0 0 0 0 4 0 19
Dl 5.40122 0.648783
Dl 5.40122 0.351583
Dl 5.83158 0.351583
Dl 5.83158 0.648783
DP 0 0 0 0 4 0 19
Dl 5.40069 1.0493
Dl 5.40069 0.751045
Dl 5.83104 0.751045
Dl 5.83104 1.0493
DP 0 0 0 0 4 0 19
Dl 4.87044 2.04957
Dl 4.87044 1.75108
Dl 5.30109 1.75108
Dl 5.30109 2.04957
DP 0 0 0 0 4 0 19
Dl 4.87171 2.4483
Dl 4.87171 2.15524
Dl 5.30525 2.15524
Dl 5.30525 2.4483
DP 0 0 0 0 4 0 19
Dl 5.4008 2.0492
Dl 5.4008 1.75181
Dl 5.83181 1.75181
Dl 5.83181 2.0492
DP 0 0 0 0 4 0 19
Dl 5.4019 2.44809
Dl 5.4019 2.15517
Dl 5.83516 2.15517
Dl 5.83516 2.44809
DP 0 0 0 0 4 0 19
Dl 4.87019 3.44981
Dl 4.87019 3.15112
Dl 5.30112 3.15112
Dl 5.30112 3.44981
DP 0 0 0 0 4 0 19
Dl 4.87086 3.84914
Dl 4.87086 3.55746
Dl 5.30746 3.55746
Dl 5.30746 3.84914
DP 0 0 0 0 4 0 19
Dl 5.40087 3.44913
Dl 5.40087 3.15401
Dl 5.83401 3.15401
Dl 5.83401 3.44913
DP 0 0 0 0 4 0 19
Dl 5.4012 3.84879
Dl 5.4012 3.55728
Dl 5.83727 3.55728
Dl 5.83727 3.84879
DP 0 0 0 0 4 0 19
Dl 4.87001 4.84999
Dl 4.87001 4.55565
Dl 5.30565 4.55565
Dl 5.30565 4.84999
DP 0 0 0 0 4 0 19
Dl 4.86964 5.25036
Dl 4.86964 4.95965
Dl 5.30965 4.95965
Dl 5.30965 5.25036
DP 0 0 0 0 4 0 19
Dl 5.4005 4.8495
Dl 5.4005 4.55961
Dl 5.8396 4.55961
Dl 5.8396 4.8495
DP 0 0 0 0 4 0 19
Dl 5.40006 5.24994
Dl 5.40006 4.95429
Dl 5.83429 4.95429
Dl 5.83429 5.24994
DP 0 0 0 0 4 0 19
Dl 0.0500218 -6.78
Dl 0.35 -6.78
Dl 0.35 -6.35277
Dl 0.0500218 -6.35277
DP 0 0 0 0 4 0 19
Dl -0.350078 -6.78
Dl -0.05 -6.78
Dl -0.05 -6.35141
Dl -0.350078 -6.35141
DP 0 0 0 0 4 0 19
Dl 0.0500814 -6.25
Dl 0.35 -6.25
Dl 0.35 -5.82947
Dl 0.0500814 -5.82947
DP 0 0 0 0 4 0 19
Dl -0.35063 -6.25
Dl -0.05 -6.25
Dl -0.05 -5.83048
Dl -0.35063 -5.83048
DP 0 0 0 0 4 0 19
Dl 1.45125 -6.78
Dl 1.75 -6.78
Dl 1.75 -6.35548
Dl 1.45125 -6.35548
DP 0 0 0 0 4 0 19
Dl 1.05107 -6.78
Dl 1.35 -6.78
Dl 1.35 -6.35645
Dl 1.05107 -6.35645
DP 0 0 0 0 4 0 19
Dl 1.45246 -6.25
Dl 1.75 -6.25
Dl 1.75 -5.82986
Dl 1.45246 -5.82986
DP 0 0 0 0 4 0 19
Dl 1.05015 -6.25
Dl 1.35 -6.25
Dl 1.35 -5.82083
Dl 1.05015 -5.82083
DP 0 0 0 0 4 0 19
Dl 2.85253 -6.78
Dl 3.15 -6.78
Dl 3.15 -6.35564
Dl 2.85253 -6.35564
DP 0 0 0 0 4 0 19
Dl 2.45324 -6.78
Dl 2.75 -6.78
Dl 2.75 -6.35841
Dl 2.45324 -6.35841
DP 0 0 0 0 4 0 19
Dl 2.85421 -6.25
Dl 3.15 -6.25
Dl 3.15 -5.8286
Dl 2.85421 -5.8286
DP 0 0 0 0 4 0 19
Dl 2.45343 -6.25
Dl 2.75 -6.25
Dl 2.75 -5.82815
Dl 2.45343 -5.82815
DP 0 0 0 0 4 0 19
Dl -1.35267 -6.78
Dl -1.05 -6.78
Dl -1.05 -6.36258
Dl -1.35267 -6.36258
DP 0 0 0 0 4 0 19
Dl -1.75053 -6.78
Dl -1.45 -6.78
Dl -1.45 -6.35191
Dl -1.75053 -6.35191
DP 0 0 0 0 4 0 19
Dl -1.35097 -6.25
Dl -1.05 -6.25
Dl -1.05 -5.82416
Dl -1.35097 -5.82416
DP 0 0 0 0 4 0 19
Dl -1.75082 -6.25
Dl -1.45 -6.25
Dl -1.45 -5.82273
Dl -1.75082 -5.82273
DP 0 0 0 0 4 0 19
Dl -2.7523 -6.78
Dl -2.45 -6.78
Dl -2.45 -6.35532
Dl -2.7523 -6.35532
DP 0 0 0 0 4 0 19
Dl -3.15293 -6.78
Dl -2.85 -6.78
Dl -2.85 -6.3559
Dl -3.15293 -6.3559
DP 0 0 0 0 4 0 19
Dl -2.75164 -6.25
Dl -2.45 -6.25
Dl -2.45 -5.82347
Dl -2.75164 -5.82347
DP 0 0 0 0 4 0 19
Dl -3.15528 -6.25
Dl -2.85 -6.25
Dl -2.85 -5.82976
Dl -3.15528 -5.82976
DP 0 0 0 0 4 0 19
Dl -4.15297 -6.78
Dl -3.85 -6.78
Dl -3.85 -6.35454
Dl -4.15297 -6.35454
DP 0 0 0 0 4 0 19
Dl -4.55416 -6.78
Dl -4.25 -6.78
Dl -4.25 -6.35581
Dl -4.55416 -6.35581
DP 0 0 0 0 4 0 19
Dl -4.15519 -6.25
Dl -3.85 -6.25
Dl -3.85 -5.82728
Dl -4.15519 -5.82728
DP 0 0 0 0 4 0 19
Dl -4.5554 -6.25
Dl -4.25 -6.25
Dl -4.25 -5.8269
Dl -4.5554 -5.8269
DP 0 0 0 0 4 0 19
Dl -1.00199 -1.25
Dl -0.3 -1.25
Dl -0.3 -0.300597
Dl -1.00199 -0.300597
DP 0 0 0 0 4 0 19
Dl 0.300477 -1.25
Dl 1 -1.25
Dl 1 -0.300477
Dl 0.300477 -0.300477
DP 0 0 0 0 4 0 19
Dl -1.00064 0.3
Dl -0.3 0.3
Dl -0.3 1.2508
Dl -1.00064 1.2508
DP 0 0 0 0 4 0 19
Dl 0.300021 0.3
Dl 1 0.3
Dl 1 1.25009
Dl 0.300021 1.25009
DP 0 0 0 0 4 0 19
Dl 1.90286 -1.25
Dl 2.6 -1.25
Dl 2.6 -0.300452
Dl 1.90286 -0.300452
DP 0 0 0 0 4 0 19
Dl 3.20374 -1.25
Dl 3.9 -1.25
Dl 3.9 -0.300351
Dl 3.20374 -0.300351
DP 0 0 0 0 4 0 19
Dl 1.90264 0.3
Dl 2.6 0.3
Dl 2.6 1.25174
Dl 1.90264 1.25174
DP 0 0 0 0 4 0 19
Dl 3.20605 0.3
Dl 3.9 0.3
Dl 3.9 1.25236
Dl 3.20605 1.25236
DP 0 0 0 0 4 0 19
Dl -3.90709 -1.25
Dl -3.2 -1.25
Dl -3.2 -0.300545
Dl -3.90709 -0.300545
DP 0 0 0 0 4 0 19
Dl -2.60041 -1.25
Dl -1.9 -1.25
Dl -1.9 -0.300047
Dl -2.60041 -0.300047
DP 0 0 0 0 4 0 19
Dl -3.90254 0.3
Dl -3.2 0.3
Dl -3.2 1.25082
Dl -3.90254 1.25082
DP 0 0 0 0 4 0 19
Dl -2.60239 0.3
Dl -1.9 0.3
Dl -1.9 1.25115
Dl -2.60239 1.25115
DP 0 0 0 0 4 0 19
Dl -1.00109 -4.65
Dl -0.3 -4.65
Dl -0.3 -3.70404
Dl -1.00109 -3.70404
DP 0 0 0 0 4 0 19
Dl 0.300308 -4.65
Dl 1 -4.65
Dl 1 -3.7038
Dl 0.300308 -3.7038
DP 0 0 0 0 4 0 19
Dl -1.00059 -3.1
Dl -0.3 -3.1
Dl -0.3 -2.15127
Dl -1.00059 -2.15127
DP 0 0 0 0 4 0 19
Dl 0.300593 -3.1
Dl 1 -3.1
Dl 1 -2.15425
Dl 0.300593 -2.15425
DP 0 0 0 0 4 0 19
Dl 1.90208 -4.65
Dl 2.6 -4.65
Dl 2.6 -3.70405
Dl 1.90208 -3.70405
DP 0 0 0 0 4 0 19
Dl 3.20471 -4.65
Dl 3.9 -4.65
Dl 3.9 -3.70545
Dl 3.20471 -3.70545
DP 0 0 0 0 4 0 19
Dl 1.90222 -3.1
Dl 2.6 -3.1
Dl 2.6 -2.15252
Dl 1.90222 -2.15252
DP 0 0 0 0 4 0 19
Dl 3.20214 -3.1
Dl 3.9 -3.1
Dl 3.9 -2.15144
Dl 3.20214 -2.15144
DP 0 0 0 0 4 0 19
Dl -3.90374 -4.65
Dl -3.2 -4.65
Dl -3.2 -3.70355
Dl -3.90374 -3.70355
DP 0 0 0 0 4 0 19
Dl -2.60237 -4.65
Dl -1.9 -4.65
Dl -1.9 -3.70337
Dl -2.60237 -3.70337
DP 0 0 0 0 4 0 19
Dl -3.90461 -3.1
Dl -3.2 -3.1
Dl -3.2 -2.15254
Dl -3.90461 -2.15254
DP 0 0 0 0 4 0 19
Dl -2.60328 -3.1
Dl -1.9 -3.1
Dl -1.9 -2.15271
Dl -2.60328 -2.15271
DP 0 0 0 0 4 0 19
Dl -1.0016 2.15
Dl -0.3 2.15
Dl -0.3 3.10497
Dl -1.0016 3.10497
DP 0 0 0 0 4 0 19
Dl 0.300488 2.15
Dl 1 2.15
Dl 1 3.10505
Dl 0.300488 3.10505
DP 0 0 0 0 4 0 19
Dl -1.00117 3.7
Dl -0.3 3.7
Dl -0.3 4.65543
Dl -1.00117 4.65543
DP 0 0 0 0 4 0 19
Dl 0.300062 3.7
Dl 1 3.7
Dl 1 4.65097
Dl 0.300062 4.65097
DP 0 0 0 0 4 0 19
Dl 1.90002 2.15
Dl 2.6 2.15
Dl 2.6 3.10003
Dl 1.90002 3.10003
DP 0 0 0 0 4 0 19
Dl 3.20319 2.15
Dl 3.9 2.15
Dl 3.9 3.10309
Dl 3.20319 3.10309
DP 0 0 0 0 4 0 19
Dl 1.9027 3.7
Dl 2.6 3.7
Dl 2.6 4.6566
Dl 1.9027 4.6566
DP 0 0 0 0 4 0 19
Dl 3.20203 3.7
Dl 3.9 3.7
Dl 3.9 4.65295
Dl 3.20203 4.65295
DP 0 0 0 0 4 0 19
Dl -3.90463 2.15
Dl -3.2 2.15
Dl -3.2 3.10368
Dl -3.90463 3.10368
DP 0 0 0 0 4 0 19
Dl -2.60013 2.15
Dl -1.9 2.15
Dl -1.9 3.10016
Dl -2.60013 3.10016
DP 0 0 0 0 4 0 19
Dl -3.90473 3.7
Dl -3.2 3.7
Dl -3.2 4.65564
Dl -3.90473 4.65564
DP 0 0 0 0 4 0 19
Dl -2.60441 3.7
Dl -1.9 3.7
Dl -1.9 4.65788
Dl -2.60441 4.65788
DS -7.85 -8.8 7.85 -8.8 0.127 27
DS 7.85 -8.8 7.85 8.8 0.127 27
DS 7.85 8.8 -7.85 8.8 0.127 27
DS -7.85 8.8 -7.85 -8.8 0.127 27
DS -7.85 -6.6 -7.85 -8.8 0.127 21
DS -7.85 -8.8 -4.95 -8.8 0.127 21
DS 4.95 -8.8 7.85 -8.8 0.127 21
DS 7.85 -8.8 7.85 -6.6 0.127 21
DS -7.85 6.6 -7.85 8.8 0.127 21
DS -7.85 8.8 -4.95 8.8 0.127 21
DS 4.95 8.8 7.85 8.8 0.127 21
DS 7.85 8.8 7.85 6.6 0.127 21
DS -9.15 -10.1 9.15 -10.1 0.05 26
DS 9.15 -10.1 9.15 10.1 0.05 26
DS 9.15 10.1 -9.15 10.1 0.05 26
DS -9.15 10.1 -9.15 -10.1 0.05 26
DC -9.5 -6.1 -9.4 -6.1 0.2 21
$PAD
Sh "1" R 1.6 0.6 0 0 0
At SMD N 00888000
.SolderMask 0
.SolderPaste 0
Ne 0 ""
Po -7.85 -6.05
$EndPAD
$PAD
Sh "2" R 1.6 0.6 0 0 0
At SMD N 00888000
.SolderMask 0
.SolderPaste 0
Ne 0 ""
Po -7.85 -4.95
$EndPAD
$PAD
Sh "3" R 1.6 0.6 0 0 0
At SMD N 00888000
.SolderMask 0
.SolderPaste 0
Ne 0 ""
Po -7.85 -3.85
$EndPAD
$PAD
Sh "4" R 1.6 0.6 0 0 0
At SMD N 00888000
.SolderMask 0
.SolderPaste 0
Ne 0 ""
Po -7.85 -2.75
$EndPAD
$PAD
Sh "5" R 1.6 0.6 0 0 0
At SMD N 00888000
.SolderMask 0
.SolderPaste 0
Ne 0 ""
Po -7.85 -1.65
$EndPAD
$PAD
Sh "6" R 1.6 0.6 0 0 0
At SMD N 00888000
.SolderMask 0
.SolderPaste 0
Ne 0 ""
Po -7.85 -0.55
$EndPAD
$PAD
Sh "7" R 1.6 0.6 0 0 0
At SMD N 00888000
.SolderMask 0
.SolderPaste 0
Ne 0 ""
Po -7.85 0.55
$EndPAD
$PAD
Sh "8" R 1.6 0.6 0 0 0
At SMD N 00888000
.SolderMask 0
.SolderPaste 0
Ne 0 ""
Po -7.85 1.65
$EndPAD
$PAD
Sh "9" R 1.6 0.6 0 0 0
At SMD N 00888000
.SolderMask 0
.SolderPaste 0
Ne 0 ""
Po -7.85 2.75
$EndPAD
$PAD
Sh "10" R 1.6 0.6 0 0 0
At SMD N 00888000
.SolderMask 0
.SolderPaste 0
Ne 0 ""
Po -7.85 3.85
$EndPAD
$PAD
Sh "11" R 1.6 0.6 0 0 0
At SMD N 00888000
.SolderMask 0
.SolderPaste 0
Ne 0 ""
Po -7.85 4.95
$EndPAD
$PAD
Sh "12" R 1.6 0.6 0 0 0
At SMD N 00888000
.SolderMask 0
.SolderPaste 0
Ne 0 ""
Po -7.85 6.05
$EndPAD
$PAD
Sh "13" R 1.6 0.6 0 0 900
At SMD N 00888000
.SolderMask 0
.SolderPaste 0
Ne 0 ""
Po -4.4 8.8
$EndPAD
$PAD
Sh "14" R 1.6 0.6 0 0 900
At SMD N 00888000
.SolderMask 0
.SolderPaste 0
Ne 0 ""
Po -3.3 8.8
$EndPAD
$PAD
Sh "15" R 1.6 0.6 0 0 900
At SMD N 00888000
.SolderMask 0
.SolderPaste 0
Ne 0 ""
Po -2.2 8.8
$EndPAD
$PAD
Sh "16" R 1.6 0.6 0 0 900
At SMD N 00888000
.SolderMask 0
.SolderPaste 0
Ne 0 ""
Po -1.1 8.8
$EndPAD
$PAD
Sh "17" R 1.6 0.6 0 0 900
At SMD N 00888000
.SolderMask 0
.SolderPaste 0
Ne 0 ""
Po 0 8.8
$EndPAD
$PAD
Sh "18" R 1.6 0.6 0 0 900
At SMD N 00888000
.SolderMask 0
.SolderPaste 0
Ne 0 ""
Po 1.1 8.8
$EndPAD
$PAD
Sh "19" R 1.6 0.6 0 0 900
At SMD N 00888000
.SolderMask 0
.SolderPaste 0
Ne 0 ""
Po 2.2 8.8
$EndPAD
$PAD
Sh "20" R 1.6 0.6 0 0 900
At SMD N 00888000
.SolderMask 0
.SolderPaste 0
Ne 0 ""
Po 3.3 8.8
$EndPAD
$PAD
Sh "21" R 1.6 0.6 0 0 900
At SMD N 00888000
.SolderMask 0
.SolderPaste 0
Ne 0 ""
Po 4.4 8.8
$EndPAD
$PAD
Sh "22" R 1.6 0.6 0 0 1800
At SMD N 00888000
.SolderMask 0
.SolderPaste 0
Ne 0 ""
Po 7.85 6.05
$EndPAD
$PAD
Sh "23" R 1.6 0.6 0 0 1800
At SMD N 00888000
.SolderMask 0
.SolderPaste 0
Ne 0 ""
Po 7.85 4.95
$EndPAD
$PAD
Sh "24" R 1.6 0.6 0 0 1800
At SMD N 00888000
.SolderMask 0
.SolderPaste 0
Ne 0 ""
Po 7.85 3.85
$EndPAD
$PAD
Sh "25" R 1.6 0.6 0 0 1800
At SMD N 00888000
.SolderMask 0
.SolderPaste 0
Ne 0 ""
Po 7.85 2.75
$EndPAD
$PAD
Sh "26" R 1.6 0.6 0 0 1800
At SMD N 00888000
.SolderMask 0
.SolderPaste 0
Ne 0 ""
Po 7.85 1.65
$EndPAD
$PAD
Sh "27" R 1.6 0.6 0 0 1800
At SMD N 00888000
.SolderMask 0
.SolderPaste 0
Ne 0 ""
Po 7.85 0.55
$EndPAD
$PAD
Sh "28" R 1.6 0.6 0 0 1800
At SMD N 00888000
.SolderMask 0
.SolderPaste 0
Ne 0 ""
Po 7.85 -0.55
$EndPAD
$PAD
Sh "29" R 1.6 0.6 0 0 1800
At SMD N 00888000
.SolderMask 0
.SolderPaste 0
Ne 0 ""
Po 7.85 -1.65
$EndPAD
$PAD
Sh "30" R 1.6 0.6 0 0 1800
At SMD N 00888000
.SolderMask 0
.SolderPaste 0
Ne 0 ""
Po 7.85 -2.75
$EndPAD
$PAD
Sh "31" R 1.6 0.6 0 0 1800
At SMD N 00888000
.SolderMask 0
.SolderPaste 0
Ne 0 ""
Po 7.85 -3.85
$EndPAD
$PAD
Sh "32" R 1.6 0.6 0 0 1800
At SMD N 00888000
.SolderMask 0
.SolderPaste 0
Ne 0 ""
Po 7.85 -4.95
$EndPAD
$PAD
Sh "33" R 1.6 0.6 0 0 1800
At SMD N 00888000
.SolderMask 0
.SolderPaste 0
Ne 0 ""
Po 7.85 -6.05
$EndPAD
$PAD
Sh "34" R 1.6 0.6 0 0 2700
At SMD N 00888000
.SolderMask 0
.SolderPaste 0
Ne 0 ""
Po 4.4 -8.8
$EndPAD
$PAD
Sh "35" R 1.6 0.6 0 0 2700
At SMD N 00888000
.SolderMask 0
.SolderPaste 0
Ne 0 ""
Po 3.3 -8.8
$EndPAD
$PAD
Sh "36" R 1.6 0.6 0 0 2700
At SMD N 00888000
.SolderMask 0
.SolderPaste 0
Ne 0 ""
Po 2.2 -8.8
$EndPAD
$PAD
Sh "37" R 1.6 0.6 0 0 2700
At SMD N 00888000
.SolderMask 0
.SolderPaste 0
Ne 0 ""
Po 1.1 -8.8
$EndPAD
$PAD
Sh "38" R 1.6 0.6 0 0 2700
At SMD N 00888000
.SolderMask 0
.SolderPaste 0
Ne 0 ""
Po 0 -8.8
$EndPAD
$PAD
Sh "39" R 1.6 0.6 0 0 2700
At SMD N 00888000
.SolderMask 0
.SolderPaste 0
Ne 0 ""
Po -1.1 -8.8
$EndPAD
$PAD
Sh "40" R 1.6 0.6 0 0 2700
At SMD N 00888000
.SolderMask 0
.SolderPaste 0
Ne 0 ""
Po -2.2 -8.8
$EndPAD
$PAD
Sh "41" R 1.6 0.6 0 0 2700
At SMD N 00888000
.SolderMask 0
.SolderPaste 0
Ne 0 ""
Po -3.3 -8.8
$EndPAD
$PAD
Sh "42" R 1.6 0.6 0 0 2700
At SMD N 00888000
.SolderMask 0
.SolderPaste 0
Ne 0 ""
Po -4.4 -8.8
$EndPAD
$PAD
Sh "43" R 1.1 0.9 0 0 0
At SMD N 00888000
.SolderMask 0
Ne 0 ""
Po -5.35 -4.9
$EndPAD
$PAD
Sh "44" R 1.1 0.9 0 0 0
At SMD N 00888000
.SolderMask 0
Ne 0 ""
Po -5.35 -3.5
$EndPAD
$PAD
Sh "45" R 1.1 0.9 0 0 0
At SMD N 00888000
.SolderMask 0
Ne 0 ""
Po -5.35 -2.1
$EndPAD
$PAD
Sh "46" R 1.1 0.9 0 0 0
At SMD N 00888000
.SolderMask 0
Ne 0 ""
Po -5.35 -0.7
$EndPAD
$PAD
Sh "47" R 1.1 0.9 0 0 0
At SMD N 00888000
.SolderMask 0
Ne 0 ""
Po -5.35 0.7
$EndPAD
$PAD
Sh "48" R 1.1 0.9 0 0 0
At SMD N 00888000
.SolderMask 0
Ne 0 ""
Po -5.35 2.1
$EndPAD
$PAD
Sh "49" R 1.1 0.9 0 0 0
At SMD N 00888000
.SolderMask 0
Ne 0 ""
Po -5.35 3.5
$EndPAD
$PAD
Sh "50" R 1.1 0.9 0 0 0
At SMD N 00888000
.SolderMask 0
Ne 0 ""
Po -5.35 4.9
$EndPAD
$PAD
Sh "51" R 1.1 0.9 0 0 900
At SMD N 00888000
.SolderMask 0
Ne 0 ""
Po -4.2 6.3
$EndPAD
$PAD
Sh "52" R 1.1 0.9 0 0 900
At SMD N 00888000
.SolderMask 0
Ne 0 ""
Po -2.8 6.3
$EndPAD
$PAD
Sh "53" R 1.1 0.9 0 0 900
At SMD N 00888000
.SolderMask 0
Ne 0 ""
Po -1.4 6.3
$EndPAD
$PAD
Sh "54" R 1.1 0.9 0 0 900
At SMD N 00888000
.SolderMask 0
Ne 0 ""
Po 0 6.3
$EndPAD
$PAD
Sh "55" R 1.1 0.9 0 0 900
At SMD N 00888000
.SolderMask 0
Ne 0 ""
Po 1.4 6.3
$EndPAD
$PAD
Sh "56" R 1.1 0.9 0 0 900
At SMD N 00888000
.SolderMask 0
Ne 0 ""
Po 2.8 6.3
$EndPAD
$PAD
Sh "57" R 1.1 0.9 0 0 900
At SMD N 00888000
.SolderMask 0
Ne 0 ""
Po 4.2 6.3
$EndPAD
$PAD
Sh "58" R 1.1 0.9 0 0 1800
At SMD N 00888000
.SolderMask 0
Ne 0 ""
Po 5.35 4.9
$EndPAD
$PAD
Sh "59" R 1.1 0.9 0 0 1800
At SMD N 00888000
.SolderMask 0
Ne 0 ""
Po 5.35 3.5
$EndPAD
$PAD
Sh "60" R 1.1 0.9 0 0 1800
At SMD N 00888000
.SolderMask 0
Ne 0 ""
Po 5.35 2.1
$EndPAD
$PAD
Sh "61" R 1.1 0.9 0 0 1800
At SMD N 00888000
.SolderMask 0
Ne 0 ""
Po 5.35 0.7
$EndPAD
$PAD
Sh "62" R 1.1 0.9 0 0 1800
At SMD N 00888000
.SolderMask 0
Ne 0 ""
Po 5.35 -0.7
$EndPAD
$PAD
Sh "63" R 1.1 0.9 0 0 2700
At SMD N 00888000
.SolderMask 0
Ne 0 ""
Po 2.8 -6.3
$EndPAD
$PAD
Sh "64" R 1.1 0.9 0 0 2700
At SMD N 00888000
.SolderMask 0
Ne 0 ""
Po 1.4 -6.3
$EndPAD
$PAD
Sh "65" R 1.1 0.9 0 0 2700
At SMD N 00888000
.SolderMask 0
Ne 0 ""
Po 0 -6.3
$EndPAD
$PAD
Sh "66" R 1.1 0.9 0 0 2700
At SMD N 00888000
.SolderMask 0
Ne 0 ""
Po -1.4 -6.3
$EndPAD
$PAD
Sh "67" R 1.1 0.9 0 0 2700
At SMD N 00888000
.SolderMask 0
Ne 0 ""
Po -2.8 -6.3
$EndPAD
$PAD
Sh "68" R 1.1 0.9 0 0 2700
At SMD N 00888000
.SolderMask 0
Ne 0 ""
Po -4.2 -6.3
$EndPAD
$PAD
Sh "77" R 2.6 3.1 0 0 0
At SMD N 00888000
.SolderMask 0
Ne 0 ""
Po 0 0
$EndPAD
$PAD
Sh "70" R 2.6 3.1 0 0 0
At SMD N 00888000
.SolderMask 0
Ne 0 ""
Po -2.9 0
$EndPAD
$PAD
Sh "74" R 2.6 3.1 0 0 0
At SMD N 00888000
.SolderMask 0
Ne 0 ""
Po 2.9 0
$EndPAD
$PAD
Sh "76" R 2.6 3.1 0 0 0
At SMD N 00888000
.SolderMask 0
Ne 0 ""
Po 0 -3.4
$EndPAD
$PAD
Sh "69" R 2.6 3.1 0 0 0
At SMD N 00888000
.SolderMask 0
Ne 0 ""
Po -2.9 -3.4
$EndPAD
$PAD
Sh "75" R 2.6 3.1 0 0 0
At SMD N 00888000
.SolderMask 0
Ne 0 ""
Po 2.9 -3.4
$EndPAD
$PAD
Sh "72" R 2.6 3.1 0 0 0
At SMD N 00888000
.SolderMask 0
Ne 0 ""
Po 0 3.4
$EndPAD
$PAD
Sh "71" R 2.6 3.1 0 0 0
At SMD N 00888000
.SolderMask 0
Ne 0 ""
Po -2.9 3.4
$EndPAD
$PAD
Sh "73" R 2.6 3.1 0 0 0
At SMD N 00888000
.SolderMask 0
Ne 0 ""
Po 2.9 3.4
$EndPAD
$EndMODULE XCVR_SIM868
