G04 #@! TF.GenerationSoftware,KiCad,Pcbnew,5.0.2-bee76a0~70~ubuntu16.04.1*
G04 #@! TF.CreationDate,2019-04-14T22:20:58+01:00*
G04 #@! TF.ProjectId,ArnergyComDevice,41726e65-7267-4794-936f-6d4465766963,rev?*
G04 #@! TF.SameCoordinates,Original*
G04 #@! TF.FileFunction,Paste,Bot*
G04 #@! TF.FilePolarity,Positive*
%FSLAX46Y46*%
G04 Gerber Fmt 4.6, Leading zero omitted, Abs format (unit mm)*
G04 Created by KiCad (PCBNEW 5.0.2-bee76a0~70~ubuntu16.04.1) date Sun Apr 14 22:20:58 2019*
%MOMM*%
%LPD*%
G01*
G04 APERTURE LIST*
%ADD10C,0.000100*%
%ADD11R,0.900000X0.500000*%
%ADD12R,0.750000X0.800000*%
%ADD13R,1.200000X0.900000*%
%ADD14R,0.500000X0.900000*%
%ADD15R,1.143000X0.508000*%
%ADD16R,0.800000X0.750000*%
%ADD17R,0.600000X0.500000*%
%ADD18R,3.800000X2.000000*%
%ADD19R,1.500000X2.000000*%
%ADD20R,0.900000X0.800000*%
%ADD21R,1.473200X0.355600*%
G04 APERTURE END LIST*
D10*
G04 #@! TO.C,J9*
G36*
X67329000Y-35880000D02*
X67329000Y-36530000D01*
X67329000Y-36539160D01*
X67329960Y-36557470D01*
X67331880Y-36575700D01*
X67334740Y-36593800D01*
X67338550Y-36611730D01*
X67343300Y-36629440D01*
X67348960Y-36646870D01*
X67355530Y-36663980D01*
X67362990Y-36680730D01*
X67371310Y-36697060D01*
X67380470Y-36712940D01*
X67390460Y-36728310D01*
X67401230Y-36743140D01*
X67412770Y-36757380D01*
X67425030Y-36771010D01*
X67437990Y-36783970D01*
X67451610Y-36796230D01*
X67465860Y-36807770D01*
X67480690Y-36818540D01*
X67496060Y-36828530D01*
X67511940Y-36837690D01*
X67528270Y-36846010D01*
X67545010Y-36853470D01*
X67562130Y-36860040D01*
X67579560Y-36865700D01*
X67597260Y-36870450D01*
X67615190Y-36874260D01*
X67633300Y-36877120D01*
X67651530Y-36879040D01*
X67669830Y-36880000D01*
X67679000Y-36880000D01*
X67688160Y-36880000D01*
X67706470Y-36879040D01*
X67724700Y-36877120D01*
X67742800Y-36874260D01*
X67760730Y-36870450D01*
X67778440Y-36865700D01*
X67795870Y-36860040D01*
X67812980Y-36853470D01*
X67829730Y-36846010D01*
X67846060Y-36837690D01*
X67861940Y-36828530D01*
X67877310Y-36818540D01*
X67892140Y-36807770D01*
X67906380Y-36796230D01*
X67920010Y-36783970D01*
X67932970Y-36771010D01*
X67945230Y-36757390D01*
X67956770Y-36743140D01*
X67967540Y-36728310D01*
X67977530Y-36712940D01*
X67986690Y-36697060D01*
X67995010Y-36680730D01*
X68002470Y-36663990D01*
X68009040Y-36646870D01*
X68014700Y-36629440D01*
X68019450Y-36611740D01*
X68023260Y-36593810D01*
X68026120Y-36575700D01*
X68028040Y-36557470D01*
X68029000Y-36539170D01*
X68029000Y-36530000D01*
X68029000Y-35230000D01*
X68029000Y-35220840D01*
X68028040Y-35202530D01*
X68026120Y-35184300D01*
X68023260Y-35166200D01*
X68019450Y-35148270D01*
X68014700Y-35130560D01*
X68009040Y-35113130D01*
X68002470Y-35096020D01*
X67995010Y-35079270D01*
X67986690Y-35062940D01*
X67977530Y-35047060D01*
X67967540Y-35031690D01*
X67956770Y-35016860D01*
X67945230Y-35002620D01*
X67932970Y-34988990D01*
X67920010Y-34976030D01*
X67906390Y-34963770D01*
X67892140Y-34952230D01*
X67877310Y-34941460D01*
X67861940Y-34931470D01*
X67846060Y-34922310D01*
X67829730Y-34913990D01*
X67812990Y-34906530D01*
X67795870Y-34899960D01*
X67778440Y-34894300D01*
X67760740Y-34889550D01*
X67742810Y-34885740D01*
X67724700Y-34882880D01*
X67706470Y-34880960D01*
X67688170Y-34880000D01*
X67679000Y-34880000D01*
X67669840Y-34880000D01*
X67651530Y-34880960D01*
X67633300Y-34882880D01*
X67615200Y-34885740D01*
X67597270Y-34889550D01*
X67579560Y-34894300D01*
X67562130Y-34899960D01*
X67545020Y-34906530D01*
X67528270Y-34913990D01*
X67511940Y-34922310D01*
X67496060Y-34931470D01*
X67480690Y-34941460D01*
X67465860Y-34952230D01*
X67451620Y-34963770D01*
X67437990Y-34976030D01*
X67425030Y-34988990D01*
X67412770Y-35002610D01*
X67401230Y-35016860D01*
X67390460Y-35031690D01*
X67380470Y-35047060D01*
X67371310Y-35062940D01*
X67362990Y-35079270D01*
X67355530Y-35096010D01*
X67348960Y-35113130D01*
X67343300Y-35130560D01*
X67338550Y-35148260D01*
X67334740Y-35166190D01*
X67331880Y-35184300D01*
X67329960Y-35202530D01*
X67329000Y-35220830D01*
X67329000Y-35230000D01*
X67329000Y-35880000D01*
X67129000Y-35880000D01*
X67129000Y-35230000D01*
X67129000Y-35215600D01*
X67130510Y-35186840D01*
X67133520Y-35158190D01*
X67138020Y-35129740D01*
X67144010Y-35101560D01*
X67151470Y-35073740D01*
X67160370Y-35046350D01*
X67170690Y-35019460D01*
X67182410Y-34993140D01*
X67195480Y-34967480D01*
X67209890Y-34942530D01*
X67225570Y-34918370D01*
X67242500Y-34895070D01*
X67260630Y-34872680D01*
X67279910Y-34851280D01*
X67300270Y-34830910D01*
X67321680Y-34811640D01*
X67344060Y-34793510D01*
X67367370Y-34776580D01*
X67391520Y-34760890D01*
X67416470Y-34746490D01*
X67442130Y-34733410D01*
X67468450Y-34721690D01*
X67495340Y-34711370D01*
X67522730Y-34702470D01*
X67550560Y-34695010D01*
X67578730Y-34689030D01*
X67607180Y-34684520D01*
X67635830Y-34681510D01*
X67664590Y-34680000D01*
X67679000Y-34680000D01*
X67693400Y-34680000D01*
X67722160Y-34681510D01*
X67750810Y-34684520D01*
X67779260Y-34689020D01*
X67807440Y-34695010D01*
X67835260Y-34702470D01*
X67862650Y-34711370D01*
X67889540Y-34721690D01*
X67915860Y-34733410D01*
X67941520Y-34746480D01*
X67966470Y-34760890D01*
X67990630Y-34776570D01*
X68013930Y-34793500D01*
X68036320Y-34811630D01*
X68057720Y-34830910D01*
X68078090Y-34851270D01*
X68097360Y-34872680D01*
X68115490Y-34895060D01*
X68132420Y-34918370D01*
X68148110Y-34942520D01*
X68162510Y-34967470D01*
X68175590Y-34993130D01*
X68187310Y-35019450D01*
X68197630Y-35046340D01*
X68206530Y-35073730D01*
X68213990Y-35101560D01*
X68219970Y-35129730D01*
X68224480Y-35158180D01*
X68227490Y-35186830D01*
X68229000Y-35215590D01*
X68229000Y-35230000D01*
X68229000Y-36530000D01*
X68229000Y-36544400D01*
X68227490Y-36573160D01*
X68224480Y-36601810D01*
X68219980Y-36630260D01*
X68213990Y-36658440D01*
X68206530Y-36686260D01*
X68197630Y-36713650D01*
X68187310Y-36740540D01*
X68175590Y-36766860D01*
X68162520Y-36792520D01*
X68148110Y-36817470D01*
X68132430Y-36841630D01*
X68115500Y-36864930D01*
X68097370Y-36887320D01*
X68078090Y-36908720D01*
X68057730Y-36929090D01*
X68036320Y-36948360D01*
X68013940Y-36966490D01*
X67990630Y-36983420D01*
X67966480Y-36999110D01*
X67941530Y-37013510D01*
X67915870Y-37026590D01*
X67889550Y-37038310D01*
X67862660Y-37048630D01*
X67835270Y-37057530D01*
X67807440Y-37064990D01*
X67779270Y-37070970D01*
X67750820Y-37075480D01*
X67722170Y-37078490D01*
X67693410Y-37080000D01*
X67679000Y-37080000D01*
X67664600Y-37080000D01*
X67635840Y-37078490D01*
X67607190Y-37075480D01*
X67578740Y-37070980D01*
X67550560Y-37064990D01*
X67522740Y-37057530D01*
X67495350Y-37048630D01*
X67468460Y-37038310D01*
X67442140Y-37026590D01*
X67416480Y-37013520D01*
X67391530Y-36999110D01*
X67367370Y-36983430D01*
X67344070Y-36966500D01*
X67321680Y-36948370D01*
X67300280Y-36929090D01*
X67279910Y-36908730D01*
X67260640Y-36887320D01*
X67242510Y-36864940D01*
X67225580Y-36841630D01*
X67209890Y-36817480D01*
X67195490Y-36792530D01*
X67182410Y-36766870D01*
X67170690Y-36740550D01*
X67160370Y-36713660D01*
X67151470Y-36686270D01*
X67144010Y-36658440D01*
X67138030Y-36630270D01*
X67133520Y-36601820D01*
X67130510Y-36573170D01*
X67129000Y-36544410D01*
X67129000Y-36530000D01*
X67129000Y-35880000D01*
X67329000Y-35880000D01*
G37*
X67329000Y-35880000D02*
X67329000Y-36530000D01*
X67329000Y-36539160D01*
X67329960Y-36557470D01*
X67331880Y-36575700D01*
X67334740Y-36593800D01*
X67338550Y-36611730D01*
X67343300Y-36629440D01*
X67348960Y-36646870D01*
X67355530Y-36663980D01*
X67362990Y-36680730D01*
X67371310Y-36697060D01*
X67380470Y-36712940D01*
X67390460Y-36728310D01*
X67401230Y-36743140D01*
X67412770Y-36757380D01*
X67425030Y-36771010D01*
X67437990Y-36783970D01*
X67451610Y-36796230D01*
X67465860Y-36807770D01*
X67480690Y-36818540D01*
X67496060Y-36828530D01*
X67511940Y-36837690D01*
X67528270Y-36846010D01*
X67545010Y-36853470D01*
X67562130Y-36860040D01*
X67579560Y-36865700D01*
X67597260Y-36870450D01*
X67615190Y-36874260D01*
X67633300Y-36877120D01*
X67651530Y-36879040D01*
X67669830Y-36880000D01*
X67679000Y-36880000D01*
X67688160Y-36880000D01*
X67706470Y-36879040D01*
X67724700Y-36877120D01*
X67742800Y-36874260D01*
X67760730Y-36870450D01*
X67778440Y-36865700D01*
X67795870Y-36860040D01*
X67812980Y-36853470D01*
X67829730Y-36846010D01*
X67846060Y-36837690D01*
X67861940Y-36828530D01*
X67877310Y-36818540D01*
X67892140Y-36807770D01*
X67906380Y-36796230D01*
X67920010Y-36783970D01*
X67932970Y-36771010D01*
X67945230Y-36757390D01*
X67956770Y-36743140D01*
X67967540Y-36728310D01*
X67977530Y-36712940D01*
X67986690Y-36697060D01*
X67995010Y-36680730D01*
X68002470Y-36663990D01*
X68009040Y-36646870D01*
X68014700Y-36629440D01*
X68019450Y-36611740D01*
X68023260Y-36593810D01*
X68026120Y-36575700D01*
X68028040Y-36557470D01*
X68029000Y-36539170D01*
X68029000Y-36530000D01*
X68029000Y-35230000D01*
X68029000Y-35220840D01*
X68028040Y-35202530D01*
X68026120Y-35184300D01*
X68023260Y-35166200D01*
X68019450Y-35148270D01*
X68014700Y-35130560D01*
X68009040Y-35113130D01*
X68002470Y-35096020D01*
X67995010Y-35079270D01*
X67986690Y-35062940D01*
X67977530Y-35047060D01*
X67967540Y-35031690D01*
X67956770Y-35016860D01*
X67945230Y-35002620D01*
X67932970Y-34988990D01*
X67920010Y-34976030D01*
X67906390Y-34963770D01*
X67892140Y-34952230D01*
X67877310Y-34941460D01*
X67861940Y-34931470D01*
X67846060Y-34922310D01*
X67829730Y-34913990D01*
X67812990Y-34906530D01*
X67795870Y-34899960D01*
X67778440Y-34894300D01*
X67760740Y-34889550D01*
X67742810Y-34885740D01*
X67724700Y-34882880D01*
X67706470Y-34880960D01*
X67688170Y-34880000D01*
X67679000Y-34880000D01*
X67669840Y-34880000D01*
X67651530Y-34880960D01*
X67633300Y-34882880D01*
X67615200Y-34885740D01*
X67597270Y-34889550D01*
X67579560Y-34894300D01*
X67562130Y-34899960D01*
X67545020Y-34906530D01*
X67528270Y-34913990D01*
X67511940Y-34922310D01*
X67496060Y-34931470D01*
X67480690Y-34941460D01*
X67465860Y-34952230D01*
X67451620Y-34963770D01*
X67437990Y-34976030D01*
X67425030Y-34988990D01*
X67412770Y-35002610D01*
X67401230Y-35016860D01*
X67390460Y-35031690D01*
X67380470Y-35047060D01*
X67371310Y-35062940D01*
X67362990Y-35079270D01*
X67355530Y-35096010D01*
X67348960Y-35113130D01*
X67343300Y-35130560D01*
X67338550Y-35148260D01*
X67334740Y-35166190D01*
X67331880Y-35184300D01*
X67329960Y-35202530D01*
X67329000Y-35220830D01*
X67329000Y-35230000D01*
X67329000Y-35880000D01*
X67129000Y-35880000D01*
X67129000Y-35230000D01*
X67129000Y-35215600D01*
X67130510Y-35186840D01*
X67133520Y-35158190D01*
X67138020Y-35129740D01*
X67144010Y-35101560D01*
X67151470Y-35073740D01*
X67160370Y-35046350D01*
X67170690Y-35019460D01*
X67182410Y-34993140D01*
X67195480Y-34967480D01*
X67209890Y-34942530D01*
X67225570Y-34918370D01*
X67242500Y-34895070D01*
X67260630Y-34872680D01*
X67279910Y-34851280D01*
X67300270Y-34830910D01*
X67321680Y-34811640D01*
X67344060Y-34793510D01*
X67367370Y-34776580D01*
X67391520Y-34760890D01*
X67416470Y-34746490D01*
X67442130Y-34733410D01*
X67468450Y-34721690D01*
X67495340Y-34711370D01*
X67522730Y-34702470D01*
X67550560Y-34695010D01*
X67578730Y-34689030D01*
X67607180Y-34684520D01*
X67635830Y-34681510D01*
X67664590Y-34680000D01*
X67679000Y-34680000D01*
X67693400Y-34680000D01*
X67722160Y-34681510D01*
X67750810Y-34684520D01*
X67779260Y-34689020D01*
X67807440Y-34695010D01*
X67835260Y-34702470D01*
X67862650Y-34711370D01*
X67889540Y-34721690D01*
X67915860Y-34733410D01*
X67941520Y-34746480D01*
X67966470Y-34760890D01*
X67990630Y-34776570D01*
X68013930Y-34793500D01*
X68036320Y-34811630D01*
X68057720Y-34830910D01*
X68078090Y-34851270D01*
X68097360Y-34872680D01*
X68115490Y-34895060D01*
X68132420Y-34918370D01*
X68148110Y-34942520D01*
X68162510Y-34967470D01*
X68175590Y-34993130D01*
X68187310Y-35019450D01*
X68197630Y-35046340D01*
X68206530Y-35073730D01*
X68213990Y-35101560D01*
X68219970Y-35129730D01*
X68224480Y-35158180D01*
X68227490Y-35186830D01*
X68229000Y-35215590D01*
X68229000Y-35230000D01*
X68229000Y-36530000D01*
X68229000Y-36544400D01*
X68227490Y-36573160D01*
X68224480Y-36601810D01*
X68219980Y-36630260D01*
X68213990Y-36658440D01*
X68206530Y-36686260D01*
X68197630Y-36713650D01*
X68187310Y-36740540D01*
X68175590Y-36766860D01*
X68162520Y-36792520D01*
X68148110Y-36817470D01*
X68132430Y-36841630D01*
X68115500Y-36864930D01*
X68097370Y-36887320D01*
X68078090Y-36908720D01*
X68057730Y-36929090D01*
X68036320Y-36948360D01*
X68013940Y-36966490D01*
X67990630Y-36983420D01*
X67966480Y-36999110D01*
X67941530Y-37013510D01*
X67915870Y-37026590D01*
X67889550Y-37038310D01*
X67862660Y-37048630D01*
X67835270Y-37057530D01*
X67807440Y-37064990D01*
X67779270Y-37070970D01*
X67750820Y-37075480D01*
X67722170Y-37078490D01*
X67693410Y-37080000D01*
X67679000Y-37080000D01*
X67664600Y-37080000D01*
X67635840Y-37078490D01*
X67607190Y-37075480D01*
X67578740Y-37070980D01*
X67550560Y-37064990D01*
X67522740Y-37057530D01*
X67495350Y-37048630D01*
X67468460Y-37038310D01*
X67442140Y-37026590D01*
X67416480Y-37013520D01*
X67391530Y-36999110D01*
X67367370Y-36983430D01*
X67344070Y-36966500D01*
X67321680Y-36948370D01*
X67300280Y-36929090D01*
X67279910Y-36908730D01*
X67260640Y-36887320D01*
X67242510Y-36864940D01*
X67225580Y-36841630D01*
X67209890Y-36817480D01*
X67195490Y-36792530D01*
X67182410Y-36766870D01*
X67170690Y-36740550D01*
X67160370Y-36713660D01*
X67151470Y-36686270D01*
X67144010Y-36658440D01*
X67138030Y-36630270D01*
X67133520Y-36601820D01*
X67130510Y-36573170D01*
X67129000Y-36544410D01*
X67129000Y-36530000D01*
X67129000Y-35880000D01*
X67329000Y-35880000D01*
G36*
X82679000Y-35880000D02*
X82679000Y-36530000D01*
X82679000Y-36539160D01*
X82679960Y-36557470D01*
X82681880Y-36575700D01*
X82684740Y-36593800D01*
X82688550Y-36611730D01*
X82693300Y-36629440D01*
X82698960Y-36646870D01*
X82705530Y-36663980D01*
X82712990Y-36680730D01*
X82721310Y-36697060D01*
X82730470Y-36712940D01*
X82740460Y-36728310D01*
X82751230Y-36743140D01*
X82762770Y-36757380D01*
X82775030Y-36771010D01*
X82787990Y-36783970D01*
X82801610Y-36796230D01*
X82815860Y-36807770D01*
X82830690Y-36818540D01*
X82846060Y-36828530D01*
X82861940Y-36837690D01*
X82878270Y-36846010D01*
X82895010Y-36853470D01*
X82912130Y-36860040D01*
X82929560Y-36865700D01*
X82947260Y-36870450D01*
X82965190Y-36874260D01*
X82983300Y-36877120D01*
X83001500Y-36879040D01*
X83019800Y-36880000D01*
X83029000Y-36880000D01*
X83038200Y-36880000D01*
X83056500Y-36879040D01*
X83074700Y-36877120D01*
X83092800Y-36874260D01*
X83110700Y-36870450D01*
X83128400Y-36865700D01*
X83145900Y-36860040D01*
X83163000Y-36853470D01*
X83179700Y-36846010D01*
X83196100Y-36837690D01*
X83211900Y-36828530D01*
X83227300Y-36818540D01*
X83242100Y-36807770D01*
X83256400Y-36796230D01*
X83270000Y-36783970D01*
X83283000Y-36771010D01*
X83295200Y-36757390D01*
X83306800Y-36743140D01*
X83317500Y-36728310D01*
X83327500Y-36712940D01*
X83336700Y-36697060D01*
X83345000Y-36680730D01*
X83352500Y-36663990D01*
X83359000Y-36646870D01*
X83364700Y-36629440D01*
X83369400Y-36611740D01*
X83373300Y-36593810D01*
X83376100Y-36575700D01*
X83378000Y-36557470D01*
X83379000Y-36539170D01*
X83379000Y-36530000D01*
X83379000Y-35230000D01*
X83379000Y-35220840D01*
X83378000Y-35202530D01*
X83376100Y-35184300D01*
X83373300Y-35166200D01*
X83369400Y-35148270D01*
X83364700Y-35130560D01*
X83359000Y-35113130D01*
X83352500Y-35096020D01*
X83345000Y-35079270D01*
X83336700Y-35062940D01*
X83327500Y-35047060D01*
X83317500Y-35031690D01*
X83306800Y-35016860D01*
X83295200Y-35002620D01*
X83283000Y-34988990D01*
X83270000Y-34976030D01*
X83256400Y-34963770D01*
X83242100Y-34952230D01*
X83227300Y-34941460D01*
X83211900Y-34931470D01*
X83196100Y-34922310D01*
X83179700Y-34913990D01*
X83163000Y-34906530D01*
X83145900Y-34899960D01*
X83128400Y-34894300D01*
X83110700Y-34889550D01*
X83092800Y-34885740D01*
X83074700Y-34882880D01*
X83056500Y-34880960D01*
X83038200Y-34880000D01*
X83029000Y-34880000D01*
X83019800Y-34880000D01*
X83001500Y-34880960D01*
X82983300Y-34882880D01*
X82965200Y-34885740D01*
X82947270Y-34889550D01*
X82929560Y-34894300D01*
X82912130Y-34899960D01*
X82895020Y-34906530D01*
X82878270Y-34913990D01*
X82861940Y-34922310D01*
X82846060Y-34931470D01*
X82830690Y-34941460D01*
X82815860Y-34952230D01*
X82801620Y-34963770D01*
X82787990Y-34976030D01*
X82775030Y-34988990D01*
X82762770Y-35002610D01*
X82751230Y-35016860D01*
X82740460Y-35031690D01*
X82730470Y-35047060D01*
X82721310Y-35062940D01*
X82712990Y-35079270D01*
X82705530Y-35096010D01*
X82698960Y-35113130D01*
X82693300Y-35130560D01*
X82688550Y-35148260D01*
X82684740Y-35166190D01*
X82681880Y-35184300D01*
X82679960Y-35202530D01*
X82679000Y-35220830D01*
X82679000Y-35230000D01*
X82679000Y-35880000D01*
X82479000Y-35880000D01*
X82479000Y-35230000D01*
X82479000Y-35215600D01*
X82480510Y-35186840D01*
X82483520Y-35158190D01*
X82488020Y-35129740D01*
X82494010Y-35101560D01*
X82501470Y-35073740D01*
X82510370Y-35046350D01*
X82520690Y-35019460D01*
X82532410Y-34993140D01*
X82545480Y-34967480D01*
X82559890Y-34942530D01*
X82575570Y-34918370D01*
X82592500Y-34895070D01*
X82610630Y-34872680D01*
X82629910Y-34851280D01*
X82650270Y-34830910D01*
X82671680Y-34811640D01*
X82694060Y-34793510D01*
X82717370Y-34776580D01*
X82741520Y-34760890D01*
X82766470Y-34746490D01*
X82792130Y-34733410D01*
X82818450Y-34721690D01*
X82845340Y-34711370D01*
X82872730Y-34702470D01*
X82900560Y-34695010D01*
X82928730Y-34689030D01*
X82957180Y-34684520D01*
X82985830Y-34681510D01*
X83014600Y-34680000D01*
X83029000Y-34680000D01*
X83043400Y-34680000D01*
X83072200Y-34681510D01*
X83100800Y-34684520D01*
X83129300Y-34689020D01*
X83157400Y-34695010D01*
X83185300Y-34702470D01*
X83212700Y-34711370D01*
X83239500Y-34721690D01*
X83265900Y-34733410D01*
X83291500Y-34746480D01*
X83316500Y-34760890D01*
X83340600Y-34776570D01*
X83363900Y-34793500D01*
X83386300Y-34811630D01*
X83407700Y-34830910D01*
X83428100Y-34851270D01*
X83447400Y-34872680D01*
X83465500Y-34895060D01*
X83482400Y-34918370D01*
X83498100Y-34942520D01*
X83512500Y-34967470D01*
X83525600Y-34993130D01*
X83537300Y-35019450D01*
X83547600Y-35046340D01*
X83556500Y-35073730D01*
X83564000Y-35101560D01*
X83570000Y-35129730D01*
X83574500Y-35158180D01*
X83577500Y-35186830D01*
X83579000Y-35215590D01*
X83579000Y-35230000D01*
X83579000Y-36530000D01*
X83579000Y-36544400D01*
X83577500Y-36573160D01*
X83574500Y-36601810D01*
X83570000Y-36630260D01*
X83564000Y-36658440D01*
X83556500Y-36686260D01*
X83547600Y-36713650D01*
X83537300Y-36740540D01*
X83525600Y-36766860D01*
X83512500Y-36792520D01*
X83498100Y-36817470D01*
X83482400Y-36841630D01*
X83465500Y-36864930D01*
X83447400Y-36887320D01*
X83428100Y-36908720D01*
X83407700Y-36929090D01*
X83386300Y-36948360D01*
X83363900Y-36966490D01*
X83340600Y-36983420D01*
X83316500Y-36999110D01*
X83291500Y-37013510D01*
X83265900Y-37026590D01*
X83239600Y-37038310D01*
X83212700Y-37048630D01*
X83185300Y-37057530D01*
X83157400Y-37064990D01*
X83129300Y-37070970D01*
X83100800Y-37075480D01*
X83072200Y-37078490D01*
X83043400Y-37080000D01*
X83029000Y-37080000D01*
X83014600Y-37080000D01*
X82985840Y-37078490D01*
X82957190Y-37075480D01*
X82928740Y-37070980D01*
X82900560Y-37064990D01*
X82872740Y-37057530D01*
X82845350Y-37048630D01*
X82818460Y-37038310D01*
X82792140Y-37026590D01*
X82766480Y-37013520D01*
X82741530Y-36999110D01*
X82717370Y-36983430D01*
X82694070Y-36966500D01*
X82671680Y-36948370D01*
X82650280Y-36929090D01*
X82629910Y-36908730D01*
X82610640Y-36887320D01*
X82592510Y-36864940D01*
X82575580Y-36841630D01*
X82559890Y-36817480D01*
X82545490Y-36792530D01*
X82532410Y-36766870D01*
X82520690Y-36740550D01*
X82510370Y-36713660D01*
X82501470Y-36686270D01*
X82494010Y-36658440D01*
X82488030Y-36630270D01*
X82483520Y-36601820D01*
X82480510Y-36573170D01*
X82479000Y-36544410D01*
X82479000Y-36530000D01*
X82479000Y-35880000D01*
X82679000Y-35880000D01*
G37*
X82679000Y-35880000D02*
X82679000Y-36530000D01*
X82679000Y-36539160D01*
X82679960Y-36557470D01*
X82681880Y-36575700D01*
X82684740Y-36593800D01*
X82688550Y-36611730D01*
X82693300Y-36629440D01*
X82698960Y-36646870D01*
X82705530Y-36663980D01*
X82712990Y-36680730D01*
X82721310Y-36697060D01*
X82730470Y-36712940D01*
X82740460Y-36728310D01*
X82751230Y-36743140D01*
X82762770Y-36757380D01*
X82775030Y-36771010D01*
X82787990Y-36783970D01*
X82801610Y-36796230D01*
X82815860Y-36807770D01*
X82830690Y-36818540D01*
X82846060Y-36828530D01*
X82861940Y-36837690D01*
X82878270Y-36846010D01*
X82895010Y-36853470D01*
X82912130Y-36860040D01*
X82929560Y-36865700D01*
X82947260Y-36870450D01*
X82965190Y-36874260D01*
X82983300Y-36877120D01*
X83001500Y-36879040D01*
X83019800Y-36880000D01*
X83029000Y-36880000D01*
X83038200Y-36880000D01*
X83056500Y-36879040D01*
X83074700Y-36877120D01*
X83092800Y-36874260D01*
X83110700Y-36870450D01*
X83128400Y-36865700D01*
X83145900Y-36860040D01*
X83163000Y-36853470D01*
X83179700Y-36846010D01*
X83196100Y-36837690D01*
X83211900Y-36828530D01*
X83227300Y-36818540D01*
X83242100Y-36807770D01*
X83256400Y-36796230D01*
X83270000Y-36783970D01*
X83283000Y-36771010D01*
X83295200Y-36757390D01*
X83306800Y-36743140D01*
X83317500Y-36728310D01*
X83327500Y-36712940D01*
X83336700Y-36697060D01*
X83345000Y-36680730D01*
X83352500Y-36663990D01*
X83359000Y-36646870D01*
X83364700Y-36629440D01*
X83369400Y-36611740D01*
X83373300Y-36593810D01*
X83376100Y-36575700D01*
X83378000Y-36557470D01*
X83379000Y-36539170D01*
X83379000Y-36530000D01*
X83379000Y-35230000D01*
X83379000Y-35220840D01*
X83378000Y-35202530D01*
X83376100Y-35184300D01*
X83373300Y-35166200D01*
X83369400Y-35148270D01*
X83364700Y-35130560D01*
X83359000Y-35113130D01*
X83352500Y-35096020D01*
X83345000Y-35079270D01*
X83336700Y-35062940D01*
X83327500Y-35047060D01*
X83317500Y-35031690D01*
X83306800Y-35016860D01*
X83295200Y-35002620D01*
X83283000Y-34988990D01*
X83270000Y-34976030D01*
X83256400Y-34963770D01*
X83242100Y-34952230D01*
X83227300Y-34941460D01*
X83211900Y-34931470D01*
X83196100Y-34922310D01*
X83179700Y-34913990D01*
X83163000Y-34906530D01*
X83145900Y-34899960D01*
X83128400Y-34894300D01*
X83110700Y-34889550D01*
X83092800Y-34885740D01*
X83074700Y-34882880D01*
X83056500Y-34880960D01*
X83038200Y-34880000D01*
X83029000Y-34880000D01*
X83019800Y-34880000D01*
X83001500Y-34880960D01*
X82983300Y-34882880D01*
X82965200Y-34885740D01*
X82947270Y-34889550D01*
X82929560Y-34894300D01*
X82912130Y-34899960D01*
X82895020Y-34906530D01*
X82878270Y-34913990D01*
X82861940Y-34922310D01*
X82846060Y-34931470D01*
X82830690Y-34941460D01*
X82815860Y-34952230D01*
X82801620Y-34963770D01*
X82787990Y-34976030D01*
X82775030Y-34988990D01*
X82762770Y-35002610D01*
X82751230Y-35016860D01*
X82740460Y-35031690D01*
X82730470Y-35047060D01*
X82721310Y-35062940D01*
X82712990Y-35079270D01*
X82705530Y-35096010D01*
X82698960Y-35113130D01*
X82693300Y-35130560D01*
X82688550Y-35148260D01*
X82684740Y-35166190D01*
X82681880Y-35184300D01*
X82679960Y-35202530D01*
X82679000Y-35220830D01*
X82679000Y-35230000D01*
X82679000Y-35880000D01*
X82479000Y-35880000D01*
X82479000Y-35230000D01*
X82479000Y-35215600D01*
X82480510Y-35186840D01*
X82483520Y-35158190D01*
X82488020Y-35129740D01*
X82494010Y-35101560D01*
X82501470Y-35073740D01*
X82510370Y-35046350D01*
X82520690Y-35019460D01*
X82532410Y-34993140D01*
X82545480Y-34967480D01*
X82559890Y-34942530D01*
X82575570Y-34918370D01*
X82592500Y-34895070D01*
X82610630Y-34872680D01*
X82629910Y-34851280D01*
X82650270Y-34830910D01*
X82671680Y-34811640D01*
X82694060Y-34793510D01*
X82717370Y-34776580D01*
X82741520Y-34760890D01*
X82766470Y-34746490D01*
X82792130Y-34733410D01*
X82818450Y-34721690D01*
X82845340Y-34711370D01*
X82872730Y-34702470D01*
X82900560Y-34695010D01*
X82928730Y-34689030D01*
X82957180Y-34684520D01*
X82985830Y-34681510D01*
X83014600Y-34680000D01*
X83029000Y-34680000D01*
X83043400Y-34680000D01*
X83072200Y-34681510D01*
X83100800Y-34684520D01*
X83129300Y-34689020D01*
X83157400Y-34695010D01*
X83185300Y-34702470D01*
X83212700Y-34711370D01*
X83239500Y-34721690D01*
X83265900Y-34733410D01*
X83291500Y-34746480D01*
X83316500Y-34760890D01*
X83340600Y-34776570D01*
X83363900Y-34793500D01*
X83386300Y-34811630D01*
X83407700Y-34830910D01*
X83428100Y-34851270D01*
X83447400Y-34872680D01*
X83465500Y-34895060D01*
X83482400Y-34918370D01*
X83498100Y-34942520D01*
X83512500Y-34967470D01*
X83525600Y-34993130D01*
X83537300Y-35019450D01*
X83547600Y-35046340D01*
X83556500Y-35073730D01*
X83564000Y-35101560D01*
X83570000Y-35129730D01*
X83574500Y-35158180D01*
X83577500Y-35186830D01*
X83579000Y-35215590D01*
X83579000Y-35230000D01*
X83579000Y-36530000D01*
X83579000Y-36544400D01*
X83577500Y-36573160D01*
X83574500Y-36601810D01*
X83570000Y-36630260D01*
X83564000Y-36658440D01*
X83556500Y-36686260D01*
X83547600Y-36713650D01*
X83537300Y-36740540D01*
X83525600Y-36766860D01*
X83512500Y-36792520D01*
X83498100Y-36817470D01*
X83482400Y-36841630D01*
X83465500Y-36864930D01*
X83447400Y-36887320D01*
X83428100Y-36908720D01*
X83407700Y-36929090D01*
X83386300Y-36948360D01*
X83363900Y-36966490D01*
X83340600Y-36983420D01*
X83316500Y-36999110D01*
X83291500Y-37013510D01*
X83265900Y-37026590D01*
X83239600Y-37038310D01*
X83212700Y-37048630D01*
X83185300Y-37057530D01*
X83157400Y-37064990D01*
X83129300Y-37070970D01*
X83100800Y-37075480D01*
X83072200Y-37078490D01*
X83043400Y-37080000D01*
X83029000Y-37080000D01*
X83014600Y-37080000D01*
X82985840Y-37078490D01*
X82957190Y-37075480D01*
X82928740Y-37070980D01*
X82900560Y-37064990D01*
X82872740Y-37057530D01*
X82845350Y-37048630D01*
X82818460Y-37038310D01*
X82792140Y-37026590D01*
X82766480Y-37013520D01*
X82741530Y-36999110D01*
X82717370Y-36983430D01*
X82694070Y-36966500D01*
X82671680Y-36948370D01*
X82650280Y-36929090D01*
X82629910Y-36908730D01*
X82610640Y-36887320D01*
X82592510Y-36864940D01*
X82575580Y-36841630D01*
X82559890Y-36817480D01*
X82545490Y-36792530D01*
X82532410Y-36766870D01*
X82520690Y-36740550D01*
X82510370Y-36713660D01*
X82501470Y-36686270D01*
X82494010Y-36658440D01*
X82488030Y-36630270D01*
X82483520Y-36601820D01*
X82480510Y-36573170D01*
X82479000Y-36544410D01*
X82479000Y-36530000D01*
X82479000Y-35880000D01*
X82679000Y-35880000D01*
G04 #@! TO.C,J8*
G36*
X84645000Y-35840000D02*
X84645000Y-36490000D01*
X84645000Y-36499160D01*
X84645960Y-36517470D01*
X84647880Y-36535700D01*
X84650740Y-36553800D01*
X84654550Y-36571730D01*
X84659300Y-36589440D01*
X84664960Y-36606870D01*
X84671530Y-36623980D01*
X84678990Y-36640730D01*
X84687310Y-36657060D01*
X84696470Y-36672940D01*
X84706460Y-36688310D01*
X84717230Y-36703140D01*
X84728770Y-36717380D01*
X84741030Y-36731010D01*
X84753990Y-36743970D01*
X84767610Y-36756230D01*
X84781860Y-36767770D01*
X84796690Y-36778540D01*
X84812060Y-36788530D01*
X84827940Y-36797690D01*
X84844270Y-36806010D01*
X84861010Y-36813470D01*
X84878130Y-36820040D01*
X84895560Y-36825700D01*
X84913260Y-36830450D01*
X84931190Y-36834260D01*
X84949300Y-36837120D01*
X84967530Y-36839040D01*
X84985830Y-36840000D01*
X84995000Y-36840000D01*
X85004160Y-36840000D01*
X85022470Y-36839040D01*
X85040700Y-36837120D01*
X85058800Y-36834260D01*
X85076730Y-36830450D01*
X85094440Y-36825700D01*
X85111870Y-36820040D01*
X85128980Y-36813470D01*
X85145730Y-36806010D01*
X85162060Y-36797690D01*
X85177940Y-36788530D01*
X85193310Y-36778540D01*
X85208140Y-36767770D01*
X85222380Y-36756230D01*
X85236010Y-36743970D01*
X85248970Y-36731010D01*
X85261230Y-36717390D01*
X85272770Y-36703140D01*
X85283540Y-36688310D01*
X85293530Y-36672940D01*
X85302690Y-36657060D01*
X85311010Y-36640730D01*
X85318470Y-36623990D01*
X85325040Y-36606870D01*
X85330700Y-36589440D01*
X85335450Y-36571740D01*
X85339260Y-36553810D01*
X85342120Y-36535700D01*
X85344040Y-36517470D01*
X85345000Y-36499170D01*
X85345000Y-36490000D01*
X85345000Y-35190000D01*
X85345000Y-35180840D01*
X85344040Y-35162530D01*
X85342120Y-35144300D01*
X85339260Y-35126200D01*
X85335450Y-35108270D01*
X85330700Y-35090560D01*
X85325040Y-35073130D01*
X85318470Y-35056020D01*
X85311010Y-35039270D01*
X85302690Y-35022940D01*
X85293530Y-35007060D01*
X85283540Y-34991690D01*
X85272770Y-34976860D01*
X85261230Y-34962620D01*
X85248970Y-34948990D01*
X85236010Y-34936030D01*
X85222390Y-34923770D01*
X85208140Y-34912230D01*
X85193310Y-34901460D01*
X85177940Y-34891470D01*
X85162060Y-34882310D01*
X85145730Y-34873990D01*
X85128990Y-34866530D01*
X85111870Y-34859960D01*
X85094440Y-34854300D01*
X85076740Y-34849550D01*
X85058810Y-34845740D01*
X85040700Y-34842880D01*
X85022470Y-34840960D01*
X85004170Y-34840000D01*
X84995000Y-34840000D01*
X84985840Y-34840000D01*
X84967530Y-34840960D01*
X84949300Y-34842880D01*
X84931200Y-34845740D01*
X84913270Y-34849550D01*
X84895560Y-34854300D01*
X84878130Y-34859960D01*
X84861020Y-34866530D01*
X84844270Y-34873990D01*
X84827940Y-34882310D01*
X84812060Y-34891470D01*
X84796690Y-34901460D01*
X84781860Y-34912230D01*
X84767620Y-34923770D01*
X84753990Y-34936030D01*
X84741030Y-34948990D01*
X84728770Y-34962610D01*
X84717230Y-34976860D01*
X84706460Y-34991690D01*
X84696470Y-35007060D01*
X84687310Y-35022940D01*
X84678990Y-35039270D01*
X84671530Y-35056010D01*
X84664960Y-35073130D01*
X84659300Y-35090560D01*
X84654550Y-35108260D01*
X84650740Y-35126190D01*
X84647880Y-35144300D01*
X84645960Y-35162530D01*
X84645000Y-35180830D01*
X84645000Y-35190000D01*
X84645000Y-35840000D01*
X84445000Y-35840000D01*
X84445000Y-35190000D01*
X84445000Y-35175600D01*
X84446510Y-35146840D01*
X84449520Y-35118190D01*
X84454020Y-35089740D01*
X84460010Y-35061560D01*
X84467470Y-35033740D01*
X84476370Y-35006350D01*
X84486690Y-34979460D01*
X84498410Y-34953140D01*
X84511480Y-34927480D01*
X84525890Y-34902530D01*
X84541570Y-34878370D01*
X84558500Y-34855070D01*
X84576630Y-34832680D01*
X84595910Y-34811280D01*
X84616270Y-34790910D01*
X84637680Y-34771640D01*
X84660060Y-34753510D01*
X84683370Y-34736580D01*
X84707520Y-34720890D01*
X84732470Y-34706490D01*
X84758130Y-34693410D01*
X84784450Y-34681690D01*
X84811340Y-34671370D01*
X84838730Y-34662470D01*
X84866560Y-34655010D01*
X84894730Y-34649030D01*
X84923180Y-34644520D01*
X84951830Y-34641510D01*
X84980590Y-34640000D01*
X84995000Y-34640000D01*
X85009400Y-34640000D01*
X85038160Y-34641510D01*
X85066810Y-34644520D01*
X85095260Y-34649020D01*
X85123440Y-34655010D01*
X85151260Y-34662470D01*
X85178650Y-34671370D01*
X85205540Y-34681690D01*
X85231860Y-34693410D01*
X85257520Y-34706480D01*
X85282470Y-34720890D01*
X85306630Y-34736570D01*
X85329930Y-34753500D01*
X85352320Y-34771630D01*
X85373720Y-34790910D01*
X85394090Y-34811270D01*
X85413360Y-34832680D01*
X85431490Y-34855060D01*
X85448420Y-34878370D01*
X85464110Y-34902520D01*
X85478510Y-34927470D01*
X85491590Y-34953130D01*
X85503310Y-34979450D01*
X85513630Y-35006340D01*
X85522530Y-35033730D01*
X85529990Y-35061560D01*
X85535970Y-35089730D01*
X85540480Y-35118180D01*
X85543490Y-35146830D01*
X85545000Y-35175590D01*
X85545000Y-35190000D01*
X85545000Y-36490000D01*
X85545000Y-36504400D01*
X85543490Y-36533160D01*
X85540480Y-36561810D01*
X85535980Y-36590260D01*
X85529990Y-36618440D01*
X85522530Y-36646260D01*
X85513630Y-36673650D01*
X85503310Y-36700540D01*
X85491590Y-36726860D01*
X85478520Y-36752520D01*
X85464110Y-36777470D01*
X85448430Y-36801630D01*
X85431500Y-36824930D01*
X85413370Y-36847320D01*
X85394090Y-36868720D01*
X85373730Y-36889090D01*
X85352320Y-36908360D01*
X85329940Y-36926490D01*
X85306630Y-36943420D01*
X85282480Y-36959110D01*
X85257530Y-36973510D01*
X85231870Y-36986590D01*
X85205550Y-36998310D01*
X85178660Y-37008630D01*
X85151270Y-37017530D01*
X85123440Y-37024990D01*
X85095270Y-37030970D01*
X85066820Y-37035480D01*
X85038170Y-37038490D01*
X85009410Y-37040000D01*
X84995000Y-37040000D01*
X84980600Y-37040000D01*
X84951840Y-37038490D01*
X84923190Y-37035480D01*
X84894740Y-37030980D01*
X84866560Y-37024990D01*
X84838740Y-37017530D01*
X84811350Y-37008630D01*
X84784460Y-36998310D01*
X84758140Y-36986590D01*
X84732480Y-36973520D01*
X84707530Y-36959110D01*
X84683370Y-36943430D01*
X84660070Y-36926500D01*
X84637680Y-36908370D01*
X84616280Y-36889090D01*
X84595910Y-36868730D01*
X84576640Y-36847320D01*
X84558510Y-36824940D01*
X84541580Y-36801630D01*
X84525890Y-36777480D01*
X84511490Y-36752530D01*
X84498410Y-36726870D01*
X84486690Y-36700550D01*
X84476370Y-36673660D01*
X84467470Y-36646270D01*
X84460010Y-36618440D01*
X84454030Y-36590270D01*
X84449520Y-36561820D01*
X84446510Y-36533170D01*
X84445000Y-36504410D01*
X84445000Y-36490000D01*
X84445000Y-35840000D01*
X84645000Y-35840000D01*
G37*
X84645000Y-35840000D02*
X84645000Y-36490000D01*
X84645000Y-36499160D01*
X84645960Y-36517470D01*
X84647880Y-36535700D01*
X84650740Y-36553800D01*
X84654550Y-36571730D01*
X84659300Y-36589440D01*
X84664960Y-36606870D01*
X84671530Y-36623980D01*
X84678990Y-36640730D01*
X84687310Y-36657060D01*
X84696470Y-36672940D01*
X84706460Y-36688310D01*
X84717230Y-36703140D01*
X84728770Y-36717380D01*
X84741030Y-36731010D01*
X84753990Y-36743970D01*
X84767610Y-36756230D01*
X84781860Y-36767770D01*
X84796690Y-36778540D01*
X84812060Y-36788530D01*
X84827940Y-36797690D01*
X84844270Y-36806010D01*
X84861010Y-36813470D01*
X84878130Y-36820040D01*
X84895560Y-36825700D01*
X84913260Y-36830450D01*
X84931190Y-36834260D01*
X84949300Y-36837120D01*
X84967530Y-36839040D01*
X84985830Y-36840000D01*
X84995000Y-36840000D01*
X85004160Y-36840000D01*
X85022470Y-36839040D01*
X85040700Y-36837120D01*
X85058800Y-36834260D01*
X85076730Y-36830450D01*
X85094440Y-36825700D01*
X85111870Y-36820040D01*
X85128980Y-36813470D01*
X85145730Y-36806010D01*
X85162060Y-36797690D01*
X85177940Y-36788530D01*
X85193310Y-36778540D01*
X85208140Y-36767770D01*
X85222380Y-36756230D01*
X85236010Y-36743970D01*
X85248970Y-36731010D01*
X85261230Y-36717390D01*
X85272770Y-36703140D01*
X85283540Y-36688310D01*
X85293530Y-36672940D01*
X85302690Y-36657060D01*
X85311010Y-36640730D01*
X85318470Y-36623990D01*
X85325040Y-36606870D01*
X85330700Y-36589440D01*
X85335450Y-36571740D01*
X85339260Y-36553810D01*
X85342120Y-36535700D01*
X85344040Y-36517470D01*
X85345000Y-36499170D01*
X85345000Y-36490000D01*
X85345000Y-35190000D01*
X85345000Y-35180840D01*
X85344040Y-35162530D01*
X85342120Y-35144300D01*
X85339260Y-35126200D01*
X85335450Y-35108270D01*
X85330700Y-35090560D01*
X85325040Y-35073130D01*
X85318470Y-35056020D01*
X85311010Y-35039270D01*
X85302690Y-35022940D01*
X85293530Y-35007060D01*
X85283540Y-34991690D01*
X85272770Y-34976860D01*
X85261230Y-34962620D01*
X85248970Y-34948990D01*
X85236010Y-34936030D01*
X85222390Y-34923770D01*
X85208140Y-34912230D01*
X85193310Y-34901460D01*
X85177940Y-34891470D01*
X85162060Y-34882310D01*
X85145730Y-34873990D01*
X85128990Y-34866530D01*
X85111870Y-34859960D01*
X85094440Y-34854300D01*
X85076740Y-34849550D01*
X85058810Y-34845740D01*
X85040700Y-34842880D01*
X85022470Y-34840960D01*
X85004170Y-34840000D01*
X84995000Y-34840000D01*
X84985840Y-34840000D01*
X84967530Y-34840960D01*
X84949300Y-34842880D01*
X84931200Y-34845740D01*
X84913270Y-34849550D01*
X84895560Y-34854300D01*
X84878130Y-34859960D01*
X84861020Y-34866530D01*
X84844270Y-34873990D01*
X84827940Y-34882310D01*
X84812060Y-34891470D01*
X84796690Y-34901460D01*
X84781860Y-34912230D01*
X84767620Y-34923770D01*
X84753990Y-34936030D01*
X84741030Y-34948990D01*
X84728770Y-34962610D01*
X84717230Y-34976860D01*
X84706460Y-34991690D01*
X84696470Y-35007060D01*
X84687310Y-35022940D01*
X84678990Y-35039270D01*
X84671530Y-35056010D01*
X84664960Y-35073130D01*
X84659300Y-35090560D01*
X84654550Y-35108260D01*
X84650740Y-35126190D01*
X84647880Y-35144300D01*
X84645960Y-35162530D01*
X84645000Y-35180830D01*
X84645000Y-35190000D01*
X84645000Y-35840000D01*
X84445000Y-35840000D01*
X84445000Y-35190000D01*
X84445000Y-35175600D01*
X84446510Y-35146840D01*
X84449520Y-35118190D01*
X84454020Y-35089740D01*
X84460010Y-35061560D01*
X84467470Y-35033740D01*
X84476370Y-35006350D01*
X84486690Y-34979460D01*
X84498410Y-34953140D01*
X84511480Y-34927480D01*
X84525890Y-34902530D01*
X84541570Y-34878370D01*
X84558500Y-34855070D01*
X84576630Y-34832680D01*
X84595910Y-34811280D01*
X84616270Y-34790910D01*
X84637680Y-34771640D01*
X84660060Y-34753510D01*
X84683370Y-34736580D01*
X84707520Y-34720890D01*
X84732470Y-34706490D01*
X84758130Y-34693410D01*
X84784450Y-34681690D01*
X84811340Y-34671370D01*
X84838730Y-34662470D01*
X84866560Y-34655010D01*
X84894730Y-34649030D01*
X84923180Y-34644520D01*
X84951830Y-34641510D01*
X84980590Y-34640000D01*
X84995000Y-34640000D01*
X85009400Y-34640000D01*
X85038160Y-34641510D01*
X85066810Y-34644520D01*
X85095260Y-34649020D01*
X85123440Y-34655010D01*
X85151260Y-34662470D01*
X85178650Y-34671370D01*
X85205540Y-34681690D01*
X85231860Y-34693410D01*
X85257520Y-34706480D01*
X85282470Y-34720890D01*
X85306630Y-34736570D01*
X85329930Y-34753500D01*
X85352320Y-34771630D01*
X85373720Y-34790910D01*
X85394090Y-34811270D01*
X85413360Y-34832680D01*
X85431490Y-34855060D01*
X85448420Y-34878370D01*
X85464110Y-34902520D01*
X85478510Y-34927470D01*
X85491590Y-34953130D01*
X85503310Y-34979450D01*
X85513630Y-35006340D01*
X85522530Y-35033730D01*
X85529990Y-35061560D01*
X85535970Y-35089730D01*
X85540480Y-35118180D01*
X85543490Y-35146830D01*
X85545000Y-35175590D01*
X85545000Y-35190000D01*
X85545000Y-36490000D01*
X85545000Y-36504400D01*
X85543490Y-36533160D01*
X85540480Y-36561810D01*
X85535980Y-36590260D01*
X85529990Y-36618440D01*
X85522530Y-36646260D01*
X85513630Y-36673650D01*
X85503310Y-36700540D01*
X85491590Y-36726860D01*
X85478520Y-36752520D01*
X85464110Y-36777470D01*
X85448430Y-36801630D01*
X85431500Y-36824930D01*
X85413370Y-36847320D01*
X85394090Y-36868720D01*
X85373730Y-36889090D01*
X85352320Y-36908360D01*
X85329940Y-36926490D01*
X85306630Y-36943420D01*
X85282480Y-36959110D01*
X85257530Y-36973510D01*
X85231870Y-36986590D01*
X85205550Y-36998310D01*
X85178660Y-37008630D01*
X85151270Y-37017530D01*
X85123440Y-37024990D01*
X85095270Y-37030970D01*
X85066820Y-37035480D01*
X85038170Y-37038490D01*
X85009410Y-37040000D01*
X84995000Y-37040000D01*
X84980600Y-37040000D01*
X84951840Y-37038490D01*
X84923190Y-37035480D01*
X84894740Y-37030980D01*
X84866560Y-37024990D01*
X84838740Y-37017530D01*
X84811350Y-37008630D01*
X84784460Y-36998310D01*
X84758140Y-36986590D01*
X84732480Y-36973520D01*
X84707530Y-36959110D01*
X84683370Y-36943430D01*
X84660070Y-36926500D01*
X84637680Y-36908370D01*
X84616280Y-36889090D01*
X84595910Y-36868730D01*
X84576640Y-36847320D01*
X84558510Y-36824940D01*
X84541580Y-36801630D01*
X84525890Y-36777480D01*
X84511490Y-36752530D01*
X84498410Y-36726870D01*
X84486690Y-36700550D01*
X84476370Y-36673660D01*
X84467470Y-36646270D01*
X84460010Y-36618440D01*
X84454030Y-36590270D01*
X84449520Y-36561820D01*
X84446510Y-36533170D01*
X84445000Y-36504410D01*
X84445000Y-36490000D01*
X84445000Y-35840000D01*
X84645000Y-35840000D01*
G36*
X99995000Y-35840000D02*
X99995000Y-36490000D01*
X99995000Y-36499160D01*
X99995960Y-36517470D01*
X99997880Y-36535700D01*
X100000740Y-36553800D01*
X100004550Y-36571730D01*
X100009300Y-36589440D01*
X100014960Y-36606870D01*
X100021530Y-36623980D01*
X100028990Y-36640730D01*
X100037310Y-36657060D01*
X100046470Y-36672940D01*
X100056460Y-36688310D01*
X100067230Y-36703140D01*
X100078770Y-36717380D01*
X100091030Y-36731010D01*
X100103990Y-36743970D01*
X100117610Y-36756230D01*
X100131860Y-36767770D01*
X100146690Y-36778540D01*
X100162060Y-36788530D01*
X100177940Y-36797690D01*
X100194270Y-36806010D01*
X100211010Y-36813470D01*
X100228130Y-36820040D01*
X100245560Y-36825700D01*
X100263260Y-36830450D01*
X100281190Y-36834260D01*
X100299300Y-36837120D01*
X100317500Y-36839040D01*
X100335800Y-36840000D01*
X100345000Y-36840000D01*
X100354200Y-36840000D01*
X100372500Y-36839040D01*
X100390700Y-36837120D01*
X100408800Y-36834260D01*
X100426700Y-36830450D01*
X100444400Y-36825700D01*
X100461900Y-36820040D01*
X100479000Y-36813470D01*
X100495700Y-36806010D01*
X100512100Y-36797690D01*
X100527900Y-36788530D01*
X100543300Y-36778540D01*
X100558100Y-36767770D01*
X100572400Y-36756230D01*
X100586000Y-36743970D01*
X100599000Y-36731010D01*
X100611200Y-36717390D01*
X100622800Y-36703140D01*
X100633500Y-36688310D01*
X100643500Y-36672940D01*
X100652700Y-36657060D01*
X100661000Y-36640730D01*
X100668500Y-36623990D01*
X100675000Y-36606870D01*
X100680700Y-36589440D01*
X100685400Y-36571740D01*
X100689300Y-36553810D01*
X100692100Y-36535700D01*
X100694000Y-36517470D01*
X100695000Y-36499170D01*
X100695000Y-36490000D01*
X100695000Y-35190000D01*
X100695000Y-35180840D01*
X100694000Y-35162530D01*
X100692100Y-35144300D01*
X100689300Y-35126200D01*
X100685400Y-35108270D01*
X100680700Y-35090560D01*
X100675000Y-35073130D01*
X100668500Y-35056020D01*
X100661000Y-35039270D01*
X100652700Y-35022940D01*
X100643500Y-35007060D01*
X100633500Y-34991690D01*
X100622800Y-34976860D01*
X100611200Y-34962620D01*
X100599000Y-34948990D01*
X100586000Y-34936030D01*
X100572400Y-34923770D01*
X100558100Y-34912230D01*
X100543300Y-34901460D01*
X100527900Y-34891470D01*
X100512100Y-34882310D01*
X100495700Y-34873990D01*
X100479000Y-34866530D01*
X100461900Y-34859960D01*
X100444400Y-34854300D01*
X100426700Y-34849550D01*
X100408800Y-34845740D01*
X100390700Y-34842880D01*
X100372500Y-34840960D01*
X100354200Y-34840000D01*
X100345000Y-34840000D01*
X100335800Y-34840000D01*
X100317500Y-34840960D01*
X100299300Y-34842880D01*
X100281200Y-34845740D01*
X100263270Y-34849550D01*
X100245560Y-34854300D01*
X100228130Y-34859960D01*
X100211020Y-34866530D01*
X100194270Y-34873990D01*
X100177940Y-34882310D01*
X100162060Y-34891470D01*
X100146690Y-34901460D01*
X100131860Y-34912230D01*
X100117620Y-34923770D01*
X100103990Y-34936030D01*
X100091030Y-34948990D01*
X100078770Y-34962610D01*
X100067230Y-34976860D01*
X100056460Y-34991690D01*
X100046470Y-35007060D01*
X100037310Y-35022940D01*
X100028990Y-35039270D01*
X100021530Y-35056010D01*
X100014960Y-35073130D01*
X100009300Y-35090560D01*
X100004550Y-35108260D01*
X100000740Y-35126190D01*
X99997880Y-35144300D01*
X99995960Y-35162530D01*
X99995000Y-35180830D01*
X99995000Y-35190000D01*
X99995000Y-35840000D01*
X99795000Y-35840000D01*
X99795000Y-35190000D01*
X99795000Y-35175600D01*
X99796510Y-35146840D01*
X99799520Y-35118190D01*
X99804020Y-35089740D01*
X99810010Y-35061560D01*
X99817470Y-35033740D01*
X99826370Y-35006350D01*
X99836690Y-34979460D01*
X99848410Y-34953140D01*
X99861480Y-34927480D01*
X99875890Y-34902530D01*
X99891570Y-34878370D01*
X99908500Y-34855070D01*
X99926630Y-34832680D01*
X99945910Y-34811280D01*
X99966270Y-34790910D01*
X99987680Y-34771640D01*
X100010060Y-34753510D01*
X100033370Y-34736580D01*
X100057520Y-34720890D01*
X100082470Y-34706490D01*
X100108130Y-34693410D01*
X100134450Y-34681690D01*
X100161340Y-34671370D01*
X100188730Y-34662470D01*
X100216560Y-34655010D01*
X100244730Y-34649030D01*
X100273180Y-34644520D01*
X100301830Y-34641510D01*
X100330600Y-34640000D01*
X100345000Y-34640000D01*
X100359400Y-34640000D01*
X100388200Y-34641510D01*
X100416800Y-34644520D01*
X100445300Y-34649020D01*
X100473400Y-34655010D01*
X100501300Y-34662470D01*
X100528700Y-34671370D01*
X100555500Y-34681690D01*
X100581900Y-34693410D01*
X100607500Y-34706480D01*
X100632500Y-34720890D01*
X100656600Y-34736570D01*
X100679900Y-34753500D01*
X100702300Y-34771630D01*
X100723700Y-34790910D01*
X100744100Y-34811270D01*
X100763400Y-34832680D01*
X100781500Y-34855060D01*
X100798400Y-34878370D01*
X100814100Y-34902520D01*
X100828500Y-34927470D01*
X100841600Y-34953130D01*
X100853300Y-34979450D01*
X100863600Y-35006340D01*
X100872500Y-35033730D01*
X100880000Y-35061560D01*
X100886000Y-35089730D01*
X100890500Y-35118180D01*
X100893500Y-35146830D01*
X100895000Y-35175590D01*
X100895000Y-35190000D01*
X100895000Y-36490000D01*
X100895000Y-36504400D01*
X100893500Y-36533160D01*
X100890500Y-36561810D01*
X100886000Y-36590260D01*
X100880000Y-36618440D01*
X100872500Y-36646260D01*
X100863600Y-36673650D01*
X100853300Y-36700540D01*
X100841600Y-36726860D01*
X100828500Y-36752520D01*
X100814100Y-36777470D01*
X100798400Y-36801630D01*
X100781500Y-36824930D01*
X100763400Y-36847320D01*
X100744100Y-36868720D01*
X100723700Y-36889090D01*
X100702300Y-36908360D01*
X100679900Y-36926490D01*
X100656600Y-36943420D01*
X100632500Y-36959110D01*
X100607500Y-36973510D01*
X100581900Y-36986590D01*
X100555600Y-36998310D01*
X100528700Y-37008630D01*
X100501300Y-37017530D01*
X100473400Y-37024990D01*
X100445300Y-37030970D01*
X100416800Y-37035480D01*
X100388200Y-37038490D01*
X100359400Y-37040000D01*
X100345000Y-37040000D01*
X100330600Y-37040000D01*
X100301840Y-37038490D01*
X100273190Y-37035480D01*
X100244740Y-37030980D01*
X100216560Y-37024990D01*
X100188740Y-37017530D01*
X100161350Y-37008630D01*
X100134460Y-36998310D01*
X100108140Y-36986590D01*
X100082480Y-36973520D01*
X100057530Y-36959110D01*
X100033370Y-36943430D01*
X100010070Y-36926500D01*
X99987680Y-36908370D01*
X99966280Y-36889090D01*
X99945910Y-36868730D01*
X99926640Y-36847320D01*
X99908510Y-36824940D01*
X99891580Y-36801630D01*
X99875890Y-36777480D01*
X99861490Y-36752530D01*
X99848410Y-36726870D01*
X99836690Y-36700550D01*
X99826370Y-36673660D01*
X99817470Y-36646270D01*
X99810010Y-36618440D01*
X99804030Y-36590270D01*
X99799520Y-36561820D01*
X99796510Y-36533170D01*
X99795000Y-36504410D01*
X99795000Y-36490000D01*
X99795000Y-35840000D01*
X99995000Y-35840000D01*
G37*
X99995000Y-35840000D02*
X99995000Y-36490000D01*
X99995000Y-36499160D01*
X99995960Y-36517470D01*
X99997880Y-36535700D01*
X100000740Y-36553800D01*
X100004550Y-36571730D01*
X100009300Y-36589440D01*
X100014960Y-36606870D01*
X100021530Y-36623980D01*
X100028990Y-36640730D01*
X100037310Y-36657060D01*
X100046470Y-36672940D01*
X100056460Y-36688310D01*
X100067230Y-36703140D01*
X100078770Y-36717380D01*
X100091030Y-36731010D01*
X100103990Y-36743970D01*
X100117610Y-36756230D01*
X100131860Y-36767770D01*
X100146690Y-36778540D01*
X100162060Y-36788530D01*
X100177940Y-36797690D01*
X100194270Y-36806010D01*
X100211010Y-36813470D01*
X100228130Y-36820040D01*
X100245560Y-36825700D01*
X100263260Y-36830450D01*
X100281190Y-36834260D01*
X100299300Y-36837120D01*
X100317500Y-36839040D01*
X100335800Y-36840000D01*
X100345000Y-36840000D01*
X100354200Y-36840000D01*
X100372500Y-36839040D01*
X100390700Y-36837120D01*
X100408800Y-36834260D01*
X100426700Y-36830450D01*
X100444400Y-36825700D01*
X100461900Y-36820040D01*
X100479000Y-36813470D01*
X100495700Y-36806010D01*
X100512100Y-36797690D01*
X100527900Y-36788530D01*
X100543300Y-36778540D01*
X100558100Y-36767770D01*
X100572400Y-36756230D01*
X100586000Y-36743970D01*
X100599000Y-36731010D01*
X100611200Y-36717390D01*
X100622800Y-36703140D01*
X100633500Y-36688310D01*
X100643500Y-36672940D01*
X100652700Y-36657060D01*
X100661000Y-36640730D01*
X100668500Y-36623990D01*
X100675000Y-36606870D01*
X100680700Y-36589440D01*
X100685400Y-36571740D01*
X100689300Y-36553810D01*
X100692100Y-36535700D01*
X100694000Y-36517470D01*
X100695000Y-36499170D01*
X100695000Y-36490000D01*
X100695000Y-35190000D01*
X100695000Y-35180840D01*
X100694000Y-35162530D01*
X100692100Y-35144300D01*
X100689300Y-35126200D01*
X100685400Y-35108270D01*
X100680700Y-35090560D01*
X100675000Y-35073130D01*
X100668500Y-35056020D01*
X100661000Y-35039270D01*
X100652700Y-35022940D01*
X100643500Y-35007060D01*
X100633500Y-34991690D01*
X100622800Y-34976860D01*
X100611200Y-34962620D01*
X100599000Y-34948990D01*
X100586000Y-34936030D01*
X100572400Y-34923770D01*
X100558100Y-34912230D01*
X100543300Y-34901460D01*
X100527900Y-34891470D01*
X100512100Y-34882310D01*
X100495700Y-34873990D01*
X100479000Y-34866530D01*
X100461900Y-34859960D01*
X100444400Y-34854300D01*
X100426700Y-34849550D01*
X100408800Y-34845740D01*
X100390700Y-34842880D01*
X100372500Y-34840960D01*
X100354200Y-34840000D01*
X100345000Y-34840000D01*
X100335800Y-34840000D01*
X100317500Y-34840960D01*
X100299300Y-34842880D01*
X100281200Y-34845740D01*
X100263270Y-34849550D01*
X100245560Y-34854300D01*
X100228130Y-34859960D01*
X100211020Y-34866530D01*
X100194270Y-34873990D01*
X100177940Y-34882310D01*
X100162060Y-34891470D01*
X100146690Y-34901460D01*
X100131860Y-34912230D01*
X100117620Y-34923770D01*
X100103990Y-34936030D01*
X100091030Y-34948990D01*
X100078770Y-34962610D01*
X100067230Y-34976860D01*
X100056460Y-34991690D01*
X100046470Y-35007060D01*
X100037310Y-35022940D01*
X100028990Y-35039270D01*
X100021530Y-35056010D01*
X100014960Y-35073130D01*
X100009300Y-35090560D01*
X100004550Y-35108260D01*
X100000740Y-35126190D01*
X99997880Y-35144300D01*
X99995960Y-35162530D01*
X99995000Y-35180830D01*
X99995000Y-35190000D01*
X99995000Y-35840000D01*
X99795000Y-35840000D01*
X99795000Y-35190000D01*
X99795000Y-35175600D01*
X99796510Y-35146840D01*
X99799520Y-35118190D01*
X99804020Y-35089740D01*
X99810010Y-35061560D01*
X99817470Y-35033740D01*
X99826370Y-35006350D01*
X99836690Y-34979460D01*
X99848410Y-34953140D01*
X99861480Y-34927480D01*
X99875890Y-34902530D01*
X99891570Y-34878370D01*
X99908500Y-34855070D01*
X99926630Y-34832680D01*
X99945910Y-34811280D01*
X99966270Y-34790910D01*
X99987680Y-34771640D01*
X100010060Y-34753510D01*
X100033370Y-34736580D01*
X100057520Y-34720890D01*
X100082470Y-34706490D01*
X100108130Y-34693410D01*
X100134450Y-34681690D01*
X100161340Y-34671370D01*
X100188730Y-34662470D01*
X100216560Y-34655010D01*
X100244730Y-34649030D01*
X100273180Y-34644520D01*
X100301830Y-34641510D01*
X100330600Y-34640000D01*
X100345000Y-34640000D01*
X100359400Y-34640000D01*
X100388200Y-34641510D01*
X100416800Y-34644520D01*
X100445300Y-34649020D01*
X100473400Y-34655010D01*
X100501300Y-34662470D01*
X100528700Y-34671370D01*
X100555500Y-34681690D01*
X100581900Y-34693410D01*
X100607500Y-34706480D01*
X100632500Y-34720890D01*
X100656600Y-34736570D01*
X100679900Y-34753500D01*
X100702300Y-34771630D01*
X100723700Y-34790910D01*
X100744100Y-34811270D01*
X100763400Y-34832680D01*
X100781500Y-34855060D01*
X100798400Y-34878370D01*
X100814100Y-34902520D01*
X100828500Y-34927470D01*
X100841600Y-34953130D01*
X100853300Y-34979450D01*
X100863600Y-35006340D01*
X100872500Y-35033730D01*
X100880000Y-35061560D01*
X100886000Y-35089730D01*
X100890500Y-35118180D01*
X100893500Y-35146830D01*
X100895000Y-35175590D01*
X100895000Y-35190000D01*
X100895000Y-36490000D01*
X100895000Y-36504400D01*
X100893500Y-36533160D01*
X100890500Y-36561810D01*
X100886000Y-36590260D01*
X100880000Y-36618440D01*
X100872500Y-36646260D01*
X100863600Y-36673650D01*
X100853300Y-36700540D01*
X100841600Y-36726860D01*
X100828500Y-36752520D01*
X100814100Y-36777470D01*
X100798400Y-36801630D01*
X100781500Y-36824930D01*
X100763400Y-36847320D01*
X100744100Y-36868720D01*
X100723700Y-36889090D01*
X100702300Y-36908360D01*
X100679900Y-36926490D01*
X100656600Y-36943420D01*
X100632500Y-36959110D01*
X100607500Y-36973510D01*
X100581900Y-36986590D01*
X100555600Y-36998310D01*
X100528700Y-37008630D01*
X100501300Y-37017530D01*
X100473400Y-37024990D01*
X100445300Y-37030970D01*
X100416800Y-37035480D01*
X100388200Y-37038490D01*
X100359400Y-37040000D01*
X100345000Y-37040000D01*
X100330600Y-37040000D01*
X100301840Y-37038490D01*
X100273190Y-37035480D01*
X100244740Y-37030980D01*
X100216560Y-37024990D01*
X100188740Y-37017530D01*
X100161350Y-37008630D01*
X100134460Y-36998310D01*
X100108140Y-36986590D01*
X100082480Y-36973520D01*
X100057530Y-36959110D01*
X100033370Y-36943430D01*
X100010070Y-36926500D01*
X99987680Y-36908370D01*
X99966280Y-36889090D01*
X99945910Y-36868730D01*
X99926640Y-36847320D01*
X99908510Y-36824940D01*
X99891580Y-36801630D01*
X99875890Y-36777480D01*
X99861490Y-36752530D01*
X99848410Y-36726870D01*
X99836690Y-36700550D01*
X99826370Y-36673660D01*
X99817470Y-36646270D01*
X99810010Y-36618440D01*
X99804030Y-36590270D01*
X99799520Y-36561820D01*
X99796510Y-36533170D01*
X99795000Y-36504410D01*
X99795000Y-36490000D01*
X99795000Y-35840000D01*
X99995000Y-35840000D01*
G04 #@! TD*
D11*
G04 #@! TO.C,R42*
X58870000Y-46760000D03*
X58870000Y-45260000D03*
G04 #@! TD*
G04 #@! TO.C,R43*
X60370000Y-45250000D03*
X60370000Y-46750000D03*
G04 #@! TD*
G04 #@! TO.C,R44*
X57350000Y-46780000D03*
X57350000Y-45280000D03*
G04 #@! TD*
G04 #@! TO.C,R45*
X61880000Y-45240000D03*
X61880000Y-46740000D03*
G04 #@! TD*
D12*
G04 #@! TO.C,C36*
X77300000Y-62970000D03*
X77300000Y-61470000D03*
G04 #@! TD*
D13*
G04 #@! TO.C,D7*
X90130000Y-58070000D03*
X90130000Y-61370000D03*
G04 #@! TD*
D11*
G04 #@! TO.C,R39*
X67350000Y-63030000D03*
X67350000Y-61530000D03*
G04 #@! TD*
D14*
G04 #@! TO.C,R38*
X67330000Y-60330000D03*
X65830000Y-60330000D03*
G04 #@! TD*
G04 #@! TO.C,R41*
X95800000Y-62300000D03*
X94300000Y-62300000D03*
G04 #@! TD*
D15*
G04 #@! TO.C,U8*
X75425000Y-60415000D03*
X75425000Y-61685000D03*
X75425000Y-62955000D03*
X75425000Y-64225000D03*
X69075000Y-64225000D03*
X69075000Y-62955000D03*
X69075000Y-61685000D03*
X69075000Y-60415000D03*
G04 #@! TD*
D16*
G04 #@! TO.C,C35*
X111930000Y-65220000D03*
X113430000Y-65220000D03*
G04 #@! TD*
D11*
G04 #@! TO.C,R36*
X117370000Y-57980000D03*
X117370000Y-59480000D03*
G04 #@! TD*
D14*
G04 #@! TO.C,R37*
X112060000Y-66800000D03*
X113560000Y-66800000D03*
G04 #@! TD*
D15*
G04 #@! TO.C,U7*
X105685000Y-63875000D03*
X105685000Y-62605000D03*
X105685000Y-61335000D03*
X105685000Y-60065000D03*
X112035000Y-60065000D03*
X112035000Y-61335000D03*
X112035000Y-62605000D03*
X112035000Y-63875000D03*
G04 #@! TD*
D17*
G04 #@! TO.C,C15*
X62210000Y-51340000D03*
X63310000Y-51340000D03*
G04 #@! TD*
G04 #@! TO.C,C16*
X62180000Y-49770000D03*
X63280000Y-49770000D03*
G04 #@! TD*
G04 #@! TO.C,C14*
X62210000Y-52660000D03*
X63310000Y-52660000D03*
G04 #@! TD*
D18*
G04 #@! TO.C,U1*
X57120000Y-56990000D03*
D19*
X57120000Y-63290000D03*
X54820000Y-63290000D03*
X59420000Y-63290000D03*
G04 #@! TD*
D12*
G04 #@! TO.C,C1*
X97360000Y-55120000D03*
X97360000Y-56620000D03*
G04 #@! TD*
G04 #@! TO.C,C3*
X52510000Y-62410000D03*
X52510000Y-63910000D03*
G04 #@! TD*
D16*
G04 #@! TO.C,C7*
X41940000Y-45750000D03*
X43440000Y-45750000D03*
G04 #@! TD*
D12*
G04 #@! TO.C,C8*
X43440000Y-49500000D03*
X43440000Y-48000000D03*
G04 #@! TD*
G04 #@! TO.C,C9*
X89040000Y-45986000D03*
X89040000Y-47486000D03*
G04 #@! TD*
G04 #@! TO.C,C13*
X72020000Y-46090000D03*
X72020000Y-47590000D03*
G04 #@! TD*
D16*
G04 #@! TO.C,C17*
X92698000Y-65278000D03*
X91198000Y-65278000D03*
G04 #@! TD*
D12*
G04 #@! TO.C,C24*
X97282000Y-68338000D03*
X97282000Y-69838000D03*
G04 #@! TD*
D16*
G04 #@! TO.C,C25*
X92730000Y-63760000D03*
X91230000Y-63760000D03*
G04 #@! TD*
G04 #@! TO.C,C26*
X97930000Y-73270000D03*
X99430000Y-73270000D03*
G04 #@! TD*
D12*
G04 #@! TO.C,C31*
X98620000Y-63460000D03*
X98620000Y-61960000D03*
G04 #@! TD*
D16*
G04 #@! TO.C,C32*
X93040000Y-62270000D03*
X91540000Y-62270000D03*
G04 #@! TD*
G04 #@! TO.C,C33*
X91220000Y-69720000D03*
X92720000Y-69720000D03*
G04 #@! TD*
D13*
G04 #@! TO.C,D1*
X113950000Y-47910000D03*
X113950000Y-44610000D03*
G04 #@! TD*
D20*
G04 #@! TO.C,D2*
X47420000Y-63480000D03*
X47420000Y-65380000D03*
X45420000Y-64430000D03*
G04 #@! TD*
G04 #@! TO.C,D3*
X47420000Y-59480000D03*
X47420000Y-61380000D03*
X45420000Y-60430000D03*
G04 #@! TD*
G04 #@! TO.C,Q2*
X43390000Y-55310000D03*
X43390000Y-57210000D03*
X41390000Y-56260000D03*
G04 #@! TD*
G04 #@! TO.C,Q3*
X78756000Y-74356000D03*
X78756000Y-72456000D03*
X80756000Y-73406000D03*
G04 #@! TD*
G04 #@! TO.C,Q4*
X43290000Y-63470000D03*
X43290000Y-65370000D03*
X41290000Y-64420000D03*
G04 #@! TD*
G04 #@! TO.C,Q5*
X82770000Y-70640000D03*
X82770000Y-68740000D03*
X84770000Y-69690000D03*
G04 #@! TD*
G04 #@! TO.C,Q6*
X78756000Y-70546000D03*
X78756000Y-68646000D03*
X80756000Y-69596000D03*
G04 #@! TD*
G04 #@! TO.C,Q8*
X82890000Y-64660000D03*
X82890000Y-62760000D03*
X84890000Y-63710000D03*
G04 #@! TD*
G04 #@! TO.C,Q9*
X43290000Y-59500000D03*
X43290000Y-61400000D03*
X41290000Y-60450000D03*
G04 #@! TD*
D14*
G04 #@! TO.C,R1*
X99750000Y-52770000D03*
X98250000Y-52770000D03*
G04 #@! TD*
G04 #@! TO.C,R3*
X99740000Y-54290000D03*
X98240000Y-54290000D03*
G04 #@! TD*
D11*
G04 #@! TO.C,R6*
X52150000Y-58650000D03*
X52150000Y-60150000D03*
G04 #@! TD*
G04 #@! TO.C,R7*
X48970000Y-58680000D03*
X48970000Y-60180000D03*
G04 #@! TD*
G04 #@! TO.C,R8*
X90670000Y-45950000D03*
X90670000Y-47450000D03*
G04 #@! TD*
G04 #@! TO.C,R9*
X93820000Y-45920000D03*
X93820000Y-47420000D03*
G04 #@! TD*
G04 #@! TO.C,R10*
X92230000Y-45920000D03*
X92230000Y-47420000D03*
G04 #@! TD*
G04 #@! TO.C,R11*
X47700000Y-55800000D03*
X47700000Y-57300000D03*
G04 #@! TD*
G04 #@! TO.C,R12*
X49190000Y-55800000D03*
X49190000Y-57300000D03*
G04 #@! TD*
G04 #@! TO.C,R13*
X50590000Y-60160000D03*
X50590000Y-58660000D03*
G04 #@! TD*
G04 #@! TO.C,R14*
X50670000Y-55790000D03*
X50670000Y-57290000D03*
G04 #@! TD*
G04 #@! TO.C,R15*
X52170000Y-55770000D03*
X52170000Y-57270000D03*
G04 #@! TD*
G04 #@! TO.C,R16*
X53670000Y-55780000D03*
X53670000Y-57280000D03*
G04 #@! TD*
G04 #@! TO.C,R17*
X73610000Y-46200000D03*
X73610000Y-47700000D03*
G04 #@! TD*
G04 #@! TO.C,R18*
X76730000Y-46190000D03*
X76730000Y-47690000D03*
G04 #@! TD*
G04 #@! TO.C,R19*
X75170000Y-46200000D03*
X75170000Y-47700000D03*
G04 #@! TD*
D14*
G04 #@! TO.C,R20*
X43330000Y-51950000D03*
X41830000Y-51950000D03*
G04 #@! TD*
G04 #@! TO.C,R21*
X41840000Y-53620000D03*
X43340000Y-53620000D03*
G04 #@! TD*
G04 #@! TO.C,R22*
X82700000Y-72430000D03*
X84200000Y-72430000D03*
G04 #@! TD*
D11*
G04 #@! TO.C,R23*
X49190000Y-62400000D03*
X49190000Y-63900000D03*
G04 #@! TD*
D14*
G04 #@! TO.C,R24*
X76696000Y-72390000D03*
X75196000Y-72390000D03*
G04 #@! TD*
G04 #@! TO.C,R26*
X82850000Y-66920000D03*
X84350000Y-66920000D03*
G04 #@! TD*
G04 #@! TO.C,R27*
X85640000Y-72460000D03*
X87140000Y-72460000D03*
G04 #@! TD*
G04 #@! TO.C,R28*
X79986000Y-66802000D03*
X78486000Y-66802000D03*
G04 #@! TD*
G04 #@! TO.C,R30*
X84030000Y-60470000D03*
X82530000Y-60470000D03*
G04 #@! TD*
D11*
G04 #@! TO.C,R31*
X50800000Y-62420000D03*
X50800000Y-63920000D03*
G04 #@! TD*
D14*
G04 #@! TO.C,R32*
X93980000Y-63760000D03*
X95480000Y-63760000D03*
G04 #@! TD*
D15*
G04 #@! TO.C,U2*
X95985000Y-56415000D03*
X95985000Y-55145000D03*
X95985000Y-53875000D03*
X95985000Y-52605000D03*
X89635000Y-52605000D03*
X89635000Y-53875000D03*
X89635000Y-55145000D03*
X89635000Y-56415000D03*
G04 #@! TD*
D21*
G04 #@! TO.C,U5*
X109401000Y-74126000D03*
X109401000Y-73465600D03*
X109401000Y-72805200D03*
X109401000Y-72170200D03*
X109401000Y-71509800D03*
X109401000Y-70874800D03*
X109401000Y-70214400D03*
X109401000Y-69554000D03*
X103559000Y-69554000D03*
X103559000Y-70214400D03*
X103559000Y-70874800D03*
X103559000Y-71509800D03*
X103559000Y-72170200D03*
X103559000Y-72805200D03*
X103559000Y-73465600D03*
X103559000Y-74126000D03*
G04 #@! TD*
M02*
