M48
;DRILL file {KiCad 5.0.2-bee76a0~70~ubuntu16.04.1} date Sun Apr 14 22:14:55 2019
;FORMAT={-:-/ absolute / inch / decimal}
FMAT,2
INCH,TZ
T1C0.0118
T2C0.0197
T3C0.0236
T4C0.0299
T5C0.0300
T6C0.0315
T7C0.0354
T8C0.0394
T9C0.0433
T10C0.0551
T11C0.0984
T12C0.1201
T13C0.1260
%
G90
G05
T1
X1.2087Y-2.8323
X1.2091Y-1.8843
X1.2094Y-2.4752
X1.2102Y-2.2287
X1.2677Y-1.4768
X1.2677Y-1.6933
X1.2768Y-3.0142
X1.2886Y-2.8
X1.2909Y-2.1626
X1.311Y-2.3335
X1.3315Y-2.6524
X1.3591Y-2.4886
X1.3709Y-2.9024
X1.3709Y-3.1756
X1.4476Y-1.9071
X1.4571Y-1.4055
X1.4827Y-2.8087
X1.4902Y-1.9941
X1.5165Y-3.1764
X1.5181Y-1.765
X1.5528Y-2.9535
X1.5569Y-2.4765
X1.5752Y-2.3906
X1.5972Y-2.0606
X1.6142Y-2.0878
X1.6217Y-1.622
X1.6276Y-1.4882
X1.6524Y-1.7559
X1.6709Y-2.4691
X1.7043Y-2.6181
X1.7094Y-1.8434
X1.7106Y-1.8867
X1.7157Y-1.9732
X1.7335Y-1.9303
X1.7441Y-2.2354
X1.7469Y-2.2629
X1.7516Y-3.0398
X1.7559Y-2.6949
X1.7654Y-1.4591
X1.7654Y-1.5213
X1.7701Y-2.9866
X1.7843Y-2.9071
X1.7882Y-2.4283
X1.7929Y-2.5701
X1.7984Y-1.7512
X1.8257Y-1.93
X1.8319Y-1.9921
X1.8508Y-2.6815
X1.8642Y-3.2374
X1.8713Y-2.8563
X1.8724Y-2.6205
X1.8764Y-1.8606
X1.8799Y-2.2823
X1.8857Y-1.6593
X1.9031Y-1.3886
X1.9146Y-1.989
X1.9343Y-2.7126
X1.9346Y-2.2795
X1.9551Y-1.3886
X1.9564Y-2.3803
X1.9723Y-1.6584
X1.9803Y-2.2831
X1.9815Y-2.8823
X2.0154Y-1.6516
X2.0155Y-2.283
X2.0228Y-3.126
X2.0386Y-2.4709
X2.0589Y-2.2815
X2.0638Y-3.0024
X2.0805Y-2.3719
X2.0937Y-1.5201
X2.0953Y-1.452
X2.1079Y-2.4713
X2.1079Y-2.5035
X2.1079Y-2.5323
X2.1083Y-2.2803
X2.1146Y-2.8071
X2.1402Y-2.8854
X2.1461Y-1.6528
X2.1665Y-3.252
X2.1902Y-2.3787
X2.2122Y-1.4776
X2.2311Y-2.6504
X2.2795Y-2.7287
X2.2917Y-1.5854
X2.3189Y-1.7512
X2.3374Y-1.4272
X2.3394Y-2.5563
X2.3433Y-2.7185
X2.3543Y-3.1642
X2.3575Y-2.9264
X2.3618Y-2.5579
X2.3685Y-1.7575
X2.3898Y-2.4681
X2.3906Y-2.5161
X2.3937Y-2.4917
X2.3949Y-2.6043
X2.4083Y-2.2591
X2.4098Y-2.072
X2.411Y-2.0173
X2.4161Y-1.9614
X2.4165Y-2.0992
X2.4232Y-1.9098
X2.4362Y-2.6843
X2.4394Y-1.7453
X2.4524Y-2.6291
X2.4701Y-2.2236
X2.4713Y-2.7512
X2.4776Y-1.5508
X2.5244Y-1.9559
X2.526Y-1.8429
X2.5291Y-1.8883
X2.5453Y-3.2374
X2.5561Y-1.9891
X2.5571Y-1.4299
X2.5807Y-2.9028
X2.585Y-2.4063
X2.6024Y-2.2673
X2.6035Y-2.4689
X2.6303Y-3.076
X2.6657Y-2.1134
X2.6681Y-2.0555
X2.6917Y-1.9874
X2.6984Y-1.8807
X2.7047Y-2.9354
X2.7126Y-1.5839
X2.7157Y-2.2823
X2.7246Y-2.1415
X2.7713Y-2.4287
X2.7878Y-2.3075
X2.7988Y-1.8736
X2.8038Y-1.6116
X2.8043Y-2.1776
X2.8118Y-2.098
X2.8126Y-2.4114
X2.8244Y-3.2433
X2.8579Y-2.2024
X2.8634Y-2.5587
X2.8827Y-2.9343
X2.8858Y-2.0075
X2.8906Y-2.4039
X2.8972Y-2.2283
X2.8988Y-1.6066
X2.9177Y-2.7059
X2.9319Y-2.0909
X2.9417Y-2.1803
X2.9538Y-1.6316
X2.9638Y-2.0224
X2.9701Y-3.1031
X2.9921Y-2.0421
X2.9953Y-2.9276
X3.0169Y-2.0661
X3.0197Y-1.9732
X3.0238Y-1.7116
X3.0339Y-2.9083
X3.0413Y-2.2697
X3.0484Y-2.2039
X3.0535Y-2.7705
X3.0535Y-3.
X3.0579Y-2.813
X3.0587Y-3.1228
X3.063Y-2.8862
X3.0732Y-2.4665
X3.0772Y-2.1496
X3.0831Y-2.4201
X3.0975Y-2.5343
X3.1295Y-2.7358
X3.1524Y-2.4449
X3.1717Y-2.5508
X3.1795Y-2.7118
X3.2142Y-2.8898
X3.2181Y-2.8146
X3.2213Y-2.174
X3.2587Y-2.6772
X3.2626Y-2.237
X3.2783Y-2.3929
X3.2799Y-3.0173
X3.3083Y-1.6921
X3.3181Y-1.5862
X3.322Y-3.2681
X3.3244Y-1.9055
X3.3575Y-3.1571
X3.3673Y-2.0146
X3.3791Y-2.5087
X3.3835Y-2.9016
X3.411Y-3.1055
X3.4154Y-2.4803
X3.4185Y-2.6976
X3.4193Y-2.6661
X3.4232Y-1.937
X3.4374Y-2.6079
X3.4402Y-2.1732
X3.4488Y-2.7874
X3.4543Y-2.5728
X3.4665Y-2.8488
X3.4705Y-2.3602
X3.4705Y-2.398
X3.474Y-2.2654
X3.4752Y-3.2701
X3.4996Y-2.8181
X3.5055Y-1.63
X3.5055Y-1.9039
X3.5232Y-2.8799
X3.5287Y-2.0406
X3.5362Y-2.8268
X3.5445Y-2.9362
X3.5575Y-2.5701
X3.563Y-2.3559
X3.5672Y-2.4808
X3.5776Y-2.1496
X3.5795Y-2.2008
X3.5805Y-1.605
X3.5917Y-2.8831
X3.5924Y-2.4191
X3.602Y-2.3079
X3.6106Y-2.7822
X3.6283Y-2.2728
X3.6339Y-2.4228
X3.6355Y-1.63
X3.637Y-2.6839
X3.6378Y-3.2681
X3.6484Y-2.7772
X3.6495Y-2.4784
X3.6504Y-2.5398
X3.652Y-2.0098
X3.6803Y-2.0661
X3.6843Y-2.5693
X3.6878Y-2.2894
X3.6925Y-2.1201
X3.6937Y-2.424
X3.6955Y-1.61
X3.7118Y-2.315
X3.748Y-2.7094
X3.761Y-2.574
X3.7898Y-2.7717
X3.8016Y-2.4378
X3.8055Y-2.5055
X3.8091Y-2.8909
X3.822Y-3.2701
X3.8299Y-2.2575
X3.8299Y-2.652
X3.8307Y-2.3051
X3.8327Y-2.1701
X3.8331Y-2.0091
X3.8395Y-2.7779
X3.8681Y-2.8819
X3.8724Y-2.6024
X3.8756Y-2.311
X3.885Y-2.628
X3.9091Y-3.1154
X3.9102Y-2.8453
X3.9134Y-2.3327
X3.9134Y-2.4894
X3.9161Y-2.4472
X3.9488Y-2.4004
X3.9512Y-2.7941
X3.9606Y-2.052
X3.9614Y-2.1374
X3.9854Y-1.9272
X3.9945Y-1.6902
X3.9976Y-1.8047
X4.0106Y-3.037
X4.0177Y-2.9079
X4.0177Y-3.1134
X4.0256Y-2.8087
X4.0264Y-2.7756
X4.0264Y-2.8469
X4.03Y-1.43
X4.0303Y-1.5472
X4.0307Y-1.6504
X4.0354Y-2.6024
X4.0571Y-3.1878
X4.0831Y-2.3753
X4.0984Y-2.189
X4.1047Y-2.4461
X4.1122Y-2.5957
X4.1169Y-1.7594
X4.1264Y-2.4189
X4.1429Y-2.7618
X4.1429Y-2.8677
X4.1453Y-2.9272
X4.1496Y-2.8079
X4.1531Y-1.9555
X4.1602Y-2.5909
X4.1673Y-2.6189
X4.1878Y-2.3268
X4.1921Y-3.2626
X4.1945Y-2.6583
X4.1961Y-2.0016
X4.1996Y-2.0909
X4.2055Y-1.4283
X4.2075Y-2.8303
X4.2173Y-2.7079
X4.2291Y-1.7571
X4.2484Y-2.9874
X4.2819Y-3.2287
X4.2921Y-1.4933
X4.2969Y-2.2142
X4.3Y-2.0016
X4.3102Y-3.0028
X4.322Y-2.6563
X4.324Y-2.4795
X4.3252Y-2.578
X4.3374Y-2.4039
X4.3461Y-2.0839
X4.3524Y-2.2882
X4.3587Y-2.8665
X4.3594Y-2.8154
X4.3634Y-1.4154
X4.364Y-2.3648
X4.3646Y-2.9185
X4.3756Y-2.5677
X4.376Y-2.8925
X4.3807Y-2.6299
X4.3872Y-2.2836
X4.4185Y-2.7461
X4.4193Y-1.9425
X4.4283Y-2.313
X4.4323Y-3.1906
X4.452Y-1.8004
X4.4862Y-1.9386
X4.513Y-2.5677
X4.5169Y-1.5472
X4.5181Y-1.6504
X4.5311Y-1.4339
X4.5323Y-3.0988
X4.5421Y-2.8713
X4.5921Y-3.2327
X4.6098Y-1.928
X4.6417Y-2.9835
X4.6425Y-1.4177
X4.6575Y-1.8307
X4.6874Y-2.7984
X4.689Y-2.498
X4.6996Y-3.1732
X4.7083Y-2.3772
X4.7224Y-2.1665
X4.785Y-1.4134
X4.8165Y-2.8291
X4.8197Y-2.65
X4.8217Y-2.0004
X4.8244Y-3.1634
X4.8276Y-2.2012
X4.8315Y-1.8016
X4.8567Y-1.8913
T2
X1.53Y-1.6
X4.0858Y-1.8508
X1.53Y-2.14
T3
X2.5087Y-2.4488
X2.5087Y-2.5079
X4.26Y-2.59
X4.26Y-2.6491
T4
X2.545Y-2.75
X2.595Y-2.65
X2.645Y-2.75
X2.695Y-2.65
X2.745Y-2.75
X2.795Y-2.65
X2.845Y-2.75
X2.895Y-2.65
T5
X1.49Y-2.41
X1.83Y-1.39
X1.83Y-1.59
X1.93Y-1.49
X2.03Y-1.39
X2.03Y-1.59
T6
X1.29Y-2.41
X1.29Y-2.51
X1.29Y-2.61
X1.29Y-2.71
X1.29Y-2.91
X1.49Y-2.51
X1.49Y-2.61
X1.49Y-2.71
X1.49Y-2.91
X1.58Y-1.86
X1.58Y-1.9584
T7
X5.45Y-3.01
X5.45Y-3.11
X5.45Y-3.21
X1.935Y-2.64
X1.985Y-2.74
X2.035Y-2.64
X2.085Y-2.74
X2.135Y-2.64
X2.185Y-2.74
X5.45Y-2.51
X5.45Y-2.61
X4.5283Y-2.7472
X4.5783Y-2.6472
X4.6283Y-2.7472
X4.6783Y-2.6472
X5.45Y-2.77
X5.45Y-2.87
X5.53Y-1.595
X5.53Y-1.695
X5.53Y-1.795
X5.63Y-1.645
X5.63Y-1.745
X5.63Y-1.845
X5.3728Y-2.09
X5.3728Y-2.3459
X5.55Y-2.09
X5.55Y-2.3459
X4.2Y-1.55
X4.3654Y-1.55
T8
X4.6697Y-1.5055
X4.6697Y-1.6055
X4.6697Y-1.7055
X1.66Y-2.72
X1.66Y-2.82
X1.66Y-2.92
X1.66Y-3.02
X1.66Y-3.12
X1.66Y-3.22
X1.3583Y-1.79
X1.3583Y-1.89
X1.3583Y-1.99
X1.3583Y-2.09
X5.81Y-1.52
X5.81Y-1.62
X5.81Y-1.72
X5.81Y-1.82
X5.81Y-1.92
X5.81Y-2.02
X1.3567Y-2.2622
X1.4567Y-2.2622
X1.38Y-3.06
X1.48Y-3.06
X3.4568Y-3.0255
X3.5113Y-3.1373
X3.5658Y-3.0255
X3.6204Y-3.1373
X3.6749Y-3.0255
X3.7294Y-3.1373
X3.784Y-3.0255
X3.8385Y-3.1373
X3.893Y-3.0255
X1.28Y-1.6
X1.38Y-1.6
X4.8228Y-1.5055
X4.8228Y-1.6055
X4.8228Y-1.7055
T9
X4.0783Y-1.9894
X4.0783Y-2.2854
T10
X4.5512Y-2.0118
X4.5512Y-2.2118
X4.5512Y-2.4118
T11
X1.2441Y-1.4057
X1.2441Y-3.2443
X4.8886Y-1.4057
X4.8886Y-3.2443
X5.023Y-1.4057
X5.023Y-3.2443
X5.8813Y-1.4057
X5.8813Y-3.2443
T12
X3.183Y-3.0814
X4.1668Y-3.0814
T13
X4.4533Y-2.9972
X4.7533Y-2.9972
T0
M30
