(module 4p4c (layer F.Cu) (tedit 5C91EC4A)
  (fp_text reference REF** (at 6.3 -4.5) (layer F.SilkS)
    (effects (font (size 1 1) (thickness 0.15)))
  )
  (fp_text value " 4p4c" (at -3.19 -4.59) (layer F.Fab)
    (effects (font (size 1 1) (thickness 0.15)))
  )
  (fp_line (start -4.3 -3.8) (end -4.3 14.2) (layer F.SilkS) (width 0.2))
  (fp_line (start -4.3 14.2) (end 8 14.2) (layer F.SilkS) (width 0.2))
  (fp_line (start 8.1 14.2) (end 8.1 -3.7) (layer F.SilkS) (width 0.2))
  (fp_line (start 8 -3.8) (end -4.3 -3.8) (layer F.SilkS) (width 0.2))
  (pad 1 thru_hole circle (at 0 0) (size 1.5 1.5) (drill 0.9) (layers *.Cu *.Mask))
  (pad 2 thru_hole circle (at 1.27 -2.54) (size 1.5 1.5) (drill 0.9) (layers *.Cu *.Mask))
  (pad 3 thru_hole circle (at 2.54 0) (size 1.5 1.5) (drill 0.9) (layers *.Cu *.Mask))
  (pad 4 thru_hole circle (at 3.81 -2.54) (size 1.5 1.5) (drill 0.9) (layers *.Cu *.Mask))
  (pad "" thru_hole circle (at -1.905 6.35) (size 3.2 3.2) (drill 3.2) (layers *.Cu *.Mask))
  (pad "" thru_hole circle (at 5.715 6.35) (size 3.2 3.2) (drill 3.2) (layers *.Cu *.Mask))
)
