(module SuperCap (layer F.Cu) (tedit 5CB0643D)
  (fp_text reference REF** (at 0 -6.35 180) (layer F.SilkS)
    (effects (font (size 1 1) (thickness 0.15)))
  )
  (fp_text value SuperCap (at 0 0) (layer F.Fab)
    (effects (font (size 1 1) (thickness 0.15)))
  )
  (fp_line (start -5.75 5.26) (end 5.77 5.26) (layer F.SilkS) (width 0.15))
  (fp_line (start 5.77 5.26) (end 5.77 -5.26) (layer F.SilkS) (width 0.15))
  (fp_line (start 5.77 -5.26) (end -5.77 -5.26) (layer F.SilkS) (width 0.15))
  (fp_line (start -5.77 5.26) (end -5.77 -5.26) (layer F.SilkS) (width 0.15))
  (fp_line (start 3.81 6.35) (end 3.81 8.89) (layer F.SilkS) (width 0.2))
  (fp_line (start 2.54 7.62) (end 5.08 7.62) (layer F.SilkS) (width 0.2))
  (pad 2 thru_hole circle (at 0 -3.76) (size 2 2) (drill 1.1) (layers *.Cu *.Mask))
  (pad 1 thru_hole circle (at 0 3.76) (size 2 2) (drill 1.1) (layers *.Cu *.Mask))
)
