(module TE_2174803-2 (layer F.Cu) (tedit 5C944E42)
  (attr smd)
  (fp_text reference REF** (at -8.36246 -10.9382) (layer F.SilkS)
    (effects (font (size 1.00029 1.00029) (thickness 0.05)))
  )
  (fp_text value "" (at -7.83185 7.4715) (layer F.SilkS) hide
    (effects (font (size 1.00087 1.00087) (thickness 0.05)))
  )
  (fp_line (start -10.085 -9.58) (end -10.085 6.4) (layer Eco2.User) (width 0.127))
  (fp_line (start -10.085 6.4) (end 5.015 6.4) (layer Eco2.User) (width 0.127))
  (fp_line (start 5.015 6.4) (end 5.015 -9.58) (layer Eco2.User) (width 0.127))
  (fp_line (start 5.015 -9.58) (end -10.085 -9.58) (layer Eco2.User) (width 0.127))
  (fp_line (start -10.085 -9.58) (end -8.15 -9.58) (layer F.SilkS) (width 0.127))
  (fp_line (start -6 -9.58) (end -3.4 -9.58) (layer F.SilkS) (width 0.127))
  (fp_line (start -1.45 -9.58) (end 1.35 -9.58) (layer F.SilkS) (width 0.127))
  (fp_line (start 4.3 -9.58) (end 5.015 -9.58) (layer F.SilkS) (width 0.127))
  (fp_line (start 5.015 -6.9) (end 5.015 -0.8) (layer F.SilkS) (width 0.127))
  (fp_line (start 5.015 1.45) (end 5.015 3.1) (layer F.SilkS) (width 0.127))
  (fp_line (start -9 6.4) (end 5.015 6.4) (layer F.SilkS) (width 0.127))
  (fp_line (start -10.085 3) (end -10.085 -0.779) (layer F.SilkS) (width 0.127))
  (fp_line (start -10.085 -7) (end -10.085 -3.583) (layer F.SilkS) (width 0.127))
  (fp_line (start -10.835 -10.13) (end -10.835 6.65) (layer Eco1.User) (width 0.05))
  (fp_line (start -10.835 6.65) (end 6.115 6.65) (layer Eco1.User) (width 0.05))
  (fp_line (start 6.115 6.65) (end 6.115 -10.13) (layer Eco1.User) (width 0.05))
  (fp_line (start 6.115 -10.13) (end -10.835 -10.13) (layer Eco1.User) (width 0.05))
  (fp_line (start -10.385 4.15) (end -10.385 5.45) (layer Edge.Cuts) (width 0.1))
  (fp_arc (start -10.035 5.45) (end -10.035 5.8) (angle 90) (layer Edge.Cuts) (width 0.1))
  (fp_arc (start -10.035 5.45) (end -9.685 5.45) (angle 90) (layer Edge.Cuts) (width 0.1))
  (fp_line (start -9.685 5.45) (end -9.685 4.15) (layer Edge.Cuts) (width 0.1))
  (fp_arc (start -10.035 4.15) (end -10.035 3.8) (angle 90) (layer Edge.Cuts) (width 0.1))
  (fp_arc (start -10.035 4.15) (end -10.385 4.15) (angle 90) (layer Edge.Cuts) (width 0.1))
  (fp_arc (start 5.315 4.15) (end 4.965 4.15) (angle 90) (layer Edge.Cuts) (width 0.1))
  (fp_line (start 4.965 4.15) (end 4.965 5.45) (layer Edge.Cuts) (width 0.1))
  (fp_arc (start 5.315 5.45) (end 5.315 5.8) (angle 90) (layer Edge.Cuts) (width 0.1))
  (fp_arc (start 5.315 5.45) (end 5.665 5.45) (angle 90) (layer Edge.Cuts) (width 0.1))
  (fp_line (start 5.665 5.45) (end 5.665 4.15) (layer Edge.Cuts) (width 0.1))
  (fp_arc (start 5.315 4.15) (end 5.315 3.8) (angle 90) (layer Edge.Cuts) (width 0.1))
  (fp_poly (pts (xy -9.785 -8.97) (xy -5.624 -8.97) (xy -5.624 3.6) (xy -9.785 3.6)) (layer Dwgs.User) (width 0))
  (fp_poly (pts (xy -9.485 3.6) (xy -5.624 3.6) (xy -5.624 6.4) (xy -9.485 6.4)) (layer Dwgs.User) (width 0))
  (fp_poly (pts (xy -3.255 3.35) (xy -1.565 3.35) (xy -1.565 6.02051) (xy -3.255 6.02051)) (layer Dwgs.User) (width 0))
  (fp_poly (pts (xy -0.615366 3.35) (xy 0.975 3.35) (xy 0.975 6.02358) (xy -0.615366 6.02358)) (layer Dwgs.User) (width 0))
  (fp_poly (pts (xy 1.925 3.35) (xy 3.515 3.35) (xy 3.515 6.03088) (xy 1.925 6.03088)) (layer Dwgs.User) (width 0))
  (fp_poly (pts (xy 5.17481 6.02) (xy 5.515 6.02) (xy 5.515 6.332) (xy 5.17481 6.332)) (layer Dwgs.User) (width 0))
  (fp_poly (pts (xy 4.76503 2.25) (xy 5.165 2.25) (xy 5.165 3.65003) (xy 4.76503 3.65003)) (layer Dwgs.User) (width 0))
  (fp_poly (pts (xy -3.26141 -4.17) (xy -1.565 -4.17) (xy -1.565 -1.1723) (xy -3.26141 -1.1723)) (layer Dwgs.User) (width 0))
  (fp_poly (pts (xy -0.615 -4.17) (xy 0.975 -4.17) (xy 0.975 -1.17092) (xy -0.615 -1.17092)) (layer Dwgs.User) (width 0))
  (fp_poly (pts (xy 1.925 -4.17) (xy 3.515 -4.17) (xy 3.515 -1.17201) (xy 1.925 -1.17201)) (layer Dwgs.User) (width 0))
  (fp_poly (pts (xy 3.97662 -6.63) (xy 5.42 -6.63) (xy 5.42 -4.12687) (xy 3.97662 -4.12687)) (layer Dwgs.User) (width 0))
  (fp_poly (pts (xy -10.235 6) (xy -9.9 6) (xy -9.9 6.32) (xy -10.235 6.32)) (layer Dwgs.User) (width 0))
  (fp_poly (pts (xy -9.785 -8.97) (xy -5.624 -8.97) (xy -5.624 3.6) (xy -9.785 3.6)) (layer Dwgs.User) (width 0))
  (fp_poly (pts (xy -9.485 3.6) (xy -5.624 3.6) (xy -5.624 6.4) (xy -9.485 6.4)) (layer Dwgs.User) (width 0))
  (fp_poly (pts (xy -3.255 3.35) (xy -1.565 3.35) (xy -1.565 6.02741) (xy -3.255 6.02741)) (layer Dwgs.User) (width 0))
  (fp_poly (pts (xy -0.615 3.35) (xy 0.975 3.35) (xy 0.975 6.02254) (xy -0.615 6.02254)) (layer Dwgs.User) (width 0))
  (fp_poly (pts (xy 1.92543 3.35) (xy 3.515 3.35) (xy 3.515 6.02134) (xy 1.92543 6.02134)) (layer Dwgs.User) (width 0))
  (fp_poly (pts (xy 5.17012 6.02) (xy 5.515 6.02) (xy 5.515 6.32626) (xy 5.17012 6.32626)) (layer Dwgs.User) (width 0))
  (fp_poly (pts (xy 4.76831 2.25) (xy 5.165 2.25) (xy 5.165 3.65254) (xy 4.76831 3.65254)) (layer Dwgs.User) (width 0))
  (fp_poly (pts (xy -3.26087 -4.17) (xy -1.565 -4.17) (xy -1.565 -1.17211) (xy -3.26087 -1.17211)) (layer Dwgs.User) (width 0))
  (fp_poly (pts (xy -0.615 -4.17) (xy 0.975 -4.17) (xy 0.975 -1.17099) (xy -0.615 -1.17099)) (layer Dwgs.User) (width 0))
  (fp_poly (pts (xy 1.925 -4.17) (xy 3.515 -4.17) (xy 3.515 -1.17089) (xy 1.925 -1.17089)) (layer Dwgs.User) (width 0))
  (fp_poly (pts (xy 3.97319 -6.63) (xy 5.42 -6.63) (xy 5.42 -4.12331) (xy 3.97319 -4.12331)) (layer Dwgs.User) (width 0))
  (fp_poly (pts (xy -10.235 6) (xy -9.9 6) (xy -9.9 6.32) (xy -10.235 6.32)) (layer Dwgs.User) (width 0))
  (fp_poly (pts (xy -9.785 -8.97) (xy -5.624 -8.97) (xy -5.624 3.6) (xy -9.785 3.6)) (layer Dwgs.User) (width 0))
  (fp_poly (pts (xy -9.485 3.6) (xy -5.624 3.6) (xy -5.624 6.4) (xy -9.485 6.4)) (layer Dwgs.User) (width 0))
  (fp_poly (pts (xy -3.255 3.35) (xy -1.565 3.35) (xy -1.565 6.02416) (xy -3.255 6.02416)) (layer Dwgs.User) (width 0))
  (fp_poly (pts (xy -0.616006 3.35) (xy 0.975 3.35) (xy 0.975 6.02986) (xy -0.616006 6.02986)) (layer Dwgs.User) (width 0))
  (fp_poly (pts (xy 1.925 3.35) (xy 3.515 3.35) (xy 3.515 6.02761) (xy 1.925 6.02761)) (layer Dwgs.User) (width 0))
  (fp_poly (pts (xy 5.17451 6.02) (xy 5.515 6.02) (xy 5.515 6.33164) (xy 5.17451 6.33164)) (layer Dwgs.User) (width 0))
  (fp_poly (pts (xy 4.76925 2.25) (xy 5.165 2.25) (xy 5.165 3.65326) (xy 4.76925 3.65326)) (layer Dwgs.User) (width 0))
  (fp_poly (pts (xy -3.26071 -4.17) (xy -1.565 -4.17) (xy -1.565 -1.17205) (xy -3.26071 -1.17205)) (layer Dwgs.User) (width 0))
  (fp_poly (pts (xy -0.615 -4.17) (xy 0.975 -4.17) (xy 0.975 -1.17074) (xy -0.615 -1.17074)) (layer Dwgs.User) (width 0))
  (fp_poly (pts (xy 1.925 -4.17) (xy 3.515 -4.17) (xy 3.515 -1.17003) (xy 1.925 -1.17003)) (layer Dwgs.User) (width 0))
  (fp_poly (pts (xy 3.97099 -6.63) (xy 5.42 -6.63) (xy 5.42 -4.12103) (xy 3.97099 -4.12103)) (layer Dwgs.User) (width 0))
  (fp_poly (pts (xy -10.235 6) (xy -9.9 6) (xy -9.9 6.32) (xy -10.235 6.32)) (layer Dwgs.User) (width 0))
  (fp_circle (center 1.925 1.325) (end 2.025 1.325) (layer Eco2.User) (width 0.2))
  (fp_poly (pts (xy -9.685 4.8) (xy -9.685 4.15) (xy -9.685 4.14084) (xy -9.68596 4.12253)
    (xy -9.68788 4.1043) (xy -9.69074 4.0862) (xy -9.69455 4.06827) (xy -9.6993 4.05056)
    (xy -9.70496 4.03313) (xy -9.71153 4.01602) (xy -9.71899 3.99927) (xy -9.72731 3.98294)
    (xy -9.73647 3.96706) (xy -9.74646 3.95169) (xy -9.75723 3.93686) (xy -9.76877 3.92262)
    (xy -9.78103 3.90899) (xy -9.79399 3.89603) (xy -9.80761 3.88377) (xy -9.82186 3.87223)
    (xy -9.83669 3.86146) (xy -9.85206 3.85147) (xy -9.86794 3.84231) (xy -9.88427 3.83399)
    (xy -9.90101 3.82653) (xy -9.91813 3.81996) (xy -9.93556 3.8143) (xy -9.95326 3.80955)
    (xy -9.97119 3.80574) (xy -9.9893 3.80288) (xy -10.0075 3.80096) (xy -10.0258 3.8)
    (xy -10.035 3.8) (xy -10.0442 3.8) (xy -10.0625 3.80096) (xy -10.0807 3.80288)
    (xy -10.0988 3.80574) (xy -10.1167 3.80955) (xy -10.1344 3.8143) (xy -10.1519 3.81996)
    (xy -10.169 3.82653) (xy -10.1857 3.83399) (xy -10.2021 3.84231) (xy -10.2179 3.85147)
    (xy -10.2333 3.86146) (xy -10.2481 3.87223) (xy -10.2624 3.88377) (xy -10.276 3.89603)
    (xy -10.289 3.90899) (xy -10.3012 3.92261) (xy -10.3128 3.93686) (xy -10.3235 3.95169)
    (xy -10.3335 3.96706) (xy -10.3427 3.98294) (xy -10.351 3.99927) (xy -10.3585 4.01601)
    (xy -10.365 4.03313) (xy -10.3707 4.05056) (xy -10.3754 4.06826) (xy -10.3793 4.08619)
    (xy -10.3821 4.1043) (xy -10.384 4.12253) (xy -10.385 4.14083) (xy -10.385 4.15)
    (xy -10.385 5.45) (xy -10.385 5.45916) (xy -10.384 5.47747) (xy -10.3821 5.4957)
    (xy -10.3793 5.5138) (xy -10.3754 5.53173) (xy -10.3707 5.54944) (xy -10.365 5.56687)
    (xy -10.3585 5.58398) (xy -10.351 5.60073) (xy -10.3427 5.61706) (xy -10.3335 5.63294)
    (xy -10.3235 5.64831) (xy -10.3128 5.66314) (xy -10.3012 5.67738) (xy -10.289 5.69101)
    (xy -10.276 5.70397) (xy -10.2624 5.71623) (xy -10.2481 5.72777) (xy -10.2333 5.73854)
    (xy -10.2179 5.74853) (xy -10.2021 5.75769) (xy -10.1857 5.76601) (xy -10.169 5.77347)
    (xy -10.1519 5.78004) (xy -10.1344 5.7857) (xy -10.1167 5.79045) (xy -10.0988 5.79426)
    (xy -10.0807 5.79712) (xy -10.0625 5.79904) (xy -10.0442 5.8) (xy -10.035 5.8)
    (xy -10.0258 5.8) (xy -10.0075 5.79904) (xy -9.9893 5.79712) (xy -9.9712 5.79426)
    (xy -9.95327 5.79045) (xy -9.93556 5.7857) (xy -9.91813 5.78004) (xy -9.90102 5.77347)
    (xy -9.88427 5.76601) (xy -9.86794 5.75769) (xy -9.85206 5.74853) (xy -9.83669 5.73854)
    (xy -9.82186 5.72777) (xy -9.80762 5.71623) (xy -9.79399 5.70397) (xy -9.78103 5.69101)
    (xy -9.76877 5.67739) (xy -9.75723 5.66314) (xy -9.74646 5.64831) (xy -9.73647 5.63294)
    (xy -9.72731 5.61706) (xy -9.71899 5.60073) (xy -9.71153 5.58399) (xy -9.70496 5.56687)
    (xy -9.6993 5.54944) (xy -9.69455 5.53174) (xy -9.69074 5.51381) (xy -9.68788 5.4957)
    (xy -9.68596 5.47747) (xy -9.685 5.45917) (xy -9.685 5.45) (xy -9.685 4.8)
    (xy -9.485 4.8) (xy -9.485 5.45) (xy -9.485 5.4644) (xy -9.48651 5.49316)
    (xy -9.48952 5.52181) (xy -9.49402 5.55026) (xy -9.50001 5.57844) (xy -9.50747 5.60626)
    (xy -9.51637 5.63365) (xy -9.52669 5.66054) (xy -9.53841 5.68686) (xy -9.55148 5.71252)
    (xy -9.56589 5.73747) (xy -9.58157 5.76163) (xy -9.5985 5.78493) (xy -9.61663 5.80732)
    (xy -9.63591 5.82872) (xy -9.65627 5.84909) (xy -9.67768 5.86836) (xy -9.70006 5.88649)
    (xy -9.72337 5.90342) (xy -9.74752 5.91911) (xy -9.77247 5.93351) (xy -9.79813 5.94659)
    (xy -9.82445 5.95831) (xy -9.85134 5.96863) (xy -9.87873 5.97753) (xy -9.90656 5.98499)
    (xy -9.93473 5.99097) (xy -9.96318 5.99548) (xy -9.99183 5.99849) (xy -10.0206 6)
    (xy -10.035 6) (xy -10.0494 6) (xy -10.0782 5.99849) (xy -10.1068 5.99548)
    (xy -10.1353 5.99098) (xy -10.1634 5.98499) (xy -10.1913 5.97753) (xy -10.2187 5.96863)
    (xy -10.2455 5.95831) (xy -10.2719 5.94659) (xy -10.2975 5.93352) (xy -10.3225 5.91911)
    (xy -10.3466 5.90343) (xy -10.3699 5.8865) (xy -10.3923 5.86837) (xy -10.4137 5.84909)
    (xy -10.4341 5.82873) (xy -10.4534 5.80732) (xy -10.4715 5.78494) (xy -10.4884 5.76163)
    (xy -10.5041 5.73748) (xy -10.5185 5.71253) (xy -10.5316 5.68687) (xy -10.5433 5.66055)
    (xy -10.5536 5.63366) (xy -10.5625 5.60627) (xy -10.57 5.57844) (xy -10.576 5.55027)
    (xy -10.5805 5.52182) (xy -10.5835 5.49317) (xy -10.585 5.46441) (xy -10.585 5.45)
    (xy -10.585 4.15) (xy -10.585 4.1356) (xy -10.5835 4.10684) (xy -10.5805 4.07819)
    (xy -10.576 4.04974) (xy -10.57 4.02156) (xy -10.5625 3.99374) (xy -10.5536 3.96635)
    (xy -10.5433 3.93946) (xy -10.5316 3.91314) (xy -10.5185 3.88748) (xy -10.5041 3.86253)
    (xy -10.4884 3.83837) (xy -10.4715 3.81507) (xy -10.4534 3.79268) (xy -10.4341 3.77128)
    (xy -10.4137 3.75091) (xy -10.3923 3.73164) (xy -10.3699 3.71351) (xy -10.3466 3.69658)
    (xy -10.3225 3.68089) (xy -10.2975 3.66649) (xy -10.2719 3.65341) (xy -10.2456 3.64169)
    (xy -10.2187 3.63137) (xy -10.1913 3.62247) (xy -10.1634 3.61501) (xy -10.1353 3.60903)
    (xy -10.1068 3.60452) (xy -10.0782 3.60151) (xy -10.0494 3.6) (xy -10.035 3.6)
    (xy -10.0206 3.6) (xy -9.99184 3.60151) (xy -9.96319 3.60452) (xy -9.93474 3.60902)
    (xy -9.90656 3.61501) (xy -9.87874 3.62247) (xy -9.85135 3.63137) (xy -9.82446 3.64169)
    (xy -9.79814 3.65341) (xy -9.77248 3.66648) (xy -9.74753 3.68089) (xy -9.72337 3.69657)
    (xy -9.70007 3.7135) (xy -9.67768 3.73163) (xy -9.65628 3.75091) (xy -9.63591 3.77127)
    (xy -9.61664 3.79268) (xy -9.59851 3.81506) (xy -9.58158 3.83837) (xy -9.56589 3.86252)
    (xy -9.55149 3.88747) (xy -9.53841 3.91313) (xy -9.52669 3.93945) (xy -9.51637 3.96634)
    (xy -9.50747 3.99373) (xy -9.50001 4.02156) (xy -9.49403 4.04973) (xy -9.48952 4.07818)
    (xy -9.48651 4.10683) (xy -9.485 4.13559) (xy -9.485 4.15) (xy -9.485 4.8)) (layer F.Cu) (width 0.0001))
  (fp_poly (pts (xy -9.685 4.8) (xy -9.685 4.15) (xy -9.685 4.14084) (xy -9.68596 4.12253)
    (xy -9.68788 4.1043) (xy -9.69074 4.0862) (xy -9.69455 4.06827) (xy -9.6993 4.05056)
    (xy -9.70496 4.03313) (xy -9.71153 4.01602) (xy -9.71899 3.99927) (xy -9.72731 3.98294)
    (xy -9.73647 3.96706) (xy -9.74646 3.95169) (xy -9.75723 3.93686) (xy -9.76877 3.92262)
    (xy -9.78103 3.90899) (xy -9.79399 3.89603) (xy -9.80761 3.88377) (xy -9.82186 3.87223)
    (xy -9.83669 3.86146) (xy -9.85206 3.85147) (xy -9.86794 3.84231) (xy -9.88427 3.83399)
    (xy -9.90101 3.82653) (xy -9.91813 3.81996) (xy -9.93556 3.8143) (xy -9.95326 3.80955)
    (xy -9.97119 3.80574) (xy -9.9893 3.80288) (xy -10.0075 3.80096) (xy -10.0258 3.8)
    (xy -10.035 3.8) (xy -10.0442 3.8) (xy -10.0625 3.80096) (xy -10.0807 3.80288)
    (xy -10.0988 3.80574) (xy -10.1167 3.80955) (xy -10.1344 3.8143) (xy -10.1519 3.81996)
    (xy -10.169 3.82653) (xy -10.1857 3.83399) (xy -10.2021 3.84231) (xy -10.2179 3.85147)
    (xy -10.2333 3.86146) (xy -10.2481 3.87223) (xy -10.2624 3.88377) (xy -10.276 3.89603)
    (xy -10.289 3.90899) (xy -10.3012 3.92261) (xy -10.3128 3.93686) (xy -10.3235 3.95169)
    (xy -10.3335 3.96706) (xy -10.3427 3.98294) (xy -10.351 3.99927) (xy -10.3585 4.01601)
    (xy -10.365 4.03313) (xy -10.3707 4.05056) (xy -10.3754 4.06826) (xy -10.3793 4.08619)
    (xy -10.3821 4.1043) (xy -10.384 4.12253) (xy -10.385 4.14083) (xy -10.385 4.15)
    (xy -10.385 5.45) (xy -10.385 5.45916) (xy -10.384 5.47747) (xy -10.3821 5.4957)
    (xy -10.3793 5.5138) (xy -10.3754 5.53173) (xy -10.3707 5.54944) (xy -10.365 5.56687)
    (xy -10.3585 5.58398) (xy -10.351 5.60073) (xy -10.3427 5.61706) (xy -10.3335 5.63294)
    (xy -10.3235 5.64831) (xy -10.3128 5.66314) (xy -10.3012 5.67738) (xy -10.289 5.69101)
    (xy -10.276 5.70397) (xy -10.2624 5.71623) (xy -10.2481 5.72777) (xy -10.2333 5.73854)
    (xy -10.2179 5.74853) (xy -10.2021 5.75769) (xy -10.1857 5.76601) (xy -10.169 5.77347)
    (xy -10.1519 5.78004) (xy -10.1344 5.7857) (xy -10.1167 5.79045) (xy -10.0988 5.79426)
    (xy -10.0807 5.79712) (xy -10.0625 5.79904) (xy -10.0442 5.8) (xy -10.035 5.8)
    (xy -10.0258 5.8) (xy -10.0075 5.79904) (xy -9.9893 5.79712) (xy -9.9712 5.79426)
    (xy -9.95327 5.79045) (xy -9.93556 5.7857) (xy -9.91813 5.78004) (xy -9.90102 5.77347)
    (xy -9.88427 5.76601) (xy -9.86794 5.75769) (xy -9.85206 5.74853) (xy -9.83669 5.73854)
    (xy -9.82186 5.72777) (xy -9.80762 5.71623) (xy -9.79399 5.70397) (xy -9.78103 5.69101)
    (xy -9.76877 5.67739) (xy -9.75723 5.66314) (xy -9.74646 5.64831) (xy -9.73647 5.63294)
    (xy -9.72731 5.61706) (xy -9.71899 5.60073) (xy -9.71153 5.58399) (xy -9.70496 5.56687)
    (xy -9.6993 5.54944) (xy -9.69455 5.53174) (xy -9.69074 5.51381) (xy -9.68788 5.4957)
    (xy -9.68596 5.47747) (xy -9.685 5.45917) (xy -9.685 5.45) (xy -9.685 4.8)
    (xy -9.485 4.8) (xy -9.485 5.45) (xy -9.485 5.4644) (xy -9.48651 5.49316)
    (xy -9.48952 5.52181) (xy -9.49402 5.55026) (xy -9.50001 5.57844) (xy -9.50747 5.60626)
    (xy -9.51637 5.63365) (xy -9.52669 5.66054) (xy -9.53841 5.68686) (xy -9.55148 5.71252)
    (xy -9.56589 5.73747) (xy -9.58157 5.76163) (xy -9.5985 5.78493) (xy -9.61663 5.80732)
    (xy -9.63591 5.82872) (xy -9.65627 5.84909) (xy -9.67768 5.86836) (xy -9.70006 5.88649)
    (xy -9.72337 5.90342) (xy -9.74752 5.91911) (xy -9.77247 5.93351) (xy -9.79813 5.94659)
    (xy -9.82445 5.95831) (xy -9.85134 5.96863) (xy -9.87873 5.97753) (xy -9.90656 5.98499)
    (xy -9.93473 5.99097) (xy -9.96318 5.99548) (xy -9.99183 5.99849) (xy -10.0206 6)
    (xy -10.035 6) (xy -10.0494 6) (xy -10.0782 5.99849) (xy -10.1068 5.99548)
    (xy -10.1353 5.99098) (xy -10.1634 5.98499) (xy -10.1913 5.97753) (xy -10.2187 5.96863)
    (xy -10.2455 5.95831) (xy -10.2719 5.94659) (xy -10.2975 5.93352) (xy -10.3225 5.91911)
    (xy -10.3466 5.90343) (xy -10.3699 5.8865) (xy -10.3923 5.86837) (xy -10.4137 5.84909)
    (xy -10.4341 5.82873) (xy -10.4534 5.80732) (xy -10.4715 5.78494) (xy -10.4884 5.76163)
    (xy -10.5041 5.73748) (xy -10.5185 5.71253) (xy -10.5316 5.68687) (xy -10.5433 5.66055)
    (xy -10.5536 5.63366) (xy -10.5625 5.60627) (xy -10.57 5.57844) (xy -10.576 5.55027)
    (xy -10.5805 5.52182) (xy -10.5835 5.49317) (xy -10.585 5.46441) (xy -10.585 5.45)
    (xy -10.585 4.15) (xy -10.585 4.1356) (xy -10.5835 4.10684) (xy -10.5805 4.07819)
    (xy -10.576 4.04974) (xy -10.57 4.02156) (xy -10.5625 3.99374) (xy -10.5536 3.96635)
    (xy -10.5433 3.93946) (xy -10.5316 3.91314) (xy -10.5185 3.88748) (xy -10.5041 3.86253)
    (xy -10.4884 3.83837) (xy -10.4715 3.81507) (xy -10.4534 3.79268) (xy -10.4341 3.77128)
    (xy -10.4137 3.75091) (xy -10.3923 3.73164) (xy -10.3699 3.71351) (xy -10.3466 3.69658)
    (xy -10.3225 3.68089) (xy -10.2975 3.66649) (xy -10.2719 3.65341) (xy -10.2456 3.64169)
    (xy -10.2187 3.63137) (xy -10.1913 3.62247) (xy -10.1634 3.61501) (xy -10.1353 3.60903)
    (xy -10.1068 3.60452) (xy -10.0782 3.60151) (xy -10.0494 3.6) (xy -10.035 3.6)
    (xy -10.0206 3.6) (xy -9.99184 3.60151) (xy -9.96319 3.60452) (xy -9.93474 3.60902)
    (xy -9.90656 3.61501) (xy -9.87874 3.62247) (xy -9.85135 3.63137) (xy -9.82446 3.64169)
    (xy -9.79814 3.65341) (xy -9.77248 3.66648) (xy -9.74753 3.68089) (xy -9.72337 3.69657)
    (xy -9.70007 3.7135) (xy -9.67768 3.73163) (xy -9.65628 3.75091) (xy -9.63591 3.77127)
    (xy -9.61664 3.79268) (xy -9.59851 3.81506) (xy -9.58158 3.83837) (xy -9.56589 3.86252)
    (xy -9.55149 3.88747) (xy -9.53841 3.91313) (xy -9.52669 3.93945) (xy -9.51637 3.96634)
    (xy -9.50747 3.99373) (xy -9.50001 4.02156) (xy -9.49403 4.04973) (xy -9.48952 4.07818)
    (xy -9.48651 4.10683) (xy -9.485 4.13559) (xy -9.485 4.15) (xy -9.485 4.8)) (layer B.Paste) (width 0.0001))
  (fp_poly (pts (xy -9.685 4.8) (xy -9.685 4.15) (xy -9.685 4.14084) (xy -9.68596 4.12253)
    (xy -9.68788 4.1043) (xy -9.69074 4.0862) (xy -9.69455 4.06827) (xy -9.6993 4.05056)
    (xy -9.70496 4.03313) (xy -9.71153 4.01602) (xy -9.71899 3.99927) (xy -9.72731 3.98294)
    (xy -9.73647 3.96706) (xy -9.74646 3.95169) (xy -9.75723 3.93686) (xy -9.76877 3.92262)
    (xy -9.78103 3.90899) (xy -9.79399 3.89603) (xy -9.80761 3.88377) (xy -9.82186 3.87223)
    (xy -9.83669 3.86146) (xy -9.85206 3.85147) (xy -9.86794 3.84231) (xy -9.88427 3.83399)
    (xy -9.90101 3.82653) (xy -9.91813 3.81996) (xy -9.93556 3.8143) (xy -9.95326 3.80955)
    (xy -9.97119 3.80574) (xy -9.9893 3.80288) (xy -10.0075 3.80096) (xy -10.0258 3.8)
    (xy -10.035 3.8) (xy -10.0442 3.8) (xy -10.0625 3.80096) (xy -10.0807 3.80288)
    (xy -10.0988 3.80574) (xy -10.1167 3.80955) (xy -10.1344 3.8143) (xy -10.1519 3.81996)
    (xy -10.169 3.82653) (xy -10.1857 3.83399) (xy -10.2021 3.84231) (xy -10.2179 3.85147)
    (xy -10.2333 3.86146) (xy -10.2481 3.87223) (xy -10.2624 3.88377) (xy -10.276 3.89603)
    (xy -10.289 3.90899) (xy -10.3012 3.92261) (xy -10.3128 3.93686) (xy -10.3235 3.95169)
    (xy -10.3335 3.96706) (xy -10.3427 3.98294) (xy -10.351 3.99927) (xy -10.3585 4.01601)
    (xy -10.365 4.03313) (xy -10.3707 4.05056) (xy -10.3754 4.06826) (xy -10.3793 4.08619)
    (xy -10.3821 4.1043) (xy -10.384 4.12253) (xy -10.385 4.14083) (xy -10.385 4.15)
    (xy -10.385 5.45) (xy -10.385 5.45916) (xy -10.384 5.47747) (xy -10.3821 5.4957)
    (xy -10.3793 5.5138) (xy -10.3754 5.53173) (xy -10.3707 5.54944) (xy -10.365 5.56687)
    (xy -10.3585 5.58398) (xy -10.351 5.60073) (xy -10.3427 5.61706) (xy -10.3335 5.63294)
    (xy -10.3235 5.64831) (xy -10.3128 5.66314) (xy -10.3012 5.67738) (xy -10.289 5.69101)
    (xy -10.276 5.70397) (xy -10.2624 5.71623) (xy -10.2481 5.72777) (xy -10.2333 5.73854)
    (xy -10.2179 5.74853) (xy -10.2021 5.75769) (xy -10.1857 5.76601) (xy -10.169 5.77347)
    (xy -10.1519 5.78004) (xy -10.1344 5.7857) (xy -10.1167 5.79045) (xy -10.0988 5.79426)
    (xy -10.0807 5.79712) (xy -10.0625 5.79904) (xy -10.0442 5.8) (xy -10.035 5.8)
    (xy -10.0258 5.8) (xy -10.0075 5.79904) (xy -9.9893 5.79712) (xy -9.9712 5.79426)
    (xy -9.95327 5.79045) (xy -9.93556 5.7857) (xy -9.91813 5.78004) (xy -9.90102 5.77347)
    (xy -9.88427 5.76601) (xy -9.86794 5.75769) (xy -9.85206 5.74853) (xy -9.83669 5.73854)
    (xy -9.82186 5.72777) (xy -9.80762 5.71623) (xy -9.79399 5.70397) (xy -9.78103 5.69101)
    (xy -9.76877 5.67739) (xy -9.75723 5.66314) (xy -9.74646 5.64831) (xy -9.73647 5.63294)
    (xy -9.72731 5.61706) (xy -9.71899 5.60073) (xy -9.71153 5.58399) (xy -9.70496 5.56687)
    (xy -9.6993 5.54944) (xy -9.69455 5.53174) (xy -9.69074 5.51381) (xy -9.68788 5.4957)
    (xy -9.68596 5.47747) (xy -9.685 5.45917) (xy -9.685 5.45) (xy -9.685 4.8)
    (xy -9.485 4.8) (xy -9.485 5.45) (xy -9.485 5.4644) (xy -9.48651 5.49316)
    (xy -9.48952 5.52181) (xy -9.49402 5.55026) (xy -9.50001 5.57844) (xy -9.50747 5.60626)
    (xy -9.51637 5.63365) (xy -9.52669 5.66054) (xy -9.53841 5.68686) (xy -9.55148 5.71252)
    (xy -9.56589 5.73747) (xy -9.58157 5.76163) (xy -9.5985 5.78493) (xy -9.61663 5.80732)
    (xy -9.63591 5.82872) (xy -9.65627 5.84909) (xy -9.67768 5.86836) (xy -9.70006 5.88649)
    (xy -9.72337 5.90342) (xy -9.74752 5.91911) (xy -9.77247 5.93351) (xy -9.79813 5.94659)
    (xy -9.82445 5.95831) (xy -9.85134 5.96863) (xy -9.87873 5.97753) (xy -9.90656 5.98499)
    (xy -9.93473 5.99097) (xy -9.96318 5.99548) (xy -9.99183 5.99849) (xy -10.0206 6)
    (xy -10.035 6) (xy -10.0494 6) (xy -10.0782 5.99849) (xy -10.1068 5.99548)
    (xy -10.1353 5.99098) (xy -10.1634 5.98499) (xy -10.1913 5.97753) (xy -10.2187 5.96863)
    (xy -10.2455 5.95831) (xy -10.2719 5.94659) (xy -10.2975 5.93352) (xy -10.3225 5.91911)
    (xy -10.3466 5.90343) (xy -10.3699 5.8865) (xy -10.3923 5.86837) (xy -10.4137 5.84909)
    (xy -10.4341 5.82873) (xy -10.4534 5.80732) (xy -10.4715 5.78494) (xy -10.4884 5.76163)
    (xy -10.5041 5.73748) (xy -10.5185 5.71253) (xy -10.5316 5.68687) (xy -10.5433 5.66055)
    (xy -10.5536 5.63366) (xy -10.5625 5.60627) (xy -10.57 5.57844) (xy -10.576 5.55027)
    (xy -10.5805 5.52182) (xy -10.5835 5.49317) (xy -10.585 5.46441) (xy -10.585 5.45)
    (xy -10.585 4.15) (xy -10.585 4.1356) (xy -10.5835 4.10684) (xy -10.5805 4.07819)
    (xy -10.576 4.04974) (xy -10.57 4.02156) (xy -10.5625 3.99374) (xy -10.5536 3.96635)
    (xy -10.5433 3.93946) (xy -10.5316 3.91314) (xy -10.5185 3.88748) (xy -10.5041 3.86253)
    (xy -10.4884 3.83837) (xy -10.4715 3.81507) (xy -10.4534 3.79268) (xy -10.4341 3.77128)
    (xy -10.4137 3.75091) (xy -10.3923 3.73164) (xy -10.3699 3.71351) (xy -10.3466 3.69658)
    (xy -10.3225 3.68089) (xy -10.2975 3.66649) (xy -10.2719 3.65341) (xy -10.2456 3.64169)
    (xy -10.2187 3.63137) (xy -10.1913 3.62247) (xy -10.1634 3.61501) (xy -10.1353 3.60903)
    (xy -10.1068 3.60452) (xy -10.0782 3.60151) (xy -10.0494 3.6) (xy -10.035 3.6)
    (xy -10.0206 3.6) (xy -9.99184 3.60151) (xy -9.96319 3.60452) (xy -9.93474 3.60902)
    (xy -9.90656 3.61501) (xy -9.87874 3.62247) (xy -9.85135 3.63137) (xy -9.82446 3.64169)
    (xy -9.79814 3.65341) (xy -9.77248 3.66648) (xy -9.74753 3.68089) (xy -9.72337 3.69657)
    (xy -9.70007 3.7135) (xy -9.67768 3.73163) (xy -9.65628 3.75091) (xy -9.63591 3.77127)
    (xy -9.61664 3.79268) (xy -9.59851 3.81506) (xy -9.58158 3.83837) (xy -9.56589 3.86252)
    (xy -9.55149 3.88747) (xy -9.53841 3.91313) (xy -9.52669 3.93945) (xy -9.51637 3.96634)
    (xy -9.50747 3.99373) (xy -9.50001 4.02156) (xy -9.49403 4.04973) (xy -9.48952 4.07818)
    (xy -9.48651 4.10683) (xy -9.485 4.13559) (xy -9.485 4.15) (xy -9.485 4.8)) (layer B.Cu) (width 0.0001))
  (fp_poly (pts (xy -9.685 4.8) (xy -9.685 4.15) (xy -9.685 4.14084) (xy -9.68596 4.12253)
    (xy -9.68788 4.1043) (xy -9.69074 4.0862) (xy -9.69455 4.06827) (xy -9.6993 4.05056)
    (xy -9.70496 4.03313) (xy -9.71153 4.01602) (xy -9.71899 3.99927) (xy -9.72731 3.98294)
    (xy -9.73647 3.96706) (xy -9.74646 3.95169) (xy -9.75723 3.93686) (xy -9.76877 3.92262)
    (xy -9.78103 3.90899) (xy -9.79399 3.89603) (xy -9.80761 3.88377) (xy -9.82186 3.87223)
    (xy -9.83669 3.86146) (xy -9.85206 3.85147) (xy -9.86794 3.84231) (xy -9.88427 3.83399)
    (xy -9.90101 3.82653) (xy -9.91813 3.81996) (xy -9.93556 3.8143) (xy -9.95326 3.80955)
    (xy -9.97119 3.80574) (xy -9.9893 3.80288) (xy -10.0075 3.80096) (xy -10.0258 3.8)
    (xy -10.035 3.8) (xy -10.0442 3.8) (xy -10.0625 3.80096) (xy -10.0807 3.80288)
    (xy -10.0988 3.80574) (xy -10.1167 3.80955) (xy -10.1344 3.8143) (xy -10.1519 3.81996)
    (xy -10.169 3.82653) (xy -10.1857 3.83399) (xy -10.2021 3.84231) (xy -10.2179 3.85147)
    (xy -10.2333 3.86146) (xy -10.2481 3.87223) (xy -10.2624 3.88377) (xy -10.276 3.89603)
    (xy -10.289 3.90899) (xy -10.3012 3.92261) (xy -10.3128 3.93686) (xy -10.3235 3.95169)
    (xy -10.3335 3.96706) (xy -10.3427 3.98294) (xy -10.351 3.99927) (xy -10.3585 4.01601)
    (xy -10.365 4.03313) (xy -10.3707 4.05056) (xy -10.3754 4.06826) (xy -10.3793 4.08619)
    (xy -10.3821 4.1043) (xy -10.384 4.12253) (xy -10.385 4.14083) (xy -10.385 4.15)
    (xy -10.385 5.45) (xy -10.385 5.45916) (xy -10.384 5.47747) (xy -10.3821 5.4957)
    (xy -10.3793 5.5138) (xy -10.3754 5.53173) (xy -10.3707 5.54944) (xy -10.365 5.56687)
    (xy -10.3585 5.58398) (xy -10.351 5.60073) (xy -10.3427 5.61706) (xy -10.3335 5.63294)
    (xy -10.3235 5.64831) (xy -10.3128 5.66314) (xy -10.3012 5.67738) (xy -10.289 5.69101)
    (xy -10.276 5.70397) (xy -10.2624 5.71623) (xy -10.2481 5.72777) (xy -10.2333 5.73854)
    (xy -10.2179 5.74853) (xy -10.2021 5.75769) (xy -10.1857 5.76601) (xy -10.169 5.77347)
    (xy -10.1519 5.78004) (xy -10.1344 5.7857) (xy -10.1167 5.79045) (xy -10.0988 5.79426)
    (xy -10.0807 5.79712) (xy -10.0625 5.79904) (xy -10.0442 5.8) (xy -10.035 5.8)
    (xy -10.0258 5.8) (xy -10.0075 5.79904) (xy -9.9893 5.79712) (xy -9.9712 5.79426)
    (xy -9.95327 5.79045) (xy -9.93556 5.7857) (xy -9.91813 5.78004) (xy -9.90102 5.77347)
    (xy -9.88427 5.76601) (xy -9.86794 5.75769) (xy -9.85206 5.74853) (xy -9.83669 5.73854)
    (xy -9.82186 5.72777) (xy -9.80762 5.71623) (xy -9.79399 5.70397) (xy -9.78103 5.69101)
    (xy -9.76877 5.67739) (xy -9.75723 5.66314) (xy -9.74646 5.64831) (xy -9.73647 5.63294)
    (xy -9.72731 5.61706) (xy -9.71899 5.60073) (xy -9.71153 5.58399) (xy -9.70496 5.56687)
    (xy -9.6993 5.54944) (xy -9.69455 5.53174) (xy -9.69074 5.51381) (xy -9.68788 5.4957)
    (xy -9.68596 5.47747) (xy -9.685 5.45917) (xy -9.685 5.45) (xy -9.685 4.8)
    (xy -9.485 4.8) (xy -9.485 5.45) (xy -9.485 5.4644) (xy -9.48651 5.49316)
    (xy -9.48952 5.52181) (xy -9.49402 5.55026) (xy -9.50001 5.57844) (xy -9.50747 5.60626)
    (xy -9.51637 5.63365) (xy -9.52669 5.66054) (xy -9.53841 5.68686) (xy -9.55148 5.71252)
    (xy -9.56589 5.73747) (xy -9.58157 5.76163) (xy -9.5985 5.78493) (xy -9.61663 5.80732)
    (xy -9.63591 5.82872) (xy -9.65627 5.84909) (xy -9.67768 5.86836) (xy -9.70006 5.88649)
    (xy -9.72337 5.90342) (xy -9.74752 5.91911) (xy -9.77247 5.93351) (xy -9.79813 5.94659)
    (xy -9.82445 5.95831) (xy -9.85134 5.96863) (xy -9.87873 5.97753) (xy -9.90656 5.98499)
    (xy -9.93473 5.99097) (xy -9.96318 5.99548) (xy -9.99183 5.99849) (xy -10.0206 6)
    (xy -10.035 6) (xy -10.0494 6) (xy -10.0782 5.99849) (xy -10.1068 5.99548)
    (xy -10.1353 5.99098) (xy -10.1634 5.98499) (xy -10.1913 5.97753) (xy -10.2187 5.96863)
    (xy -10.2455 5.95831) (xy -10.2719 5.94659) (xy -10.2975 5.93352) (xy -10.3225 5.91911)
    (xy -10.3466 5.90343) (xy -10.3699 5.8865) (xy -10.3923 5.86837) (xy -10.4137 5.84909)
    (xy -10.4341 5.82873) (xy -10.4534 5.80732) (xy -10.4715 5.78494) (xy -10.4884 5.76163)
    (xy -10.5041 5.73748) (xy -10.5185 5.71253) (xy -10.5316 5.68687) (xy -10.5433 5.66055)
    (xy -10.5536 5.63366) (xy -10.5625 5.60627) (xy -10.57 5.57844) (xy -10.576 5.55027)
    (xy -10.5805 5.52182) (xy -10.5835 5.49317) (xy -10.585 5.46441) (xy -10.585 5.45)
    (xy -10.585 4.15) (xy -10.585 4.1356) (xy -10.5835 4.10684) (xy -10.5805 4.07819)
    (xy -10.576 4.04974) (xy -10.57 4.02156) (xy -10.5625 3.99374) (xy -10.5536 3.96635)
    (xy -10.5433 3.93946) (xy -10.5316 3.91314) (xy -10.5185 3.88748) (xy -10.5041 3.86253)
    (xy -10.4884 3.83837) (xy -10.4715 3.81507) (xy -10.4534 3.79268) (xy -10.4341 3.77128)
    (xy -10.4137 3.75091) (xy -10.3923 3.73164) (xy -10.3699 3.71351) (xy -10.3466 3.69658)
    (xy -10.3225 3.68089) (xy -10.2975 3.66649) (xy -10.2719 3.65341) (xy -10.2456 3.64169)
    (xy -10.2187 3.63137) (xy -10.1913 3.62247) (xy -10.1634 3.61501) (xy -10.1353 3.60903)
    (xy -10.1068 3.60452) (xy -10.0782 3.60151) (xy -10.0494 3.6) (xy -10.035 3.6)
    (xy -10.0206 3.6) (xy -9.99184 3.60151) (xy -9.96319 3.60452) (xy -9.93474 3.60902)
    (xy -9.90656 3.61501) (xy -9.87874 3.62247) (xy -9.85135 3.63137) (xy -9.82446 3.64169)
    (xy -9.79814 3.65341) (xy -9.77248 3.66648) (xy -9.74753 3.68089) (xy -9.72337 3.69657)
    (xy -9.70007 3.7135) (xy -9.67768 3.73163) (xy -9.65628 3.75091) (xy -9.63591 3.77127)
    (xy -9.61664 3.79268) (xy -9.59851 3.81506) (xy -9.58158 3.83837) (xy -9.56589 3.86252)
    (xy -9.55149 3.88747) (xy -9.53841 3.91313) (xy -9.52669 3.93945) (xy -9.51637 3.96634)
    (xy -9.50747 3.99373) (xy -9.50001 4.02156) (xy -9.49403 4.04973) (xy -9.48952 4.07818)
    (xy -9.48651 4.10683) (xy -9.485 4.13559) (xy -9.485 4.15) (xy -9.485 4.8)) (layer F.Paste) (width 0.0001))
  (fp_poly (pts (xy -10.9283 3.3) (xy -9.16 3.3) (xy -9.16 6.31059) (xy -10.9283 6.31059)) (layer F.Mask) (width 0))
  (fp_poly (pts (xy -10.9283 3.3) (xy -9.16 3.3) (xy -9.16 6.31055) (xy -10.9283 6.31055)) (layer B.Mask) (width 0))
  (fp_poly (pts (xy 5.665 4.8) (xy 5.665 4.15) (xy 5.665 4.14084) (xy 5.66404 4.12253)
    (xy 5.66212 4.1043) (xy 5.65926 4.0862) (xy 5.65545 4.06827) (xy 5.6507 4.05056)
    (xy 5.64504 4.03313) (xy 5.63847 4.01602) (xy 5.63101 3.99927) (xy 5.62269 3.98294)
    (xy 5.61353 3.96706) (xy 5.60354 3.95169) (xy 5.59277 3.93686) (xy 5.58123 3.92262)
    (xy 5.56897 3.90899) (xy 5.55601 3.89603) (xy 5.54239 3.88377) (xy 5.52814 3.87223)
    (xy 5.51331 3.86146) (xy 5.49794 3.85147) (xy 5.48206 3.84231) (xy 5.46573 3.83399)
    (xy 5.44899 3.82653) (xy 5.43187 3.81996) (xy 5.41444 3.8143) (xy 5.39674 3.80955)
    (xy 5.37881 3.80574) (xy 5.3607 3.80288) (xy 5.34247 3.80096) (xy 5.32417 3.8)
    (xy 5.315 3.8) (xy 5.30584 3.8) (xy 5.28753 3.80096) (xy 5.2693 3.80288)
    (xy 5.2512 3.80574) (xy 5.23327 3.80955) (xy 5.21556 3.8143) (xy 5.19813 3.81996)
    (xy 5.18102 3.82653) (xy 5.16427 3.83399) (xy 5.14794 3.84231) (xy 5.13206 3.85147)
    (xy 5.11669 3.86146) (xy 5.10186 3.87223) (xy 5.08762 3.88377) (xy 5.07399 3.89603)
    (xy 5.06103 3.90899) (xy 5.04877 3.92261) (xy 5.03723 3.93686) (xy 5.02646 3.95169)
    (xy 5.01647 3.96706) (xy 5.00731 3.98294) (xy 4.99899 3.99927) (xy 4.99153 4.01601)
    (xy 4.98496 4.03313) (xy 4.9793 4.05056) (xy 4.97455 4.06826) (xy 4.97074 4.08619)
    (xy 4.96788 4.1043) (xy 4.96596 4.12253) (xy 4.965 4.14083) (xy 4.965 4.15)
    (xy 4.965 5.45) (xy 4.965 5.45916) (xy 4.96596 5.47747) (xy 4.96788 5.4957)
    (xy 4.97074 5.5138) (xy 4.97455 5.53173) (xy 4.9793 5.54944) (xy 4.98496 5.56687)
    (xy 4.99153 5.58398) (xy 4.99899 5.60073) (xy 5.00731 5.61706) (xy 5.01647 5.63294)
    (xy 5.02646 5.64831) (xy 5.03723 5.66314) (xy 5.04877 5.67738) (xy 5.06103 5.69101)
    (xy 5.07399 5.70397) (xy 5.08761 5.71623) (xy 5.10186 5.72777) (xy 5.11669 5.73854)
    (xy 5.13206 5.74853) (xy 5.14794 5.75769) (xy 5.16427 5.76601) (xy 5.18101 5.77347)
    (xy 5.19813 5.78004) (xy 5.21556 5.7857) (xy 5.23326 5.79045) (xy 5.25119 5.79426)
    (xy 5.2693 5.79712) (xy 5.28753 5.79904) (xy 5.30583 5.8) (xy 5.315 5.8)
    (xy 5.32416 5.8) (xy 5.34247 5.79904) (xy 5.3607 5.79712) (xy 5.3788 5.79426)
    (xy 5.39673 5.79045) (xy 5.41444 5.7857) (xy 5.43187 5.78004) (xy 5.44898 5.77347)
    (xy 5.46573 5.76601) (xy 5.48206 5.75769) (xy 5.49794 5.74853) (xy 5.51331 5.73854)
    (xy 5.52814 5.72777) (xy 5.54238 5.71623) (xy 5.55601 5.70397) (xy 5.56897 5.69101)
    (xy 5.58123 5.67739) (xy 5.59277 5.66314) (xy 5.60354 5.64831) (xy 5.61353 5.63294)
    (xy 5.62269 5.61706) (xy 5.63101 5.60073) (xy 5.63847 5.58399) (xy 5.64504 5.56687)
    (xy 5.6507 5.54944) (xy 5.65545 5.53174) (xy 5.65926 5.51381) (xy 5.66212 5.4957)
    (xy 5.66404 5.47747) (xy 5.665 5.45917) (xy 5.665 5.45) (xy 5.665 4.8)
    (xy 5.865 4.8) (xy 5.865 5.45) (xy 5.865 5.4644) (xy 5.86349 5.49316)
    (xy 5.86048 5.52181) (xy 5.85598 5.55026) (xy 5.84999 5.57844) (xy 5.84253 5.60626)
    (xy 5.83363 5.63365) (xy 5.82331 5.66054) (xy 5.81159 5.68686) (xy 5.79852 5.71252)
    (xy 5.78411 5.73747) (xy 5.76843 5.76163) (xy 5.7515 5.78493) (xy 5.73337 5.80732)
    (xy 5.71409 5.82872) (xy 5.69373 5.84909) (xy 5.67232 5.86836) (xy 5.64994 5.88649)
    (xy 5.62663 5.90342) (xy 5.60248 5.91911) (xy 5.57753 5.93351) (xy 5.55187 5.94659)
    (xy 5.52555 5.95831) (xy 5.49866 5.96863) (xy 5.47127 5.97753) (xy 5.44344 5.98499)
    (xy 5.41527 5.99097) (xy 5.38682 5.99548) (xy 5.35817 5.99849) (xy 5.32941 6)
    (xy 5.315 6) (xy 5.3006 6) (xy 5.27184 5.99849) (xy 5.24319 5.99548)
    (xy 5.21474 5.99098) (xy 5.18656 5.98499) (xy 5.15874 5.97753) (xy 5.13135 5.96863)
    (xy 5.10446 5.95831) (xy 5.07814 5.94659) (xy 5.05248 5.93352) (xy 5.02753 5.91911)
    (xy 5.00337 5.90343) (xy 4.98007 5.8865) (xy 4.95768 5.86837) (xy 4.93628 5.84909)
    (xy 4.91591 5.82873) (xy 4.89664 5.80732) (xy 4.87851 5.78494) (xy 4.86158 5.76163)
    (xy 4.84589 5.73748) (xy 4.83149 5.71253) (xy 4.81841 5.68687) (xy 4.80669 5.66055)
    (xy 4.79637 5.63366) (xy 4.78747 5.60627) (xy 4.78001 5.57844) (xy 4.77403 5.55027)
    (xy 4.76952 5.52182) (xy 4.76651 5.49317) (xy 4.765 5.46441) (xy 4.765 5.45)
    (xy 4.765 4.15) (xy 4.765 4.1356) (xy 4.76651 4.10684) (xy 4.76952 4.07819)
    (xy 4.77402 4.04974) (xy 4.78001 4.02156) (xy 4.78747 3.99374) (xy 4.79637 3.96635)
    (xy 4.80669 3.93946) (xy 4.81841 3.91314) (xy 4.83148 3.88748) (xy 4.84589 3.86253)
    (xy 4.86157 3.83837) (xy 4.8785 3.81507) (xy 4.89663 3.79268) (xy 4.91591 3.77128)
    (xy 4.93627 3.75091) (xy 4.95768 3.73164) (xy 4.98006 3.71351) (xy 5.00337 3.69658)
    (xy 5.02752 3.68089) (xy 5.05247 3.66649) (xy 5.07813 3.65341) (xy 5.10445 3.64169)
    (xy 5.13134 3.63137) (xy 5.15873 3.62247) (xy 5.18656 3.61501) (xy 5.21473 3.60903)
    (xy 5.24318 3.60452) (xy 5.27183 3.60151) (xy 5.30059 3.6) (xy 5.315 3.6)
    (xy 5.3294 3.6) (xy 5.35816 3.60151) (xy 5.38681 3.60452) (xy 5.41526 3.60902)
    (xy 5.44344 3.61501) (xy 5.47126 3.62247) (xy 5.49865 3.63137) (xy 5.52554 3.64169)
    (xy 5.55186 3.65341) (xy 5.57752 3.66648) (xy 5.60247 3.68089) (xy 5.62663 3.69657)
    (xy 5.64993 3.7135) (xy 5.67232 3.73163) (xy 5.69372 3.75091) (xy 5.71409 3.77127)
    (xy 5.73336 3.79268) (xy 5.75149 3.81506) (xy 5.76842 3.83837) (xy 5.78411 3.86252)
    (xy 5.79851 3.88747) (xy 5.81159 3.91313) (xy 5.82331 3.93945) (xy 5.83363 3.96634)
    (xy 5.84253 3.99373) (xy 5.84999 4.02156) (xy 5.85597 4.04973) (xy 5.86048 4.07818)
    (xy 5.86349 4.10683) (xy 5.865 4.13559) (xy 5.865 4.15) (xy 5.865 4.8)) (layer F.Cu) (width 0.0001))
  (fp_poly (pts (xy 5.665 4.8) (xy 5.665 4.15) (xy 5.665 4.14084) (xy 5.66404 4.12253)
    (xy 5.66212 4.1043) (xy 5.65926 4.0862) (xy 5.65545 4.06827) (xy 5.6507 4.05056)
    (xy 5.64504 4.03313) (xy 5.63847 4.01602) (xy 5.63101 3.99927) (xy 5.62269 3.98294)
    (xy 5.61353 3.96706) (xy 5.60354 3.95169) (xy 5.59277 3.93686) (xy 5.58123 3.92262)
    (xy 5.56897 3.90899) (xy 5.55601 3.89603) (xy 5.54239 3.88377) (xy 5.52814 3.87223)
    (xy 5.51331 3.86146) (xy 5.49794 3.85147) (xy 5.48206 3.84231) (xy 5.46573 3.83399)
    (xy 5.44899 3.82653) (xy 5.43187 3.81996) (xy 5.41444 3.8143) (xy 5.39674 3.80955)
    (xy 5.37881 3.80574) (xy 5.3607 3.80288) (xy 5.34247 3.80096) (xy 5.32417 3.8)
    (xy 5.315 3.8) (xy 5.30584 3.8) (xy 5.28753 3.80096) (xy 5.2693 3.80288)
    (xy 5.2512 3.80574) (xy 5.23327 3.80955) (xy 5.21556 3.8143) (xy 5.19813 3.81996)
    (xy 5.18102 3.82653) (xy 5.16427 3.83399) (xy 5.14794 3.84231) (xy 5.13206 3.85147)
    (xy 5.11669 3.86146) (xy 5.10186 3.87223) (xy 5.08762 3.88377) (xy 5.07399 3.89603)
    (xy 5.06103 3.90899) (xy 5.04877 3.92261) (xy 5.03723 3.93686) (xy 5.02646 3.95169)
    (xy 5.01647 3.96706) (xy 5.00731 3.98294) (xy 4.99899 3.99927) (xy 4.99153 4.01601)
    (xy 4.98496 4.03313) (xy 4.9793 4.05056) (xy 4.97455 4.06826) (xy 4.97074 4.08619)
    (xy 4.96788 4.1043) (xy 4.96596 4.12253) (xy 4.965 4.14083) (xy 4.965 4.15)
    (xy 4.965 5.45) (xy 4.965 5.45916) (xy 4.96596 5.47747) (xy 4.96788 5.4957)
    (xy 4.97074 5.5138) (xy 4.97455 5.53173) (xy 4.9793 5.54944) (xy 4.98496 5.56687)
    (xy 4.99153 5.58398) (xy 4.99899 5.60073) (xy 5.00731 5.61706) (xy 5.01647 5.63294)
    (xy 5.02646 5.64831) (xy 5.03723 5.66314) (xy 5.04877 5.67738) (xy 5.06103 5.69101)
    (xy 5.07399 5.70397) (xy 5.08761 5.71623) (xy 5.10186 5.72777) (xy 5.11669 5.73854)
    (xy 5.13206 5.74853) (xy 5.14794 5.75769) (xy 5.16427 5.76601) (xy 5.18101 5.77347)
    (xy 5.19813 5.78004) (xy 5.21556 5.7857) (xy 5.23326 5.79045) (xy 5.25119 5.79426)
    (xy 5.2693 5.79712) (xy 5.28753 5.79904) (xy 5.30583 5.8) (xy 5.315 5.8)
    (xy 5.32416 5.8) (xy 5.34247 5.79904) (xy 5.3607 5.79712) (xy 5.3788 5.79426)
    (xy 5.39673 5.79045) (xy 5.41444 5.7857) (xy 5.43187 5.78004) (xy 5.44898 5.77347)
    (xy 5.46573 5.76601) (xy 5.48206 5.75769) (xy 5.49794 5.74853) (xy 5.51331 5.73854)
    (xy 5.52814 5.72777) (xy 5.54238 5.71623) (xy 5.55601 5.70397) (xy 5.56897 5.69101)
    (xy 5.58123 5.67739) (xy 5.59277 5.66314) (xy 5.60354 5.64831) (xy 5.61353 5.63294)
    (xy 5.62269 5.61706) (xy 5.63101 5.60073) (xy 5.63847 5.58399) (xy 5.64504 5.56687)
    (xy 5.6507 5.54944) (xy 5.65545 5.53174) (xy 5.65926 5.51381) (xy 5.66212 5.4957)
    (xy 5.66404 5.47747) (xy 5.665 5.45917) (xy 5.665 5.45) (xy 5.665 4.8)
    (xy 5.865 4.8) (xy 5.865 5.45) (xy 5.865 5.4644) (xy 5.86349 5.49316)
    (xy 5.86048 5.52181) (xy 5.85598 5.55026) (xy 5.84999 5.57844) (xy 5.84253 5.60626)
    (xy 5.83363 5.63365) (xy 5.82331 5.66054) (xy 5.81159 5.68686) (xy 5.79852 5.71252)
    (xy 5.78411 5.73747) (xy 5.76843 5.76163) (xy 5.7515 5.78493) (xy 5.73337 5.80732)
    (xy 5.71409 5.82872) (xy 5.69373 5.84909) (xy 5.67232 5.86836) (xy 5.64994 5.88649)
    (xy 5.62663 5.90342) (xy 5.60248 5.91911) (xy 5.57753 5.93351) (xy 5.55187 5.94659)
    (xy 5.52555 5.95831) (xy 5.49866 5.96863) (xy 5.47127 5.97753) (xy 5.44344 5.98499)
    (xy 5.41527 5.99097) (xy 5.38682 5.99548) (xy 5.35817 5.99849) (xy 5.32941 6)
    (xy 5.315 6) (xy 5.3006 6) (xy 5.27184 5.99849) (xy 5.24319 5.99548)
    (xy 5.21474 5.99098) (xy 5.18656 5.98499) (xy 5.15874 5.97753) (xy 5.13135 5.96863)
    (xy 5.10446 5.95831) (xy 5.07814 5.94659) (xy 5.05248 5.93352) (xy 5.02753 5.91911)
    (xy 5.00337 5.90343) (xy 4.98007 5.8865) (xy 4.95768 5.86837) (xy 4.93628 5.84909)
    (xy 4.91591 5.82873) (xy 4.89664 5.80732) (xy 4.87851 5.78494) (xy 4.86158 5.76163)
    (xy 4.84589 5.73748) (xy 4.83149 5.71253) (xy 4.81841 5.68687) (xy 4.80669 5.66055)
    (xy 4.79637 5.63366) (xy 4.78747 5.60627) (xy 4.78001 5.57844) (xy 4.77403 5.55027)
    (xy 4.76952 5.52182) (xy 4.76651 5.49317) (xy 4.765 5.46441) (xy 4.765 5.45)
    (xy 4.765 4.15) (xy 4.765 4.1356) (xy 4.76651 4.10684) (xy 4.76952 4.07819)
    (xy 4.77402 4.04974) (xy 4.78001 4.02156) (xy 4.78747 3.99374) (xy 4.79637 3.96635)
    (xy 4.80669 3.93946) (xy 4.81841 3.91314) (xy 4.83148 3.88748) (xy 4.84589 3.86253)
    (xy 4.86157 3.83837) (xy 4.8785 3.81507) (xy 4.89663 3.79268) (xy 4.91591 3.77128)
    (xy 4.93627 3.75091) (xy 4.95768 3.73164) (xy 4.98006 3.71351) (xy 5.00337 3.69658)
    (xy 5.02752 3.68089) (xy 5.05247 3.66649) (xy 5.07813 3.65341) (xy 5.10445 3.64169)
    (xy 5.13134 3.63137) (xy 5.15873 3.62247) (xy 5.18656 3.61501) (xy 5.21473 3.60903)
    (xy 5.24318 3.60452) (xy 5.27183 3.60151) (xy 5.30059 3.6) (xy 5.315 3.6)
    (xy 5.3294 3.6) (xy 5.35816 3.60151) (xy 5.38681 3.60452) (xy 5.41526 3.60902)
    (xy 5.44344 3.61501) (xy 5.47126 3.62247) (xy 5.49865 3.63137) (xy 5.52554 3.64169)
    (xy 5.55186 3.65341) (xy 5.57752 3.66648) (xy 5.60247 3.68089) (xy 5.62663 3.69657)
    (xy 5.64993 3.7135) (xy 5.67232 3.73163) (xy 5.69372 3.75091) (xy 5.71409 3.77127)
    (xy 5.73336 3.79268) (xy 5.75149 3.81506) (xy 5.76842 3.83837) (xy 5.78411 3.86252)
    (xy 5.79851 3.88747) (xy 5.81159 3.91313) (xy 5.82331 3.93945) (xy 5.83363 3.96634)
    (xy 5.84253 3.99373) (xy 5.84999 4.02156) (xy 5.85597 4.04973) (xy 5.86048 4.07818)
    (xy 5.86349 4.10683) (xy 5.865 4.13559) (xy 5.865 4.15) (xy 5.865 4.8)) (layer B.Paste) (width 0.0001))
  (fp_poly (pts (xy 5.665 4.8) (xy 5.665 4.15) (xy 5.665 4.14084) (xy 5.66404 4.12253)
    (xy 5.66212 4.1043) (xy 5.65926 4.0862) (xy 5.65545 4.06827) (xy 5.6507 4.05056)
    (xy 5.64504 4.03313) (xy 5.63847 4.01602) (xy 5.63101 3.99927) (xy 5.62269 3.98294)
    (xy 5.61353 3.96706) (xy 5.60354 3.95169) (xy 5.59277 3.93686) (xy 5.58123 3.92262)
    (xy 5.56897 3.90899) (xy 5.55601 3.89603) (xy 5.54239 3.88377) (xy 5.52814 3.87223)
    (xy 5.51331 3.86146) (xy 5.49794 3.85147) (xy 5.48206 3.84231) (xy 5.46573 3.83399)
    (xy 5.44899 3.82653) (xy 5.43187 3.81996) (xy 5.41444 3.8143) (xy 5.39674 3.80955)
    (xy 5.37881 3.80574) (xy 5.3607 3.80288) (xy 5.34247 3.80096) (xy 5.32417 3.8)
    (xy 5.315 3.8) (xy 5.30584 3.8) (xy 5.28753 3.80096) (xy 5.2693 3.80288)
    (xy 5.2512 3.80574) (xy 5.23327 3.80955) (xy 5.21556 3.8143) (xy 5.19813 3.81996)
    (xy 5.18102 3.82653) (xy 5.16427 3.83399) (xy 5.14794 3.84231) (xy 5.13206 3.85147)
    (xy 5.11669 3.86146) (xy 5.10186 3.87223) (xy 5.08762 3.88377) (xy 5.07399 3.89603)
    (xy 5.06103 3.90899) (xy 5.04877 3.92261) (xy 5.03723 3.93686) (xy 5.02646 3.95169)
    (xy 5.01647 3.96706) (xy 5.00731 3.98294) (xy 4.99899 3.99927) (xy 4.99153 4.01601)
    (xy 4.98496 4.03313) (xy 4.9793 4.05056) (xy 4.97455 4.06826) (xy 4.97074 4.08619)
    (xy 4.96788 4.1043) (xy 4.96596 4.12253) (xy 4.965 4.14083) (xy 4.965 4.15)
    (xy 4.965 5.45) (xy 4.965 5.45916) (xy 4.96596 5.47747) (xy 4.96788 5.4957)
    (xy 4.97074 5.5138) (xy 4.97455 5.53173) (xy 4.9793 5.54944) (xy 4.98496 5.56687)
    (xy 4.99153 5.58398) (xy 4.99899 5.60073) (xy 5.00731 5.61706) (xy 5.01647 5.63294)
    (xy 5.02646 5.64831) (xy 5.03723 5.66314) (xy 5.04877 5.67738) (xy 5.06103 5.69101)
    (xy 5.07399 5.70397) (xy 5.08761 5.71623) (xy 5.10186 5.72777) (xy 5.11669 5.73854)
    (xy 5.13206 5.74853) (xy 5.14794 5.75769) (xy 5.16427 5.76601) (xy 5.18101 5.77347)
    (xy 5.19813 5.78004) (xy 5.21556 5.7857) (xy 5.23326 5.79045) (xy 5.25119 5.79426)
    (xy 5.2693 5.79712) (xy 5.28753 5.79904) (xy 5.30583 5.8) (xy 5.315 5.8)
    (xy 5.32416 5.8) (xy 5.34247 5.79904) (xy 5.3607 5.79712) (xy 5.3788 5.79426)
    (xy 5.39673 5.79045) (xy 5.41444 5.7857) (xy 5.43187 5.78004) (xy 5.44898 5.77347)
    (xy 5.46573 5.76601) (xy 5.48206 5.75769) (xy 5.49794 5.74853) (xy 5.51331 5.73854)
    (xy 5.52814 5.72777) (xy 5.54238 5.71623) (xy 5.55601 5.70397) (xy 5.56897 5.69101)
    (xy 5.58123 5.67739) (xy 5.59277 5.66314) (xy 5.60354 5.64831) (xy 5.61353 5.63294)
    (xy 5.62269 5.61706) (xy 5.63101 5.60073) (xy 5.63847 5.58399) (xy 5.64504 5.56687)
    (xy 5.6507 5.54944) (xy 5.65545 5.53174) (xy 5.65926 5.51381) (xy 5.66212 5.4957)
    (xy 5.66404 5.47747) (xy 5.665 5.45917) (xy 5.665 5.45) (xy 5.665 4.8)
    (xy 5.865 4.8) (xy 5.865 5.45) (xy 5.865 5.4644) (xy 5.86349 5.49316)
    (xy 5.86048 5.52181) (xy 5.85598 5.55026) (xy 5.84999 5.57844) (xy 5.84253 5.60626)
    (xy 5.83363 5.63365) (xy 5.82331 5.66054) (xy 5.81159 5.68686) (xy 5.79852 5.71252)
    (xy 5.78411 5.73747) (xy 5.76843 5.76163) (xy 5.7515 5.78493) (xy 5.73337 5.80732)
    (xy 5.71409 5.82872) (xy 5.69373 5.84909) (xy 5.67232 5.86836) (xy 5.64994 5.88649)
    (xy 5.62663 5.90342) (xy 5.60248 5.91911) (xy 5.57753 5.93351) (xy 5.55187 5.94659)
    (xy 5.52555 5.95831) (xy 5.49866 5.96863) (xy 5.47127 5.97753) (xy 5.44344 5.98499)
    (xy 5.41527 5.99097) (xy 5.38682 5.99548) (xy 5.35817 5.99849) (xy 5.32941 6)
    (xy 5.315 6) (xy 5.3006 6) (xy 5.27184 5.99849) (xy 5.24319 5.99548)
    (xy 5.21474 5.99098) (xy 5.18656 5.98499) (xy 5.15874 5.97753) (xy 5.13135 5.96863)
    (xy 5.10446 5.95831) (xy 5.07814 5.94659) (xy 5.05248 5.93352) (xy 5.02753 5.91911)
    (xy 5.00337 5.90343) (xy 4.98007 5.8865) (xy 4.95768 5.86837) (xy 4.93628 5.84909)
    (xy 4.91591 5.82873) (xy 4.89664 5.80732) (xy 4.87851 5.78494) (xy 4.86158 5.76163)
    (xy 4.84589 5.73748) (xy 4.83149 5.71253) (xy 4.81841 5.68687) (xy 4.80669 5.66055)
    (xy 4.79637 5.63366) (xy 4.78747 5.60627) (xy 4.78001 5.57844) (xy 4.77403 5.55027)
    (xy 4.76952 5.52182) (xy 4.76651 5.49317) (xy 4.765 5.46441) (xy 4.765 5.45)
    (xy 4.765 4.15) (xy 4.765 4.1356) (xy 4.76651 4.10684) (xy 4.76952 4.07819)
    (xy 4.77402 4.04974) (xy 4.78001 4.02156) (xy 4.78747 3.99374) (xy 4.79637 3.96635)
    (xy 4.80669 3.93946) (xy 4.81841 3.91314) (xy 4.83148 3.88748) (xy 4.84589 3.86253)
    (xy 4.86157 3.83837) (xy 4.8785 3.81507) (xy 4.89663 3.79268) (xy 4.91591 3.77128)
    (xy 4.93627 3.75091) (xy 4.95768 3.73164) (xy 4.98006 3.71351) (xy 5.00337 3.69658)
    (xy 5.02752 3.68089) (xy 5.05247 3.66649) (xy 5.07813 3.65341) (xy 5.10445 3.64169)
    (xy 5.13134 3.63137) (xy 5.15873 3.62247) (xy 5.18656 3.61501) (xy 5.21473 3.60903)
    (xy 5.24318 3.60452) (xy 5.27183 3.60151) (xy 5.30059 3.6) (xy 5.315 3.6)
    (xy 5.3294 3.6) (xy 5.35816 3.60151) (xy 5.38681 3.60452) (xy 5.41526 3.60902)
    (xy 5.44344 3.61501) (xy 5.47126 3.62247) (xy 5.49865 3.63137) (xy 5.52554 3.64169)
    (xy 5.55186 3.65341) (xy 5.57752 3.66648) (xy 5.60247 3.68089) (xy 5.62663 3.69657)
    (xy 5.64993 3.7135) (xy 5.67232 3.73163) (xy 5.69372 3.75091) (xy 5.71409 3.77127)
    (xy 5.73336 3.79268) (xy 5.75149 3.81506) (xy 5.76842 3.83837) (xy 5.78411 3.86252)
    (xy 5.79851 3.88747) (xy 5.81159 3.91313) (xy 5.82331 3.93945) (xy 5.83363 3.96634)
    (xy 5.84253 3.99373) (xy 5.84999 4.02156) (xy 5.85597 4.04973) (xy 5.86048 4.07818)
    (xy 5.86349 4.10683) (xy 5.865 4.13559) (xy 5.865 4.15) (xy 5.865 4.8)) (layer B.Cu) (width 0.0001))
  (fp_poly (pts (xy 5.665 4.8) (xy 5.665 4.15) (xy 5.665 4.14084) (xy 5.66404 4.12253)
    (xy 5.66212 4.1043) (xy 5.65926 4.0862) (xy 5.65545 4.06827) (xy 5.6507 4.05056)
    (xy 5.64504 4.03313) (xy 5.63847 4.01602) (xy 5.63101 3.99927) (xy 5.62269 3.98294)
    (xy 5.61353 3.96706) (xy 5.60354 3.95169) (xy 5.59277 3.93686) (xy 5.58123 3.92262)
    (xy 5.56897 3.90899) (xy 5.55601 3.89603) (xy 5.54239 3.88377) (xy 5.52814 3.87223)
    (xy 5.51331 3.86146) (xy 5.49794 3.85147) (xy 5.48206 3.84231) (xy 5.46573 3.83399)
    (xy 5.44899 3.82653) (xy 5.43187 3.81996) (xy 5.41444 3.8143) (xy 5.39674 3.80955)
    (xy 5.37881 3.80574) (xy 5.3607 3.80288) (xy 5.34247 3.80096) (xy 5.32417 3.8)
    (xy 5.315 3.8) (xy 5.30584 3.8) (xy 5.28753 3.80096) (xy 5.2693 3.80288)
    (xy 5.2512 3.80574) (xy 5.23327 3.80955) (xy 5.21556 3.8143) (xy 5.19813 3.81996)
    (xy 5.18102 3.82653) (xy 5.16427 3.83399) (xy 5.14794 3.84231) (xy 5.13206 3.85147)
    (xy 5.11669 3.86146) (xy 5.10186 3.87223) (xy 5.08762 3.88377) (xy 5.07399 3.89603)
    (xy 5.06103 3.90899) (xy 5.04877 3.92261) (xy 5.03723 3.93686) (xy 5.02646 3.95169)
    (xy 5.01647 3.96706) (xy 5.00731 3.98294) (xy 4.99899 3.99927) (xy 4.99153 4.01601)
    (xy 4.98496 4.03313) (xy 4.9793 4.05056) (xy 4.97455 4.06826) (xy 4.97074 4.08619)
    (xy 4.96788 4.1043) (xy 4.96596 4.12253) (xy 4.965 4.14083) (xy 4.965 4.15)
    (xy 4.965 5.45) (xy 4.965 5.45916) (xy 4.96596 5.47747) (xy 4.96788 5.4957)
    (xy 4.97074 5.5138) (xy 4.97455 5.53173) (xy 4.9793 5.54944) (xy 4.98496 5.56687)
    (xy 4.99153 5.58398) (xy 4.99899 5.60073) (xy 5.00731 5.61706) (xy 5.01647 5.63294)
    (xy 5.02646 5.64831) (xy 5.03723 5.66314) (xy 5.04877 5.67738) (xy 5.06103 5.69101)
    (xy 5.07399 5.70397) (xy 5.08761 5.71623) (xy 5.10186 5.72777) (xy 5.11669 5.73854)
    (xy 5.13206 5.74853) (xy 5.14794 5.75769) (xy 5.16427 5.76601) (xy 5.18101 5.77347)
    (xy 5.19813 5.78004) (xy 5.21556 5.7857) (xy 5.23326 5.79045) (xy 5.25119 5.79426)
    (xy 5.2693 5.79712) (xy 5.28753 5.79904) (xy 5.30583 5.8) (xy 5.315 5.8)
    (xy 5.32416 5.8) (xy 5.34247 5.79904) (xy 5.3607 5.79712) (xy 5.3788 5.79426)
    (xy 5.39673 5.79045) (xy 5.41444 5.7857) (xy 5.43187 5.78004) (xy 5.44898 5.77347)
    (xy 5.46573 5.76601) (xy 5.48206 5.75769) (xy 5.49794 5.74853) (xy 5.51331 5.73854)
    (xy 5.52814 5.72777) (xy 5.54238 5.71623) (xy 5.55601 5.70397) (xy 5.56897 5.69101)
    (xy 5.58123 5.67739) (xy 5.59277 5.66314) (xy 5.60354 5.64831) (xy 5.61353 5.63294)
    (xy 5.62269 5.61706) (xy 5.63101 5.60073) (xy 5.63847 5.58399) (xy 5.64504 5.56687)
    (xy 5.6507 5.54944) (xy 5.65545 5.53174) (xy 5.65926 5.51381) (xy 5.66212 5.4957)
    (xy 5.66404 5.47747) (xy 5.665 5.45917) (xy 5.665 5.45) (xy 5.665 4.8)
    (xy 5.865 4.8) (xy 5.865 5.45) (xy 5.865 5.4644) (xy 5.86349 5.49316)
    (xy 5.86048 5.52181) (xy 5.85598 5.55026) (xy 5.84999 5.57844) (xy 5.84253 5.60626)
    (xy 5.83363 5.63365) (xy 5.82331 5.66054) (xy 5.81159 5.68686) (xy 5.79852 5.71252)
    (xy 5.78411 5.73747) (xy 5.76843 5.76163) (xy 5.7515 5.78493) (xy 5.73337 5.80732)
    (xy 5.71409 5.82872) (xy 5.69373 5.84909) (xy 5.67232 5.86836) (xy 5.64994 5.88649)
    (xy 5.62663 5.90342) (xy 5.60248 5.91911) (xy 5.57753 5.93351) (xy 5.55187 5.94659)
    (xy 5.52555 5.95831) (xy 5.49866 5.96863) (xy 5.47127 5.97753) (xy 5.44344 5.98499)
    (xy 5.41527 5.99097) (xy 5.38682 5.99548) (xy 5.35817 5.99849) (xy 5.32941 6)
    (xy 5.315 6) (xy 5.3006 6) (xy 5.27184 5.99849) (xy 5.24319 5.99548)
    (xy 5.21474 5.99098) (xy 5.18656 5.98499) (xy 5.15874 5.97753) (xy 5.13135 5.96863)
    (xy 5.10446 5.95831) (xy 5.07814 5.94659) (xy 5.05248 5.93352) (xy 5.02753 5.91911)
    (xy 5.00337 5.90343) (xy 4.98007 5.8865) (xy 4.95768 5.86837) (xy 4.93628 5.84909)
    (xy 4.91591 5.82873) (xy 4.89664 5.80732) (xy 4.87851 5.78494) (xy 4.86158 5.76163)
    (xy 4.84589 5.73748) (xy 4.83149 5.71253) (xy 4.81841 5.68687) (xy 4.80669 5.66055)
    (xy 4.79637 5.63366) (xy 4.78747 5.60627) (xy 4.78001 5.57844) (xy 4.77403 5.55027)
    (xy 4.76952 5.52182) (xy 4.76651 5.49317) (xy 4.765 5.46441) (xy 4.765 5.45)
    (xy 4.765 4.15) (xy 4.765 4.1356) (xy 4.76651 4.10684) (xy 4.76952 4.07819)
    (xy 4.77402 4.04974) (xy 4.78001 4.02156) (xy 4.78747 3.99374) (xy 4.79637 3.96635)
    (xy 4.80669 3.93946) (xy 4.81841 3.91314) (xy 4.83148 3.88748) (xy 4.84589 3.86253)
    (xy 4.86157 3.83837) (xy 4.8785 3.81507) (xy 4.89663 3.79268) (xy 4.91591 3.77128)
    (xy 4.93627 3.75091) (xy 4.95768 3.73164) (xy 4.98006 3.71351) (xy 5.00337 3.69658)
    (xy 5.02752 3.68089) (xy 5.05247 3.66649) (xy 5.07813 3.65341) (xy 5.10445 3.64169)
    (xy 5.13134 3.63137) (xy 5.15873 3.62247) (xy 5.18656 3.61501) (xy 5.21473 3.60903)
    (xy 5.24318 3.60452) (xy 5.27183 3.60151) (xy 5.30059 3.6) (xy 5.315 3.6)
    (xy 5.3294 3.6) (xy 5.35816 3.60151) (xy 5.38681 3.60452) (xy 5.41526 3.60902)
    (xy 5.44344 3.61501) (xy 5.47126 3.62247) (xy 5.49865 3.63137) (xy 5.52554 3.64169)
    (xy 5.55186 3.65341) (xy 5.57752 3.66648) (xy 5.60247 3.68089) (xy 5.62663 3.69657)
    (xy 5.64993 3.7135) (xy 5.67232 3.73163) (xy 5.69372 3.75091) (xy 5.71409 3.77127)
    (xy 5.73336 3.79268) (xy 5.75149 3.81506) (xy 5.76842 3.83837) (xy 5.78411 3.86252)
    (xy 5.79851 3.88747) (xy 5.81159 3.91313) (xy 5.82331 3.93945) (xy 5.83363 3.96634)
    (xy 5.84253 3.99373) (xy 5.84999 4.02156) (xy 5.85597 4.04973) (xy 5.86048 4.07818)
    (xy 5.86349 4.10683) (xy 5.865 4.13559) (xy 5.865 4.15) (xy 5.865 4.8)) (layer F.Paste) (width 0.0001))
  (fp_poly (pts (xy 4.44797 3.3) (xy 6.19 3.3) (xy 6.19 6.31132) (xy 4.44797 6.31132)) (layer F.Mask) (width 0))
  (fp_poly (pts (xy 4.4429 3.3) (xy 6.19 3.3) (xy 6.19 6.30412) (xy 4.4429 6.30412)) (layer B.Mask) (width 0))
  (fp_circle (center 1.995 7.095) (end 2.095 7.095) (layer F.SilkS) (width 0.2))
  (fp_line (start 5.015 -9.58) (end 5.015 -8.75) (layer F.SilkS) (width 0.127))
  (fp_poly (pts (xy -9.885 -7.3) (xy -9.785 -7.3) (xy -9.785 3.6) (xy -9.885 3.6)) (layer Dwgs.User) (width 0))
  (fp_poly (pts (xy -9.885 -7.3) (xy -9.785 -7.3) (xy -9.785 3.6) (xy -9.885 3.6)) (layer Dwgs.User) (width 0))
  (fp_poly (pts (xy -9.885 -7.3) (xy -9.785 -7.3) (xy -9.785 3.6) (xy -9.885 3.6)) (layer Dwgs.User) (width 0))
  (pad C5 smd rect (at 3.175 0.45) (size 0.8 0.9) (layers F.Cu F.Paste F.Mask))
  (pad SW smd rect (at 3.235 1.475 270) (size 0.75 0.9) (layers F.Cu F.Paste F.Mask))
  (pad C6 smd rect (at 0.635 0.45) (size 0.8 0.9) (layers F.Cu F.Paste F.Mask))
  (pad C7 smd rect (at -1.905 0.45) (size 0.8 0.9) (layers F.Cu F.Paste F.Mask))
  (pad C1 smd rect (at 1.905 1.3) (size 0.8 0.9) (layers F.Cu F.Paste F.Mask))
  (pad C2 smd rect (at -0.635 1.3) (size 0.8 0.9) (layers F.Cu F.Paste F.Mask))
  (pad C3 smd rect (at -3.175 1.3) (size 0.8 0.9) (layers F.Cu F.Paste F.Mask))
  (pad C9 smd rect (at 5.065 0.3 90) (size 1.6 0.54) (layers F.Cu F.Paste F.Mask))
  (pad C10 smd rect (at 5.065 -7.785 90) (size 1.17 0.54) (layers F.Cu F.Paste F.Mask))
  (pad C11 smd rect (at 3.33 -9.605 180) (size 1.33 0.55) (layers F.Cu F.Paste F.Mask))
  (pad C12 smd rect (at 2.015 -9.39 270) (size 0.98 0.7) (layers F.Cu F.Paste F.Mask))
  (pad C13 smd rect (at -2.435 -9.425 270) (size 0.91 1.3) (layers F.Cu F.Paste F.Mask))
  (pad C14 smd rect (at -7.07 -9.425 270) (size 0.91 1.53) (layers F.Cu F.Paste F.Mask))
  (pad C15 smd rect (at -10.085 -8.25) (size 0.6 1.9) (layers F.Cu F.Paste F.Mask))
  (pad C16 smd rect (at -10.135 -2.28) (size 0.5 1.9) (layers F.Cu F.Paste F.Mask))
  (pad Hole np_thru_hole circle (at -10.035 4.8) (size 0.7 0.7) (drill 0.7) (layers *.Cu *.Mask F.SilkS))
  (pad C17 smd rect (at -10.035 3.657) (size 0.1 0.1) (layers F.Cu F.Paste F.Mask))
  (pad Hole np_thru_hole circle (at 5.315 4.8) (size 0.7 0.7) (drill 0.7) (layers *.Cu *.Mask F.SilkS))
  (pad C8 smd rect (at 5.315 3.657) (size 0.1 0.1) (layers F.Cu F.Paste F.Mask))
)
